%!PS-Adobe-3.0 EPSF-3.0
%%Creator: cairo 1.17.8 (https://cairographics.org)
%%CreationDate: Mon Jun  5 11:55:21 2023
%%Pages: 1
%%DocumentData: Clean7Bit
%%LanguageLevel: 3
%%BoundingBox: 0 0 197 270
%%EndComments
%%BeginProlog
50 dict begin
/q { gsave } bind def
/Q { grestore } bind def
/cm { 6 array astore concat } bind def
/w { setlinewidth } bind def
/J { setlinecap } bind def
/j { setlinejoin } bind def
/M { setmiterlimit } bind def
/d { setdash } bind def
/m { moveto } bind def
/l { lineto } bind def
/c { curveto } bind def
/h { closepath } bind def
/re { exch dup neg 3 1 roll 5 3 roll moveto 0 rlineto
      0 exch rlineto 0 rlineto closepath } bind def
/S { stroke } bind def
/f { fill } bind def
/f* { eofill } bind def
/n { newpath } bind def
/W { clip } bind def
/W* { eoclip } bind def
/BT { } bind def
/ET { } bind def
/BDC { mark 3 1 roll /BDC pdfmark } bind def
/EMC { mark /EMC pdfmark } bind def
/cairo_store_point { /cairo_point_y exch def /cairo_point_x exch def } def
/Tj { show currentpoint cairo_store_point } bind def
/TJ {
  {
    dup
    type /stringtype eq
    { show } { -0.001 mul 0 cairo_font_matrix dtransform rmoveto } ifelse
  } forall
  currentpoint cairo_store_point
} bind def
/cairo_selectfont { cairo_font_matrix aload pop pop pop 0 0 6 array astore
    cairo_font exch selectfont cairo_point_x cairo_point_y moveto } bind def
/Tf { pop /cairo_font exch def /cairo_font_matrix where
      { pop cairo_selectfont } if } bind def
/Td { matrix translate cairo_font_matrix matrix concatmatrix dup
      /cairo_font_matrix exch def dup 4 get exch 5 get cairo_store_point
      /cairo_font where { pop cairo_selectfont } if } bind def
/Tm { 2 copy 8 2 roll 6 array astore /cairo_font_matrix exch def
      cairo_store_point /cairo_font where { pop cairo_selectfont } if } bind def
/g { setgray } bind def
/rg { setrgbcolor } bind def
/d1 { setcachedevice } bind def
/cairo_data_source {
  CairoDataIndex CairoData length lt
    { CairoData CairoDataIndex get /CairoDataIndex CairoDataIndex 1 add def }
    { () } ifelse
} def
/cairo_flush_ascii85_file { cairo_ascii85_file status { cairo_ascii85_file flushfile } if } def
/cairo_image { image cairo_flush_ascii85_file } def
/cairo_imagemask { imagemask cairo_flush_ascii85_file } def
%%EndProlog
%%BeginSetup
%%EndSetup
%%Page: 1 1
%%BeginPageSetup
%%PageBoundingBox: 0 0 197 270
%%EndPageSetup
q 0 0 197 270 rectclip
1 0 0 -1 0 270 cm q
0 0.501961 1 rg
21.117 1.074 m 21.117 4.16 l 20.316 3.801 19.535 3.531 18.773 3.352 c 18.012
 3.168 17.293 3.078 16.617 3.078 c 15.719 3.078 15.055 3.199 14.625 3.449
 c 14.195 3.695 13.98 4.078 13.98 4.602 c 13.98 4.992 14.121 5.297 14.41
 5.52 c 14.703 5.734 15.23 5.918 15.992 6.074 c 17.594 6.398 l 19.215 6.723
 20.367 7.219 21.051 7.883 c 21.734 8.547 22.074 9.488 22.074 10.715 c 22.074
 12.32 21.598 13.52 20.641 14.309 c 19.688 15.09 18.234 15.48 16.273 15.48
 c 15.352 15.48 14.422 15.391 13.492 15.215 c 12.559 15.039 11.629 14.777
 10.699 14.434 c 10.699 11.262 l 11.629 11.754 12.527 12.129 13.395 12.383
 c 14.266 12.629 15.105 12.754 15.914 12.754 c 16.734 12.754 17.363 12.617
 17.797 12.344 c 18.234 12.07 18.453 11.68 18.453 11.172 c 18.453 10.715
 18.301 10.363 18.004 10.117 c 17.711 9.871 17.121 9.648 16.234 9.453 c 
14.781 9.133 l 13.32 8.82 12.254 8.32 11.578 7.637 c 10.906 6.953 10.57 
6.031 10.57 4.875 c 10.57 3.422 11.039 2.305 11.977 1.523 c 12.914 0.742
 14.262 0.352 16.02 0.352 c 16.82 0.352 17.645 0.414 18.492 0.539 c 19.336
 0.656 20.215 0.832 21.117 1.074 c h
21.117 1.074 m f
30.121 10.273 m 29.395 10.273 28.844 10.398 28.473 10.645 c 28.105 10.891
 27.926 11.258 27.926 11.738 c 27.926 12.18 28.07 12.531 28.363 12.785 c
 28.664 13.031 29.078 13.156 29.605 13.156 c 30.262 13.156 30.816 12.922
 31.266 12.453 c 31.715 11.977 31.938 11.383 31.938 10.676 c 31.938 10.273
 l h
35.465 8.957 m 35.465 15.195 l 31.938 15.195 l 31.938 13.574 l 31.469 14.238
 30.941 14.723 30.355 15.031 c 29.77 15.328 29.059 15.48 28.219 15.48 c 
27.086 15.48 26.164 15.148 25.453 14.492 c 24.75 13.828 24.398 12.969 24.398
 11.914 c 24.398 10.633 24.84 9.691 25.719 9.094 c 26.602 8.492 27.988 8.195
 29.879 8.195 c 31.938 8.195 l 31.938 7.922 l 31.938 7.367 31.719 6.965 
31.285 6.711 c 30.848 6.449 30.168 6.32 29.242 6.32 c 28.496 6.32 27.797
 6.395 27.152 6.543 c 26.508 6.691 25.91 6.918 25.355 7.219 c 25.355 4.551
 l 26.105 4.367 26.855 4.23 27.613 4.141 c 28.367 4.043 29.121 3.996 29.879
 3.996 c 31.852 3.996 33.273 4.387 34.145 5.168 c 35.023 5.941 35.465 7.203
 35.465 8.957 c h
35.465 8.957 m f
45.914 0 m 45.914 2.297 l 43.98 2.297 l 43.484 2.297 43.141 2.387 42.945
 2.566 c 42.75 2.742 42.652 3.055 42.652 3.496 c 42.652 4.258 l 45.641 4.258
 l 45.641 6.758 l 42.652 6.758 l 42.652 15.195 l 39.156 15.195 l 39.156 
6.758 l 37.418 6.758 l 37.418 4.258 l 39.156 4.258 l 39.156 3.496 l 39.156
 2.305 39.488 1.426 40.152 0.859 c 40.816 0.285 41.844 0 43.238 0 c h
45.914 0 m f
58.336 9.699 m 58.336 10.695 l 50.16 10.695 l 50.246 11.516 50.543 12.129
 51.051 12.539 c 51.559 12.949 52.266 13.156 53.18 13.156 c 53.914 13.156
 54.668 13.047 55.434 12.832 c 56.211 12.609 57.004 12.277 57.816 11.836
 c 57.816 14.531 l 56.992 14.844 56.164 15.078 55.336 15.234 c 54.512 15.398
 53.684 15.48 52.855 15.48 c 50.879 15.48 49.336 14.977 48.238 13.977 c 
47.145 12.965 46.598 11.555 46.598 9.738 c 46.598 7.953 47.133 6.551 48.207
 5.527 c 49.289 4.504 50.773 3.996 52.66 3.996 c 54.379 3.996 55.754 4.512
 56.781 5.547 c 57.816 6.582 58.336 7.965 58.336 9.699 c h
54.742 8.535 m 54.742 7.871 54.547 7.336 54.156 6.934 c 53.77 6.523 53.266
 6.32 52.641 6.32 c 51.965 6.32 51.414 6.512 50.992 6.895 c 50.566 7.273
 50.305 7.82 50.199 8.535 c h
54.742 8.535 m f
73.766 12.941 m 74.512 12.941 75.082 12.668 75.473 12.121 c 75.871 11.574
 76.07 10.777 76.07 9.738 c 76.07 8.695 75.871 7.902 75.473 7.355 c 75.082
 6.809 74.512 6.535 73.766 6.535 c 73.016 6.535 72.441 6.809 72.035 7.363
 c 71.641 7.91 71.441 8.703 71.441 9.738 c 71.441 10.773 71.641 11.566 72.035
 12.121 c 72.441 12.668 73.016 12.941 73.766 12.941 c h
71.441 5.859 m 71.922 5.223 72.457 4.754 73.043 4.453 c 73.629 4.148 74.301
 3.996 75.062 3.996 c 76.41 3.996 77.52 4.531 78.383 5.605 c 79.25 6.672
 79.684 8.051 79.684 9.738 c 79.684 11.422 79.25 12.805 78.383 13.879 c 
77.52 14.945 76.41 15.48 75.062 15.48 c 74.301 15.48 73.629 15.328 73.043
 15.031 c 72.457 14.723 71.922 14.25 71.441 13.613 c 71.441 15.195 l 67.945
 15.195 l 67.945 0 l 71.441 0 l h
71.441 5.859 m f
82.145 10.938 m 82.145 4.258 l 85.66 4.258 l 85.66 5.352 l 85.66 5.945 
85.656 6.691 85.648 7.59 c 85.645 8.48 85.641 9.074 85.641 9.375 c 85.641
 10.254 85.664 10.891 85.707 11.281 c 85.754 11.664 85.832 11.945 85.941
 12.121 c 86.086 12.348 86.27 12.523 86.5 12.648 c 86.734 12.77 87 12.832
 87.301 12.832 c 88.027 12.832 88.602 12.551 89.02 11.992 c 89.434 11.434
 89.645 10.656 89.645 9.66 c 89.645 4.258 l 93.141 4.258 l 93.141 15.195
 l 89.645 15.195 l 89.645 13.613 l 89.117 14.25 88.555 14.723 87.965 15.031
 c 87.379 15.328 86.73 15.48 86.02 15.48 c 84.758 15.48 83.793 15.09 83.129
 14.316 c 82.473 13.543 82.145 12.414 82.145 10.938 c h
82.145 10.938 m f
100.316 1.152 m 100.316 4.258 l 103.922 4.258 l 103.922 6.758 l 100.316
 6.758 l 100.316 11.398 l 100.316 11.906 100.418 12.25 100.621 12.434 c 
100.82 12.609 101.223 12.695 101.82 12.695 c 103.617 12.695 l 103.617 15.195
 l 100.621 15.195 l 99.238 15.195 98.262 14.91 97.68 14.336 c 97.109 13.758
 96.82 12.777 96.82 11.398 c 96.82 6.758 l 95.082 6.758 l 95.082 4.258 l
 96.82 4.258 l 96.82 1.152 l h
100.316 1.152 m f
121.566 4.602 m 121.566 7.258 l 120.82 6.945 120.098 6.711 119.398 6.555
 c 118.703 6.398 118.047 6.32 117.426 6.32 c 116.762 6.32 116.27 6.402 115.941
 6.574 c 115.625 6.734 115.465 6.988 115.465 7.336 c 115.465 7.613 115.586
 7.828 115.824 7.98 c 116.074 8.129 116.512 8.238 117.145 8.312 c 117.758
 8.398 l 119.551 8.625 120.754 9 121.371 9.523 c 121.992 10.043 122.301 
10.859 122.301 11.973 c 122.301 13.137 121.871 14.016 121.012 14.602 c 120.152
 15.188 118.867 15.48 117.164 15.48 c 116.441 15.48 115.691 15.422 114.918
 15.305 c 114.148 15.191 113.359 15.023 112.543 14.797 c 112.543 12.141 
l 113.242 12.477 113.953 12.73 114.684 12.902 c 115.418 13.07 116.164 13.156
 116.918 13.156 c 117.602 13.156 118.117 13.059 118.461 12.871 c 118.809
 12.684 118.98 12.402 118.98 12.031 c 118.98 11.719 118.859 11.488 118.617
 11.34 c 118.383 11.184 117.91 11.062 117.203 10.977 c 116.586 10.898 l 
115.031 10.703 113.941 10.344 113.316 9.816 c 112.691 9.289 112.379 8.488
 112.379 7.414 c 112.379 6.254 112.773 5.395 113.57 4.836 c 114.363 4.273
 115.582 3.996 117.223 3.996 c 117.867 3.996 118.543 4.043 119.254 4.141
 c 119.961 4.238 120.734 4.391 121.566 4.602 c h
121.566 4.602 m f
124.926 0 3.496 15.195 re f
136.988 6.496 m 136.211 6.496 135.621 6.773 135.211 7.336 c 134.805 7.887
 134.605 8.688 134.605 9.738 c 134.605 10.785 134.805 11.59 135.211 12.148
 c 135.621 12.703 136.211 12.98 136.988 12.98 c 137.75 12.98 138.332 12.703
 138.734 12.148 c 139.141 11.59 139.34 10.785 139.34 9.738 c 139.34 8.688
 139.141 7.887 138.734 7.336 c 138.332 6.773 137.75 6.496 136.988 6.496 
c h
136.988 3.996 m 138.867 3.996 140.336 4.504 141.391 5.52 c 142.453 6.535
 142.984 7.941 142.984 9.738 c 142.984 11.535 142.453 12.941 141.391 13.957
 c 140.336 14.973 138.867 15.48 136.988 15.48 c 135.098 15.48 133.621 14.973
 132.555 13.957 c 131.492 12.941 130.961 11.535 130.961 9.738 c 130.961 
7.941 131.492 6.535 132.555 5.52 c 133.621 4.504 135.098 3.996 136.988 3.996
 c h
136.988 3.996 m f
144.547 4.258 m 147.945 4.258 l 149.781 11.797 l 151.625 4.258 l 154.547
 4.258 l 156.383 11.719 l 158.227 4.258 l 161.625 4.258 l 158.746 15.195
 l 154.926 15.195 l 153.082 7.676 l 151.246 15.195 l 147.426 15.195 l h
144.547 4.258 m f
174.918 9.699 m 174.918 10.695 l 166.742 10.695 l 166.828 11.516 167.125
 12.129 167.633 12.539 c 168.141 12.949 168.848 13.156 169.762 13.156 c 
170.496 13.156 171.25 13.047 172.016 12.832 c 172.793 12.609 173.586 12.277
 174.398 11.836 c 174.398 14.531 l 173.574 14.844 172.746 15.078 171.918
 15.234 c 171.094 15.398 170.266 15.48 169.438 15.48 c 167.461 15.48 165.918
 14.977 164.82 13.977 c 163.727 12.965 163.18 11.555 163.18 9.738 c 163.18
 7.953 163.715 6.551 164.789 5.527 c 165.871 4.504 167.355 3.996 169.242
 3.996 c 170.961 3.996 172.336 4.512 173.363 5.547 c 174.398 6.582 174.918
 7.965 174.918 9.699 c h
171.324 8.535 m 171.324 7.871 171.129 7.336 170.738 6.934 c 170.352 6.523
 169.848 6.32 169.223 6.32 c 168.547 6.32 167.996 6.512 167.574 6.895 c 
167.148 7.273 166.887 7.82 166.781 8.535 c h
171.324 8.535 m f
185.688 7.238 m 185.383 7.094 185.078 6.988 184.77 6.926 c 184.473 6.852
 184.168 6.816 183.863 6.816 c 182.965 6.816 182.27 7.105 181.781 7.684 
c 181.301 8.258 181.059 9.082 181.059 10.156 c 181.059 15.195 l 177.562 
15.195 l 177.562 4.258 l 181.059 4.258 l 181.059 6.055 l 181.508 5.34 182.023
 4.816 182.602 4.492 c 183.188 4.16 183.887 3.992 184.703 3.992 c 184.82
 3.992 184.945 4 185.082 4.016 c 185.219 4.02 185.418 4.039 185.68 4.074
 c h
185.688 7.238 m f
1 0 0 rg
0 254.789 m 10.148 254.789 l 10.148 257.629 l 3.762 257.629 l 3.762 260.344
 l 9.766 260.344 l 9.766 263.188 l 3.762 263.188 l 3.762 269.367 l 0 269.367
 l h
0 254.789 m f
17.238 264.445 m 16.508 264.445 15.957 264.57 15.586 264.816 c 15.223 265.062
 15.039 265.43 15.039 265.91 c 15.039 266.352 15.188 266.703 15.48 266.957
 c 15.777 267.203 16.191 267.328 16.719 267.328 c 17.375 267.328 17.93 267.094
 18.379 266.625 c 18.828 266.148 19.055 265.555 19.055 264.848 c 19.055 
264.445 l h
22.578 263.129 m 22.578 269.367 l 19.055 269.367 l 19.055 267.746 l 18.586
 268.41 18.059 268.895 17.473 269.203 c 16.887 269.5 16.172 269.652 15.332
 269.652 c 14.199 269.652 13.277 269.32 12.57 268.664 c 11.867 268 11.516
 267.141 11.516 266.086 c 11.516 264.805 11.953 263.863 12.832 263.266 c
 13.719 262.664 15.105 262.367 16.992 262.367 c 19.055 262.367 l 19.055 
262.094 l 19.055 261.539 18.836 261.137 18.398 260.883 c 17.961 260.621 
17.281 260.492 16.359 260.492 c 15.609 260.492 14.914 260.566 14.27 260.715
 c 13.625 260.863 13.023 261.09 12.473 261.391 c 12.473 258.723 l 13.219
 258.539 13.973 258.402 14.727 258.312 c 15.48 258.215 16.238 258.168 16.992
 258.168 c 18.965 258.168 20.387 258.559 21.262 259.34 c 22.141 260.113 
22.578 261.375 22.578 263.129 c h
22.578 263.129 m f
34.375 258.773 m 34.375 261.43 l 33.625 261.117 32.902 260.883 32.207 260.727
 c 31.512 260.57 30.852 260.492 30.234 260.492 c 29.57 260.492 29.074 260.574
 28.75 260.746 c 28.43 260.906 28.273 261.16 28.273 261.508 c 28.273 261.785
 28.391 262 28.633 262.152 c 28.879 262.301 29.32 262.41 29.953 262.484 
c 30.566 262.57 l 32.355 262.797 33.562 263.172 34.18 263.695 c 34.797 264.215
 35.109 265.031 35.109 266.145 c 35.109 267.309 34.68 268.188 33.82 268.773
 c 32.961 269.359 31.676 269.652 29.973 269.652 c 29.25 269.652 28.5 269.594
 27.727 269.477 c 26.957 269.363 26.164 269.195 25.352 268.969 c 25.352 
266.312 l 26.047 266.648 26.762 266.902 27.492 267.074 c 28.227 267.242 
28.973 267.328 29.727 267.328 c 30.41 267.328 30.926 267.23 31.27 267.043
 c 31.613 266.855 31.789 266.574 31.789 266.203 c 31.789 265.891 31.668 
265.66 31.426 265.512 c 31.191 265.355 30.719 265.234 30.012 265.148 c 29.395
 265.07 l 27.84 264.875 26.75 264.516 26.125 263.988 c 25.5 263.461 25.188
 262.66 25.188 261.586 c 25.188 260.426 25.582 259.566 26.379 259.008 c 
27.172 258.445 28.391 258.168 30.031 258.168 c 30.676 258.168 31.352 258.215
 32.062 258.312 c 32.77 258.41 33.543 258.562 34.375 258.773 c h
34.375 258.773 m f
41.555 255.324 m 41.555 258.43 l 45.156 258.43 l 45.156 260.93 l 41.555
 260.93 l 41.555 265.57 l 41.555 266.078 41.652 266.422 41.855 266.605 c
 42.059 266.781 42.457 266.867 43.059 266.867 c 44.855 266.867 l 44.855 
269.367 l 41.855 269.367 l 40.477 269.367 39.496 269.082 38.918 268.508 
c 38.344 267.93 38.059 266.949 38.059 265.57 c 38.059 260.93 l 36.32 260.93
 l 36.32 258.43 l 38.059 258.43 l 38.059 255.324 l h
41.555 255.324 m f
58.215 263.871 m 58.215 264.867 l 50.039 264.867 l 50.125 265.688 50.422
 266.301 50.93 266.711 c 51.438 267.121 52.145 267.328 53.059 267.328 c 
53.793 267.328 54.543 267.219 55.312 267.004 c 56.086 266.781 56.883 266.449
 57.695 266.008 c 57.695 268.703 l 56.867 269.016 56.043 269.25 55.215 269.406
 c 54.387 269.57 53.562 269.652 52.734 269.652 c 50.754 269.652 49.215 269.148
 48.117 268.148 c 47.023 267.137 46.477 265.727 46.477 263.91 c 46.477 262.125
 47.012 260.723 48.086 259.699 c 49.168 258.676 50.652 258.168 52.539 258.168
 c 54.258 258.168 55.633 258.684 56.66 259.719 c 57.695 260.754 58.215 262.137
 58.215 263.871 c h
54.621 262.707 m 54.621 262.043 54.426 261.508 54.035 261.105 c 53.648 
260.695 53.145 260.492 52.52 260.492 c 51.844 260.492 51.293 260.684 50.871
 261.066 c 50.445 261.445 50.184 261.992 50.078 262.707 c h
54.621 262.707 m f
68.984 261.41 m 68.68 261.266 68.371 261.16 68.066 261.098 c 67.766 261.023
 67.465 260.988 67.16 260.988 c 66.262 260.988 65.566 261.277 65.078 261.859
 c 64.598 262.43 64.355 263.254 64.355 264.328 c 64.355 269.367 l 60.859
 269.367 l 60.859 258.43 l 64.355 258.43 l 64.355 260.227 l 64.805 259.512
 65.32 258.988 65.898 258.664 c 66.484 258.332 67.184 258.168 68 258.168
 c 68.117 258.168 68.242 258.172 68.379 258.188 c 68.516 258.191 68.715 
258.211 68.977 258.246 c h
68.984 261.41 m f
83.508 267.113 m 84.254 267.113 84.824 266.84 85.215 266.293 c 85.613 265.746
 85.812 264.949 85.812 263.91 c 85.812 262.867 85.613 262.074 85.215 261.527
 c 84.824 260.98 84.254 260.707 83.508 260.707 c 82.758 260.707 82.18 260.98
 81.777 261.535 c 81.379 262.082 81.184 262.875 81.184 263.91 c 81.184 264.945
 81.379 265.738 81.777 266.293 c 82.18 266.84 82.758 267.113 83.508 267.113
 c h
81.184 260.031 m 81.664 259.395 82.199 258.926 82.785 258.625 c 83.371 
258.32 84.043 258.168 84.805 258.168 c 86.152 258.168 87.258 258.703 88.125
 259.777 c 88.992 260.844 89.426 262.223 89.426 263.91 c 89.426 265.594 
88.992 266.977 88.125 268.051 c 87.258 269.117 86.152 269.652 84.805 269.652
 c 84.043 269.652 83.371 269.5 82.785 269.203 c 82.199 268.895 81.664 268.422
 81.184 267.785 c 81.184 269.367 l 77.688 269.367 l 77.688 254.172 l 81.184
 254.172 l h
81.184 260.031 m f
91.887 265.109 m 91.887 258.43 l 95.402 258.43 l 95.402 259.523 l 95.402
 260.117 95.398 260.863 95.391 261.762 c 95.383 262.652 95.383 263.246 95.383
 263.547 c 95.383 264.426 95.402 265.062 95.449 265.453 c 95.496 265.836
 95.574 266.117 95.684 266.293 c 95.828 266.52 96.012 266.695 96.242 266.82
 c 96.477 266.941 96.742 267.004 97.043 267.004 c 97.77 267.004 98.344 266.723
 98.762 266.164 c 99.176 265.605 99.387 264.828 99.387 263.832 c 99.387 
258.43 l 102.883 258.43 l 102.883 269.367 l 99.387 269.367 l 99.387 267.785
 l 98.859 268.422 98.297 268.895 97.707 269.203 c 97.121 269.5 96.473 269.652
 95.762 269.652 c 94.5 269.652 93.535 269.262 92.871 268.488 c 92.215 267.715
 91.887 266.586 91.887 265.109 c h
91.887 265.109 m f
110.059 255.324 m 110.059 258.43 l 113.664 258.43 l 113.664 260.93 l 110.059
 260.93 l 110.059 265.57 l 110.059 266.078 110.16 266.422 110.363 266.605
 c 110.562 266.781 110.965 266.867 111.562 266.867 c 113.359 266.867 l 113.359
 269.367 l 110.363 269.367 l 108.98 269.367 108 269.082 107.422 268.508 
c 106.848 267.93 106.562 266.949 106.562 265.57 c 106.562 260.93 l 104.824
 260.93 l 104.824 258.43 l 106.562 258.43 l 106.562 255.324 l h
110.059 255.324 m f
122.648 265.109 m 122.648 258.43 l 126.164 258.43 l 126.164 259.523 l 126.164
 260.117 126.16 260.863 126.152 261.762 c 126.145 262.652 126.145 263.246
 126.145 263.547 c 126.145 264.426 126.164 265.062 126.211 265.453 c 126.258
 265.836 126.336 266.117 126.445 266.293 c 126.59 266.52 126.773 266.695
 127.004 266.82 c 127.238 266.941 127.504 267.004 127.805 267.004 c 128.531
 267.004 129.105 266.723 129.523 266.164 c 129.938 265.605 130.148 264.828
 130.148 263.832 c 130.148 258.43 l 133.645 258.43 l 133.645 269.367 l 130.148
 269.367 l 130.148 267.785 l 129.621 268.422 129.059 268.895 128.469 269.203
 c 127.883 269.5 127.234 269.652 126.523 269.652 c 125.262 269.652 124.297
 269.262 123.633 268.488 c 122.977 267.715 122.648 266.586 122.648 265.109
 c h
122.648 265.109 m f
148 262.707 m 148 269.367 l 144.484 269.367 l 144.484 264.27 l 144.484 
263.324 144.461 262.676 144.414 262.316 c 144.375 261.957 144.305 261.695
 144.199 261.527 c 144.062 261.297 143.879 261.121 143.645 261 c 143.41 
260.867 143.141 260.805 142.844 260.805 c 142.113 260.805 141.539 261.086
 141.125 261.652 c 140.707 262.211 140.5 262.992 140.5 263.988 c 140.5 269.367
 l 137.004 269.367 l 137.004 258.43 l 140.5 258.43 l 140.5 260.031 l 141.027
 259.395 141.586 258.926 142.18 258.625 c 142.77 258.32 143.426 258.168 
144.141 258.168 c 145.402 258.168 146.359 258.555 147.012 259.328 c 147.668
 260.102 148 261.23 148 262.707 c h
148 262.707 m f
159.785 258.773 m 159.785 261.43 l 159.035 261.117 158.312 260.883 157.617
 260.727 c 156.922 260.57 156.262 260.492 155.645 260.492 c 154.98 260.492
 154.484 260.574 154.16 260.746 c 153.84 260.906 153.684 261.16 153.684 
261.508 c 153.684 261.785 153.801 262 154.043 262.152 c 154.289 262.301 
154.73 262.41 155.363 262.484 c 155.977 262.57 l 157.766 262.797 158.973
 263.172 159.59 263.695 c 160.207 264.215 160.52 265.031 160.52 266.145 
c 160.52 267.309 160.09 268.188 159.23 268.773 c 158.371 269.359 157.086
 269.652 155.383 269.652 c 154.66 269.652 153.91 269.594 153.137 269.477
 c 152.367 269.363 151.574 269.195 150.762 268.969 c 150.762 266.312 l 151.457
 266.648 152.172 266.902 152.902 267.074 c 153.637 267.242 154.383 267.328
 155.137 267.328 c 155.82 267.328 156.336 267.23 156.68 267.043 c 157.023
 266.855 157.199 266.574 157.199 266.203 c 157.199 265.891 157.078 265.66
 156.836 265.512 c 156.602 265.355 156.129 265.234 155.422 265.148 c 154.805
 265.07 l 153.25 264.875 152.16 264.516 151.535 263.988 c 150.91 263.461
 150.598 262.66 150.598 261.586 c 150.598 260.426 150.992 259.566 151.789
 259.008 c 152.582 258.445 153.801 258.168 155.441 258.168 c 156.086 258.168
 156.762 258.215 157.473 258.312 c 158.18 258.41 158.953 258.562 159.785
 258.773 c h
159.785 258.773 m f
168.047 264.445 m 167.316 264.445 166.77 264.57 166.398 264.816 c 166.031
 265.062 165.852 265.43 165.852 265.91 c 165.852 266.352 165.996 266.703
 166.289 266.957 c 166.59 267.203 167.004 267.328 167.531 267.328 c 168.188
 267.328 168.742 267.094 169.191 266.625 c 169.641 266.148 169.863 265.555
 169.863 264.848 c 169.863 264.445 l h
173.391 263.129 m 173.391 269.367 l 169.863 269.367 l 169.863 267.746 l
 169.395 268.41 168.867 268.895 168.281 269.203 c 167.695 269.5 166.984 
269.652 166.145 269.652 c 165.012 269.652 164.09 269.32 163.379 268.664 
c 162.676 268 162.324 267.141 162.324 266.086 c 162.324 264.805 162.766 
263.863 163.645 263.266 c 164.527 262.664 165.914 262.367 167.805 262.367
 c 169.863 262.367 l 169.863 262.094 l 169.863 261.539 169.645 261.137 169.211
 260.883 c 168.773 260.621 168.094 260.492 167.168 260.492 c 166.418 260.492
 165.723 260.566 165.078 260.715 c 164.434 260.863 163.836 261.09 163.281
 261.391 c 163.281 258.723 l 164.031 258.539 164.781 258.402 165.539 258.312
 c 166.293 258.215 167.047 258.168 167.805 258.168 c 169.777 258.168 171.199
 258.559 172.07 259.34 c 172.949 260.113 173.391 261.375 173.391 263.129
 c h
173.391 263.129 m f
183.84 254.172 m 183.84 256.469 l 181.906 256.469 l 181.41 256.469 181.066
 256.559 180.871 256.742 c 180.676 256.918 180.578 257.227 180.578 257.668
 c 180.578 258.43 l 183.566 258.43 l 183.566 260.93 l 180.578 260.93 l 180.578
 269.367 l 177.082 269.367 l 177.082 260.93 l 175.344 260.93 l 175.344 258.43
 l 177.082 258.43 l 177.082 257.668 l 177.082 256.477 177.414 255.598 178.078
 255.031 c 178.742 254.457 179.77 254.172 181.164 254.172 c h
183.84 254.172 m f
196.262 263.871 m 196.262 264.867 l 188.086 264.867 l 188.172 265.688 188.469
 266.301 188.977 266.711 c 189.484 267.121 190.191 267.328 191.105 267.328
 c 191.84 267.328 192.59 267.219 193.359 267.004 c 194.133 266.781 194.93
 266.449 195.742 266.008 c 195.742 268.703 l 194.914 269.016 194.09 269.25
 193.262 269.406 c 192.434 269.57 191.609 269.652 190.781 269.652 c 188.801
 269.652 187.262 269.148 186.164 268.148 c 185.07 267.137 184.523 265.727
 184.523 263.91 c 184.523 262.125 185.059 260.723 186.133 259.699 c 187.215
 258.676 188.699 258.168 190.586 258.168 c 192.305 258.168 193.68 258.684
 194.707 259.719 c 195.742 260.754 196.262 262.137 196.262 263.871 c h
192.668 262.707 m 192.668 262.043 192.473 261.508 192.082 261.105 c 191.695
 260.695 191.191 260.492 190.566 260.492 c 189.891 260.492 189.34 260.684
 188.918 261.066 c 188.492 261.445 188.23 261.992 188.125 262.707 c h
192.668 262.707 m f
/CairoFunction
<< /FunctionType 3
   /Domain [ 0 1 ]
   /Functions [
   << /FunctionType 2
      /Domain [ 0 1 ]
      /C0 [ 0 0.501961 1 ]
      /C1 [ 0.662745 0.662745 0.662745 ]
      /N 1
   >>
   << /FunctionType 2
      /Domain [ 0 1 ]
      /C0 [ 0.662745 0.662745 0.662745 ]
      /C1 [ 1 0.913725 0.0588235 ]
      /N 1
   >>
   << /FunctionType 2
      /Domain [ 0 1 ]
      /C0 [ 1 0.913725 0.0588235 ]
      /C1 [ 1 0 0 ]
      /N 1
   >>
   ]
   /Bounds [ 0.330868 0.657791 ]
   /Encode [ 1 1 3 { pop 0 1 } for ]
>>
def
<< /PatternType 2
   /Shading
   << /ShadingType 2
      /ColorSpace /DeviceRGB
      /Coords [ 16.008776 27.117098 16.008776 96.64782 ]
      /Extend [ true true ]
      /Function CairoFunction
   >>
>>
[ 2.834646 0 0 2.834646 52.378605 -38.760537 ]
makepattern setpattern
1.500001 w
1 J
0 j
[] 0.0 d
4 M q 1 0 0 1 0 0 cm
95.238 37.012 m 95.688 39.102 96.133 41.18 96.504 44.973 c 96.875 48.762
 97.172 54.262 97.766 65.707 c 98.359 77.152 99.254 94.543 99.773 117.953
 c 100.293 141.363 100.441 170.793 100.59 190.711 c 100.738 210.629 100.887
 221.035 100.961 226.758 c 101.035 232.477 101.035 233.52 100.965 234.035
 c 100.895 234.551 100.746 234.551 100.598 234.48 c 100.449 234.41 100.301
 234.262 100.145 234.105 c S Q
1 0 0 rg
q 1 0 0 1 0 0 cm
88.996 212.258 m 89.895 213.453 90.785 214.645 91.527 216.277 c 92.27 217.914
 92.863 219.996 93.531 222.52 c 94.199 225.047 94.945 228.02 95.613 230.621
 c 96.281 233.223 96.875 235.453 97.32 237.387 c 97.766 239.316 98.066 240.953
 98.363 242.066 c 98.66 243.184 98.961 243.777 99.105 244.223 c 99.254 244.668
 99.254 244.965 99.332 245.188 c 99.41 245.41 99.559 245.559 99.773 245.188
 c 99.992 244.812 100.293 243.922 100.812 242.062 c 101.332 240.207 102.074
 237.383 103.488 232.328 c 104.898 227.273 106.98 219.992 109.062 214.043
 c 111.141 208.098 113.223 203.488 114.859 200.219 c 116.492 196.949 117.684
 195.016 118.871 193.082 c S Q
0 0.501961 1 rg
q 1 0 0 1 0 0 cm
81.414 67.777 m 81.711 67.039 82.008 66.297 82.527 64.59 c 83.051 62.879
 83.793 60.203 85.129 55.895 c 86.469 51.582 88.398 45.637 89.887 41.176
 c 91.371 36.719 92.414 33.746 93.082 31.887 c 93.75 30.027 94.047 29.285
 94.27 28.617 c 94.496 27.949 94.645 27.355 94.797 27.055 c 94.949 26.754
 95.098 26.754 95.246 26.754 c 95.395 26.754 95.543 26.754 95.988 27.43 
c 96.434 28.102 97.176 29.438 97.992 30.852 c 98.812 32.262 99.703 33.75
 101.637 37.984 c 103.566 42.223 106.539 49.207 108.398 53.52 c 110.254 
57.828 111 59.465 111.742 61.918 c 112.484 64.371 113.227 67.641 113.969
 70.902 c S Q
Q Q
showpage
%%Trailer
end
%%EOF
