<?xml version="1.0" encoding="UTF-8" standalone="no"?>
<!-- Created with Inkscape (http://www.inkscape.org/) -->

<svg
   width="69.23613mm"
   height="95.126793mm"
   viewBox="0 0 69.23613 95.126793"
   version="1.1"
   id="svg5"
   inkscape:version="1.2.2 (b0a8486541, 2022-12-01)"
   sodipodi:docname="cache-safety.svg"
   xmlns:inkscape="http://www.inkscape.org/namespaces/inkscape"
   xmlns:sodipodi="http://sodipodi.sourceforge.net/DTD/sodipodi-0.dtd"
   xmlns:xlink="http://www.w3.org/1999/xlink"
   xmlns="http://www.w3.org/2000/svg"
   xmlns:svg="http://www.w3.org/2000/svg">
  <sodipodi:namedview
     id="namedview7"
     pagecolor="#ffffff"
     bordercolor="#666666"
     borderopacity="1.0"
     inkscape:showpageshadow="2"
     inkscape:pageopacity="0.0"
     inkscape:pagecheckerboard="0"
     inkscape:deskcolor="#d1d1d1"
     inkscape:document-units="mm"
     showgrid="false"
     inkscape:zoom="1.6819304"
     inkscape:cx="488.72415"
     inkscape:cy="203.63506"
     inkscape:window-width="2560"
     inkscape:window-height="1307"
     inkscape:window-x="0"
     inkscape:window-y="0"
     inkscape:window-maximized="1"
     inkscape:current-layer="layer1" />
  <defs
     id="defs2">
    <linearGradient
       inkscape:collect="always"
       id="linearGradient37423">
      <stop
         style="stop-color:#0080ff;stop-opacity:1;"
         offset="0"
         id="stop37419" />
      <stop
         style="stop-color:#a9a9a9;stop-opacity:1;"
         offset="0.33086786"
         id="stop39733" />
      <stop
         style="stop-color:#ffe90f;stop-opacity:1;"
         offset="0.6577909"
         id="stop39729" />
      <stop
         style="stop-color:#ff0000;stop-opacity:1;"
         offset="1"
         id="stop37421" />
    </linearGradient>
    <inkscape:path-effect
       effect="bspline"
       id="path-effect36305"
       is_visible="true"
       lpeversion="1"
       weight="33.333333"
       steps="2"
       helper_size="0"
       apply_no_weight="true"
       apply_with_weight="true"
       only_selected="false" />
    <inkscape:path-effect
       effect="bspline"
       id="path-effect36293"
       is_visible="true"
       lpeversion="1"
       weight="33.333333"
       steps="2"
       helper_size="0"
       apply_no_weight="true"
       apply_with_weight="true"
       only_selected="false" />
    <inkscape:path-effect
       effect="bspline"
       id="path-effect36289"
       is_visible="true"
       lpeversion="1"
       weight="33.333333"
       steps="2"
       helper_size="0"
       apply_no_weight="true"
       apply_with_weight="true"
       only_selected="false" />
    <linearGradient
       inkscape:collect="always"
       xlink:href="#linearGradient37423"
       id="linearGradient37425"
       x1="16.008776"
       y1="27.117098"
       x2="16.008776"
       y2="96.64782"
       gradientUnits="userSpaceOnUse" />
  </defs>
  <g
     inkscape:label="Ebene 1"
     inkscape:groupmode="layer"
     id="layer1"
     transform="translate(18.478008,-13.673856)">
    <text
       xml:space="preserve"
       style="font-style:normal;font-variant:normal;font-weight:bold;font-stretch:normal;font-size:7.05556px;line-height:6.00001px;font-family:sans-serif;-inkscape-font-specification:'sans-serif Bold';letter-spacing:0px;word-spacing:0px;writing-mode:lr-tb;fill:#0080ff;fill-opacity:1;stroke:none;stroke-width:0.264583px;stroke-linecap:butt;stroke-linejoin:miter;stroke-opacity:1"
       x="-15.255119"
       y="19.034428"
       id="text255"><tspan
         sodipodi:role="line"
         id="tspan253"
         style="font-style:normal;font-variant:normal;font-weight:bold;font-stretch:normal;font-family:sans-serif;-inkscape-font-specification:'sans-serif Bold';fill:#0080ff;fill-opacity:1;stroke:none;stroke-width:0.264583px"
         x="-15.255119"
         y="19.034428">Safe but slower</tspan></text>
    <text
       xml:space="preserve"
       style="font-style:normal;font-variant:normal;font-weight:bold;font-stretch:normal;font-size:7.05556px;line-height:6.00001px;font-family:sans-serif;-inkscape-font-specification:'sans-serif Bold';letter-spacing:0px;word-spacing:0px;writing-mode:lr-tb;fill:#ff0000;fill-opacity:1;stroke:none;stroke-width:0.264583px;stroke-linecap:butt;stroke-linejoin:miter;stroke-opacity:1"
       x="-19.125687"
       y="108.70074"
       id="text1697"><tspan
         sodipodi:role="line"
         id="tspan1695"
         style="font-style:normal;font-variant:normal;font-weight:bold;font-stretch:normal;font-family:sans-serif;-inkscape-font-specification:'sans-serif Bold';fill:#ff0000;fill-opacity:1;stroke:none;stroke-width:0.264583px"
         x="-19.125687"
         y="108.70074">Faster but unsafe</tspan></text>
    <path
       style="opacity:1;vector-effect:none;fill:none;fill-opacity:1;fill-rule:evenodd;stroke:url(#linearGradient37425);stroke-width:0.529167;stroke-linecap:round;stroke-linejoin:miter;stroke-miterlimit:4;stroke-dasharray:none;stroke-dashoffset:0;stroke-opacity:1;paint-order:normal"
       d="m 15.120134,26.73053 c 0.157968,0.737182 0.315278,1.471292 0.446115,2.808275 0.130837,1.336984 0.23571,3.277133 0.445452,7.314735 0.209742,4.037602 0.524361,10.172665 0.707823,18.431348 0.183463,8.258682 0.235899,18.641098 0.288348,25.667593 0.05245,7.026494 0.104886,10.697046 0.131086,12.71583 0.0262,2.018784 0.0262,2.385838 0.0013,2.568043 -0.0249,0.182205 -0.07733,0.182205 -0.129769,0.15731 -0.05244,-0.0249 -0.104873,-0.07733 -0.159955,-0.132415"
       id="path36287"
       inkscape:path-effect="#path-effect36289"
       inkscape:original-d="m 15.120134,26.73053 c 0.159956,0.736756 0.317264,1.470866 0.471929,2.20233 0.107519,1.942794 0.212392,3.882943 0.314619,5.820445 0.317264,6.137709 0.631883,12.272772 0.943856,18.405192 0.05508,10.38506 0.107519,20.767476 0.157308,31.147244 0.05508,3.673197 0.107519,7.343749 0.157311,11.011654 0.0026,0.3697 0.0026,0.736754 0,1.101164 -0.04979,0.0026 -0.102228,0.0026 -0.157311,0 -0.04979,-0.04979 -0.102227,-0.102227 -0.157308,-0.15731" />
    <path
       style="opacity:1;vector-effect:none;fill:none;fill-opacity:1;fill-rule:evenodd;stroke:#ff0000;stroke-width:0.529167;stroke-linecap:round;stroke-linejoin:miter;stroke-miterlimit:4;stroke-dasharray:none;stroke-dashoffset:0;stroke-opacity:1;paint-order:normal"
       d="m 12.917803,88.553092 c 0.316842,0.422456 0.63146,0.841946 0.89298,1.418838 0.261521,0.576892 0.471266,1.311002 0.707171,2.202406 0.235904,0.891403 0.498086,1.940132 0.734079,2.857777 0.235992,0.917646 0.445738,1.704194 0.602905,2.385816 0.157167,0.681623 0.26204,1.258423 0.367432,1.651771 0.105391,0.393348 0.210264,0.603094 0.261906,0.760139 0.05164,0.157044 0.05164,0.261921 0.07919,0.340581 0.02754,0.0787 0.07997,0.13108 0.15704,-5.4e-4 0.07707,-0.13162 0.18194,-0.446238 0.365492,-1.101576 0.183553,-0.655337 0.445736,-1.65163 0.943872,-3.434506 0.498137,-1.782877 1.232248,-4.352264 1.966336,-6.449992 0.734088,-2.097729 1.468198,-3.723257 2.045043,-4.877093 0.576846,-1.153836 0.996335,-1.835508 1.416281,-2.517921"
       id="path36291"
       inkscape:path-effect="#path-effect36293"
       inkscape:original-d="m 12.917803,88.553092 c 0.317265,0.422138 0.631883,0.841629 0.943856,1.258475 0.212392,0.736756 0.422138,1.470866 0.629238,2.202331 0.264829,1.051374 0.52701,2.100103 0.786548,3.146186 0.212391,0.789192 0.422137,1.57574 0.629237,2.359639 0.107519,0.579448 0.212392,1.156248 0.314619,1.730404 0.107519,0.212392 0.212391,0.422138 0.314618,0.629238 0.0026,0.107518 0.0026,0.212395 0,0.314615 0.05508,0.0551 0.107519,0.10752 0.157308,0.15731 0.107519,-0.31197 0.212392,-0.62659 0.314619,-0.943855 0.26483,-0.993645 0.52701,-1.989939 0.786548,-2.988876 0.736756,-2.566739 1.470867,-5.136126 2.202331,-7.708156 0.736756,-1.622886 1.470866,-3.248414 2.202331,-4.876589 0.422137,-0.679029 0.841626,-1.360701 1.258472,-2.045022" />
    <path
       style="opacity:1;vector-effect:none;fill:none;fill-opacity:1;fill-rule:evenodd;stroke:#0080ff;stroke-width:0.529167;stroke-linecap:round;stroke-linejoin:miter;stroke-miterlimit:4;stroke-dasharray:none;stroke-dashoffset:0;stroke-opacity:1;paint-order:normal"
       d="m 10.243545,37.584873 c 0.104326,-0.260814 0.209199,-0.522996 0.392754,-1.125813 0.183555,-0.602816 0.445737,-1.546672 0.917649,-3.067408 0.471912,-1.520736 1.153586,-3.618193 1.677944,-5.191328 0.524358,-1.573135 0.891413,-2.621864 1.127371,-3.277401 0.235959,-0.655537 0.340832,-0.917719 0.419527,-1.153433 0.07869,-0.235715 0.131132,-0.445461 0.185124,-0.551268 0.05399,-0.105807 0.10643,-0.105807 0.158865,-0.105807 0.05244,0 0.104873,0 0.261734,0.237536 0.15686,0.237537 0.419043,0.709466 0.707503,1.207595 0.28846,0.49813 0.603079,1.022495 1.284499,2.516974 0.681419,1.494479 1.730148,3.958992 2.385649,5.479646 0.655502,1.520655 0.917684,2.097455 1.179492,2.962606 0.261808,0.86515 0.52399,2.018752 0.78547,3.169266"
       id="path36303"
       inkscape:path-effect="#path-effect36305"
       inkscape:original-d="m 10.243545,37.584873 c 0.107519,-0.259537 0.212392,-0.521719 0.314619,-0.786547 0.26483,-0.94121 0.52701,-1.885066 0.786548,-2.831568 0.684319,-2.094811 1.365991,-4.192269 2.04502,-6.292372 0.3697,-1.046083 0.736756,-2.094812 1.101164,-3.146187 0.107519,-0.259536 0.212392,-0.521718 0.314619,-0.786546 0.05508,-0.2071 0.107519,-0.416846 0.157311,-0.629238 0.05508,0.0026 0.107518,0.0026 0.157308,0 0.05508,0.0026 0.107518,0.0026 0.15731,0 0.264827,0.474574 0.527011,0.946502 0.786546,1.415784 0.317264,0.52701 0.631883,1.051375 0.943856,1.573093 1.051375,2.467159 2.100104,4.931672 3.146187,7.393538 0.264829,0.579447 0.52701,1.156248 0.786548,1.730403 0.264826,1.156248 0.52701,2.309849 0.786545,3.460805" />
  </g>
</svg>
