%!PS-Adobe-3.0 EPSF-3.0
%%Creator: cairo 1.17.8 (https://cairographics.org)
%%CreationDate: Mon Jun  5 12:25:50 2023
%%Pages: 1
%%DocumentData: Clean7Bit
%%LanguageLevel: 2
%%BoundingBox: 0 0 236 376
%%EndComments
%%BeginProlog
50 dict begin
/q { gsave } bind def
/Q { grestore } bind def
/cm { 6 array astore concat } bind def
/w { setlinewidth } bind def
/J { setlinecap } bind def
/j { setlinejoin } bind def
/M { setmiterlimit } bind def
/d { setdash } bind def
/m { moveto } bind def
/l { lineto } bind def
/c { curveto } bind def
/h { closepath } bind def
/re { exch dup neg 3 1 roll 5 3 roll moveto 0 rlineto
      0 exch rlineto 0 rlineto closepath } bind def
/S { stroke } bind def
/f { fill } bind def
/f* { eofill } bind def
/n { newpath } bind def
/W { clip } bind def
/W* { eoclip } bind def
/BT { } bind def
/ET { } bind def
/BDC { mark 3 1 roll /BDC pdfmark } bind def
/EMC { mark /EMC pdfmark } bind def
/cairo_store_point { /cairo_point_y exch def /cairo_point_x exch def } def
/Tj { show currentpoint cairo_store_point } bind def
/TJ {
  {
    dup
    type /stringtype eq
    { show } { -0.001 mul 0 cairo_font_matrix dtransform rmoveto } ifelse
  } forall
  currentpoint cairo_store_point
} bind def
/cairo_selectfont { cairo_font_matrix aload pop pop pop 0 0 6 array astore
    cairo_font exch selectfont cairo_point_x cairo_point_y moveto } bind def
/Tf { pop /cairo_font exch def /cairo_font_matrix where
      { pop cairo_selectfont } if } bind def
/Td { matrix translate cairo_font_matrix matrix concatmatrix dup
      /cairo_font_matrix exch def dup 4 get exch 5 get cairo_store_point
      /cairo_font where { pop cairo_selectfont } if } bind def
/Tm { 2 copy 8 2 roll 6 array astore /cairo_font_matrix exch def
      cairo_store_point /cairo_font where { pop cairo_selectfont } if } bind def
/g { setgray } bind def
/rg { setrgbcolor } bind def
/d1 { setcachedevice } bind def
/cairo_data_source {
  CairoDataIndex CairoData length lt
    { CairoData CairoDataIndex get /CairoDataIndex CairoDataIndex 1 add def }
    { () } ifelse
} def
/cairo_flush_ascii85_file { cairo_ascii85_file status { cairo_ascii85_file flushfile } if } def
/cairo_image { image cairo_flush_ascii85_file } def
/cairo_imagemask { imagemask cairo_flush_ascii85_file } def
%%EndProlog
%%BeginSetup
%%EndSetup
%%Page: 1 1
%%BeginPageSetup
%%PageBoundingBox: 0 0 236 376
%%EndPageSetup
q 0 0 236 376 rectclip
1 0 0 -1 0 376 cm q
0 g
8.387 149.852 m 1.168 149.852 l 1.168 148.43 l 4.121 148.43 l 4.121 140.043
 l 1.371 141.539 l 0.809 140.238 l 4.465 138.312 l 5.82 138.312 l 5.82 148.43
 l 8.387 148.43 l h
8.387 149.852 m f
16.594 149.852 m 16.559 148.668 l 16.078 149.141 15.59 149.484 15.09 149.695
 c 14.598 149.906 14.082 150.012 13.535 150.012 c 13.031 150.012 12.602 
149.945 12.242 149.816 c 11.887 149.688 11.59 149.512 11.355 149.289 c 11.129
 149.062 10.957 148.797 10.848 148.492 c 10.742 148.188 10.688 147.855 10.688
 147.496 c 10.688 146.613 11.016 145.922 11.672 145.422 c 12.336 144.918
 13.309 144.668 14.598 144.668 c 16.426 144.668 l 16.426 143.895 l 16.426
 143.371 16.262 142.957 15.926 142.645 c 15.594 142.328 15.082 142.172 14.398
 142.172 c 13.898 142.172 13.406 142.227 12.922 142.34 c 12.441 142.449 
11.941 142.609 11.426 142.812 c 11.426 141.434 l 11.621 141.363 11.832 141.297
 12.066 141.23 c 12.309 141.16 12.559 141.098 12.824 141.047 c 13.086 140.992
 13.363 140.953 13.648 140.922 c 13.938 140.887 14.227 140.871 14.52 140.871
 c 15.055 140.871 15.535 140.93 15.961 141.047 c 16.391 141.164 16.75 141.344
 17.043 141.582 c 17.34 141.824 17.57 142.125 17.727 142.488 c 17.887 142.852
 17.965 143.277 17.965 143.77 c 17.965 149.852 l h
16.426 145.836 m 14.484 145.836 l 14.105 145.836 13.777 145.875 13.5 145.949
 c 13.227 146.027 13 146.137 12.824 146.277 c 12.648 146.418 12.516 146.586
 12.43 146.785 c 12.348 146.98 12.305 147.199 12.305 147.445 c 12.305 147.613
 12.332 147.777 12.383 147.938 c 12.438 148.09 12.523 148.227 12.641 148.352
 c 12.758 148.469 12.91 148.562 13.098 148.633 c 13.285 148.703 13.512 148.738
 13.781 148.738 c 14.133 148.738 14.535 148.633 14.984 148.422 c 15.441 
148.203 15.922 147.863 16.426 147.402 c h
16.426 145.836 m f
38.434 144.113 m 38.434 144.992 38.348 145.797 38.172 146.523 c 37.996 
147.242 37.73 147.863 37.371 148.387 c 37.016 148.902 36.57 149.301 36.035
 149.59 c 35.508 149.871 34.887 150.012 34.172 150.012 c 33.559 150.012 
32.996 149.898 32.492 149.668 c 31.988 149.434 31.559 149.078 31.203 148.598
 c 30.844 148.117 30.57 147.504 30.375 146.758 c 30.184 146.016 30.086 145.133
 30.086 144.113 c 30.086 143.234 30.172 142.434 30.348 141.707 c 30.531 
140.98 30.797 140.359 31.148 139.844 c 31.508 139.32 31.953 138.918 32.484
 138.637 c 33.02 138.352 33.641 138.207 34.348 138.207 c 34.965 138.207 
35.523 138.324 36.027 138.559 c 36.531 138.789 36.961 139.145 37.32 139.633
 c 37.676 140.113 37.953 140.723 38.145 141.469 c 38.34 142.211 38.434 143.094
 38.434 144.113 c h
36.887 144.168 m 36.887 143.969 36.879 143.77 36.863 143.578 c 36.852 143.379
 36.836 143.184 36.816 142.996 c 31.957 146.609 l 32.047 146.914 32.156 
147.195 32.293 147.453 c 32.426 147.711 32.586 147.934 32.773 148.121 c 
32.969 148.305 33.184 148.445 33.426 148.551 c 33.672 148.652 33.949 148.703
 34.262 148.703 c 34.66 148.703 35.02 148.605 35.34 148.41 c 35.668 148.219
 35.949 147.93 36.176 147.551 c 36.406 147.168 36.582 146.699 36.703 146.137
 c 36.828 145.566 36.887 144.91 36.887 144.168 c h
31.633 144.062 m 31.633 144.242 31.633 144.426 31.633 144.605 c 31.637 
144.789 31.648 144.965 31.668 145.133 c 36.527 141.539 l 36.441 141.238 
36.328 140.969 36.195 140.723 c 36.059 140.477 35.898 140.266 35.711 140.09
 c 35.523 139.906 35.309 139.766 35.07 139.668 c 34.828 139.566 34.559 139.516
 34.262 139.516 c 33.863 139.516 33.5 139.613 33.172 139.809 c 32.848 140
 32.574 140.289 32.344 140.676 c 32.117 141.059 31.941 141.531 31.816 142.102
 c 31.695 142.664 31.633 143.316 31.633 144.062 c h
31.633 144.062 m f
48.332 144.113 m 48.332 144.992 48.242 145.797 48.066 146.523 c 47.891 
147.242 47.625 147.863 47.27 148.387 c 46.91 148.902 46.465 149.301 45.934
 149.59 c 45.406 149.871 44.785 150.012 44.07 150.012 c 43.453 150.012 42.895
 149.898 42.391 149.668 c 41.887 149.434 41.457 149.078 41.098 148.598 c
 40.742 148.117 40.465 147.504 40.273 146.758 c 40.078 146.016 39.98 145.133
 39.98 144.113 c 39.98 143.234 40.07 142.434 40.246 141.707 c 40.426 140.98
 40.695 140.359 41.047 139.844 c 41.402 139.32 41.848 138.918 42.383 138.637
 c 42.914 138.352 43.535 138.207 44.246 138.207 c 44.859 138.207 45.418 
138.324 45.922 138.559 c 46.426 138.789 46.859 139.145 47.215 139.633 c 
47.574 140.113 47.848 140.723 48.043 141.469 c 48.234 142.211 48.332 143.094
 48.332 144.113 c h
46.785 144.168 m 46.785 143.969 46.777 143.77 46.758 143.578 c 46.746 143.379
 46.73 143.184 46.715 142.996 c 41.855 146.609 l 41.941 146.914 42.055 147.195
 42.188 147.453 c 42.324 147.711 42.484 147.934 42.672 148.121 c 42.863 
148.305 43.082 148.445 43.32 148.551 c 43.566 148.652 43.848 148.703 44.156
 148.703 c 44.555 148.703 44.914 148.605 45.238 148.41 c 45.566 148.219 
45.844 147.93 46.074 147.551 c 46.301 147.168 46.477 146.699 46.602 146.137
 c 46.723 145.566 46.785 144.91 46.785 144.168 c h
41.527 144.062 m 41.527 144.242 41.527 144.426 41.527 144.605 c 41.535 
144.789 41.547 144.965 41.562 145.133 c 46.426 141.539 l 46.336 141.238 
46.227 140.969 46.09 140.723 c 45.957 140.477 45.793 140.266 45.605 140.09
 c 45.418 139.906 45.207 139.766 44.965 139.668 c 44.727 139.566 44.457 
139.516 44.156 139.516 c 43.758 139.516 43.395 139.613 43.066 139.809 c 
42.746 140 42.469 140.289 42.242 140.676 c 42.012 141.059 41.836 141.531
 41.715 142.102 c 41.59 142.664 41.527 143.316 41.527 144.062 c h
41.527 144.062 m f
68.125 144.113 m 68.125 144.992 68.035 145.797 67.859 146.523 c 67.684 
147.242 67.418 147.863 67.062 148.387 c 66.703 148.902 66.258 149.301 65.727
 149.59 c 65.199 149.871 64.578 150.012 63.863 150.012 c 63.246 150.012 
62.688 149.898 62.184 149.668 c 61.68 149.434 61.25 149.078 60.891 148.598
 c 60.535 148.117 60.258 147.504 60.066 146.758 c 59.871 146.016 59.773 
145.133 59.773 144.113 c 59.773 143.234 59.863 142.434 60.039 141.707 c 
60.219 140.98 60.488 140.359 60.84 139.844 c 61.195 139.32 61.641 138.918
 62.176 138.637 c 62.707 138.352 63.328 138.207 64.039 138.207 c 64.652 
138.207 65.211 138.324 65.715 138.559 c 66.219 138.789 66.652 139.145 67.008
 139.633 c 67.367 140.113 67.641 140.723 67.836 141.469 c 68.027 142.211
 68.125 143.094 68.125 144.113 c h
66.578 144.168 m 66.578 143.969 66.57 143.77 66.551 143.578 c 66.539 143.379
 66.523 143.184 66.508 142.996 c 61.648 146.609 l 61.734 146.914 61.848 
147.195 61.98 147.453 c 62.117 147.711 62.277 147.934 62.465 148.121 c 62.656
 148.305 62.875 148.445 63.113 148.551 c 63.359 148.652 63.641 148.703 63.949
 148.703 c 64.348 148.703 64.707 148.605 65.031 148.41 c 65.359 148.219 
65.637 147.93 65.867 147.551 c 66.094 147.168 66.27 146.699 66.395 146.137
 c 66.516 145.566 66.578 144.91 66.578 144.168 c h
61.32 144.062 m 61.32 144.242 61.32 144.426 61.32 144.605 c 61.328 144.789
 61.34 144.965 61.355 145.133 c 66.219 141.539 l 66.129 141.238 66.02 140.969
 65.883 140.723 c 65.75 140.477 65.586 140.266 65.398 140.09 c 65.211 139.906
 65 139.766 64.758 139.668 c 64.52 139.566 64.25 139.516 63.949 139.516 
c 63.551 139.516 63.188 139.613 62.859 139.809 c 62.539 140 62.262 140.289
 62.035 140.676 c 61.805 141.059 61.629 141.531 61.508 142.102 c 61.383 
142.664 61.32 143.316 61.32 144.062 c h
61.32 144.062 m f
78.02 144.113 m 78.02 144.992 77.934 145.797 77.758 146.523 c 77.582 147.242
 77.316 147.863 76.957 148.387 c 76.602 148.902 76.156 149.301 75.621 149.59
 c 75.094 149.871 74.473 150.012 73.758 150.012 c 73.145 150.012 72.582 
149.898 72.078 149.668 c 71.574 149.434 71.145 149.078 70.789 148.598 c 
70.43 148.117 70.156 147.504 69.961 146.758 c 69.77 146.016 69.672 145.133
 69.672 144.113 c 69.672 143.234 69.758 142.434 69.934 141.707 c 70.117 
140.98 70.383 140.359 70.734 139.844 c 71.094 139.32 71.539 138.918 72.07
 138.637 c 72.605 138.352 73.227 138.207 73.934 138.207 c 74.551 138.207
 75.109 138.324 75.613 138.559 c 76.117 138.789 76.547 139.145 76.906 139.633
 c 77.262 140.113 77.539 140.723 77.73 141.469 c 77.926 142.211 78.02 143.094
 78.02 144.113 c h
76.473 144.168 m 76.473 143.969 76.465 143.77 76.449 143.578 c 76.438 143.379
 76.422 143.184 76.402 142.996 c 71.543 146.609 l 71.633 146.914 71.742 
147.195 71.879 147.453 c 72.012 147.711 72.172 147.934 72.359 148.121 c 
72.555 148.305 72.77 148.445 73.012 148.551 c 73.258 148.652 73.535 148.703
 73.848 148.703 c 74.246 148.703 74.605 148.605 74.926 148.41 c 75.254 148.219
 75.535 147.93 75.762 147.551 c 75.992 147.168 76.168 146.699 76.289 146.137
 c 76.414 145.566 76.473 144.91 76.473 144.168 c h
71.219 144.062 m 71.219 144.242 71.219 144.426 71.219 144.605 c 71.223 
144.789 71.234 144.965 71.254 145.133 c 76.113 141.539 l 76.027 141.238 
75.914 140.969 75.781 140.723 c 75.645 140.477 75.484 140.266 75.297 140.09
 c 75.109 139.906 74.895 139.766 74.656 139.668 c 74.414 139.566 74.145 
139.516 73.848 139.516 c 73.449 139.516 73.086 139.613 72.758 139.809 c 
72.434 140 72.16 140.289 71.93 140.676 c 71.703 141.059 71.527 141.531 71.402
 142.102 c 71.281 142.664 71.219 143.316 71.219 144.062 c h
71.219 144.062 m f
97.812 144.113 m 97.812 144.992 97.727 145.797 97.551 146.523 c 97.375 
147.242 97.109 147.863 96.75 148.387 c 96.395 148.902 95.949 149.301 95.414
 149.59 c 94.887 149.871 94.266 150.012 93.551 150.012 c 92.938 150.012 
92.375 149.898 91.871 149.668 c 91.367 149.434 90.938 149.078 90.582 148.598
 c 90.223 148.117 89.949 147.504 89.754 146.758 c 89.562 146.016 89.465 
145.133 89.465 144.113 c 89.465 143.234 89.551 142.434 89.727 141.707 c 
89.91 140.98 90.176 140.359 90.527 139.844 c 90.887 139.32 91.332 138.918
 91.863 138.637 c 92.398 138.352 93.02 138.207 93.727 138.207 c 94.344 138.207
 94.902 138.324 95.406 138.559 c 95.91 138.789 96.34 139.145 96.699 139.633
 c 97.055 140.113 97.332 140.723 97.523 141.469 c 97.719 142.211 97.812 
143.094 97.812 144.113 c h
96.266 144.168 m 96.266 143.969 96.258 143.77 96.242 143.578 c 96.23 143.379
 96.215 143.184 96.195 142.996 c 91.336 146.609 l 91.426 146.914 91.535 
147.195 91.672 147.453 c 91.805 147.711 91.965 147.934 92.152 148.121 c 
92.348 148.305 92.562 148.445 92.805 148.551 c 93.051 148.652 93.328 148.703
 93.641 148.703 c 94.039 148.703 94.398 148.605 94.719 148.41 c 95.047 148.219
 95.328 147.93 95.555 147.551 c 95.785 147.168 95.961 146.699 96.082 146.137
 c 96.207 145.566 96.266 144.91 96.266 144.168 c h
91.012 144.062 m 91.012 144.242 91.012 144.426 91.012 144.605 c 91.016 
144.789 91.027 144.965 91.047 145.133 c 95.906 141.539 l 95.82 141.238 95.707
 140.969 95.574 140.723 c 95.438 140.477 95.277 140.266 95.09 140.09 c 94.902
 139.906 94.688 139.766 94.449 139.668 c 94.207 139.566 93.938 139.516 93.641
 139.516 c 93.242 139.516 92.879 139.613 92.551 139.809 c 92.227 140 91.953
 140.289 91.723 140.676 c 91.496 141.059 91.32 141.531 91.195 142.102 c 
91.074 142.664 91.012 143.316 91.012 144.062 c h
91.012 144.062 m f
107.711 144.113 m 107.711 144.992 107.621 145.797 107.445 146.523 c 107.27
 147.242 107.004 147.863 106.648 148.387 c 106.289 148.902 105.844 149.301
 105.312 149.59 c 104.785 149.871 104.164 150.012 103.449 150.012 c 102.832
 150.012 102.273 149.898 101.77 149.668 c 101.266 149.434 100.836 149.078
 100.477 148.598 c 100.121 148.117 99.844 147.504 99.652 146.758 c 99.457
 146.016 99.359 145.133 99.359 144.113 c 99.359 143.234 99.449 142.434 99.625
 141.707 c 99.805 140.98 100.074 140.359 100.426 139.844 c 100.781 139.32
 101.227 138.918 101.762 138.637 c 102.293 138.352 102.914 138.207 103.625
 138.207 c 104.238 138.207 104.797 138.324 105.301 138.559 c 105.805 138.789
 106.238 139.145 106.594 139.633 c 106.953 140.113 107.227 140.723 107.422
 141.469 c 107.613 142.211 107.711 143.094 107.711 144.113 c h
106.164 144.168 m 106.164 143.969 106.156 143.77 106.137 143.578 c 106.125
 143.379 106.109 143.184 106.094 142.996 c 101.234 146.609 l 101.32 146.914
 101.434 147.195 101.566 147.453 c 101.703 147.711 101.863 147.934 102.051
 148.121 c 102.242 148.305 102.461 148.445 102.699 148.551 c 102.945 148.652
 103.227 148.703 103.535 148.703 c 103.934 148.703 104.293 148.605 104.617
 148.41 c 104.945 148.219 105.223 147.93 105.453 147.551 c 105.68 147.168
 105.855 146.699 105.98 146.137 c 106.102 145.566 106.164 144.91 106.164
 144.168 c h
100.906 144.062 m 100.906 144.242 100.906 144.426 100.906 144.605 c 100.914
 144.789 100.926 144.965 100.941 145.133 c 105.805 141.539 l 105.715 141.238
 105.605 140.969 105.469 140.723 c 105.336 140.477 105.172 140.266 104.984
 140.09 c 104.797 139.906 104.586 139.766 104.344 139.668 c 104.105 139.566
 103.836 139.516 103.535 139.516 c 103.137 139.516 102.773 139.613 102.445
 139.809 c 102.125 140 101.848 140.289 101.621 140.676 c 101.391 141.059
 101.215 141.531 101.094 142.102 c 100.969 142.664 100.906 143.316 100.906
 144.062 c h
100.906 144.062 m f
8.746 159.422 m 8.746 160.301 8.656 161.102 8.48 161.828 c 8.305 162.551
 8.039 163.172 7.684 163.691 c 7.324 164.207 6.879 164.609 6.348 164.898
 c 5.82 165.18 5.199 165.32 4.484 165.32 c 3.867 165.32 3.309 165.203 2.805
 164.977 c 2.301 164.742 1.871 164.383 1.512 163.902 c 1.156 163.422 0.879
 162.812 0.688 162.066 c 0.492 161.324 0.395 160.441 0.395 159.422 c 0.395
 158.543 0.484 157.738 0.66 157.012 c 0.84 156.285 1.109 155.664 1.461 155.148
 c 1.816 154.629 2.262 154.227 2.797 153.945 c 3.328 153.66 3.949 153.516
 4.66 153.516 c 5.273 153.516 5.832 153.633 6.336 153.867 c 6.84 154.094
 7.273 154.453 7.629 154.938 c 7.988 155.418 8.262 156.031 8.457 156.777
 c 8.648 157.52 8.746 158.402 8.746 159.422 c h
7.199 159.473 m 7.199 159.273 7.191 159.078 7.172 158.887 c 7.16 158.688
 7.145 158.492 7.129 158.305 c 2.27 161.918 l 2.355 162.223 2.469 162.504
 2.602 162.762 c 2.738 163.02 2.898 163.242 3.086 163.43 c 3.277 163.609
 3.496 163.754 3.734 163.859 c 3.98 163.961 4.262 164.008 4.57 164.008 c
 4.969 164.008 5.328 163.914 5.652 163.719 c 5.98 163.527 6.258 163.238 
6.488 162.859 c 6.715 162.477 6.891 162.004 7.016 161.441 c 7.137 160.875
 7.199 160.219 7.199 159.473 c h
1.941 159.367 m 1.941 159.551 1.941 159.73 1.941 159.914 c 1.949 160.094
 1.961 160.27 1.977 160.441 c 6.84 156.848 l 6.75 156.547 6.641 156.273 
6.504 156.027 c 6.371 155.781 6.207 155.57 6.02 155.395 c 5.832 155.215 
5.621 155.074 5.379 154.973 c 5.141 154.875 4.871 154.824 4.57 154.824 c
 4.172 154.824 3.809 154.922 3.48 155.113 c 3.16 155.309 2.883 155.598 2.656
 155.984 c 2.426 156.367 2.25 156.84 2.129 157.41 c 2.004 157.973 1.941 
158.625 1.941 159.367 c h
1.941 159.367 m f
18.281 165.16 m 11.066 165.16 l 11.066 163.738 l 14.02 163.738 l 14.02 
155.352 l 11.27 156.848 l 10.707 155.547 l 14.363 153.621 l 15.715 153.621
 l 15.715 163.738 l 18.281 163.738 l h
18.281 165.16 m f
38.434 159.422 m 38.434 160.301 38.348 161.102 38.172 161.828 c 37.996 
162.551 37.73 163.172 37.371 163.691 c 37.016 164.207 36.57 164.609 36.035
 164.898 c 35.508 165.18 34.887 165.32 34.172 165.32 c 33.559 165.32 32.996
 165.203 32.492 164.977 c 31.988 164.742 31.559 164.383 31.203 163.902 c
 30.844 163.422 30.57 162.812 30.375 162.066 c 30.184 161.324 30.086 160.441
 30.086 159.422 c 30.086 158.543 30.172 157.738 30.348 157.012 c 30.531 
156.285 30.797 155.664 31.148 155.148 c 31.508 154.629 31.953 154.227 32.484
 153.945 c 33.02 153.66 33.641 153.516 34.348 153.516 c 34.965 153.516 35.523
 153.633 36.027 153.867 c 36.531 154.094 36.961 154.453 37.32 154.938 c 
37.676 155.418 37.953 156.031 38.145 156.777 c 38.34 157.52 38.434 158.402
 38.434 159.422 c h
36.887 159.473 m 36.887 159.273 36.879 159.078 36.863 158.887 c 36.852 
158.688 36.836 158.492 36.816 158.305 c 31.957 161.918 l 32.047 162.223 
32.156 162.504 32.293 162.762 c 32.426 163.02 32.586 163.242 32.773 163.43
 c 32.969 163.609 33.184 163.754 33.426 163.859 c 33.672 163.961 33.949 
164.008 34.262 164.008 c 34.66 164.008 35.02 163.914 35.34 163.719 c 35.668
 163.527 35.949 163.238 36.176 162.859 c 36.406 162.477 36.582 162.004 36.703
 161.441 c 36.828 160.875 36.887 160.219 36.887 159.473 c h
31.633 159.367 m 31.633 159.551 31.633 159.73 31.633 159.914 c 31.637 160.094
 31.648 160.27 31.668 160.441 c 36.527 156.848 l 36.441 156.547 36.328 156.273
 36.195 156.027 c 36.059 155.781 35.898 155.57 35.711 155.395 c 35.523 155.215
 35.309 155.074 35.07 154.973 c 34.828 154.875 34.559 154.824 34.262 154.824
 c 33.863 154.824 33.5 154.922 33.172 155.113 c 32.848 155.309 32.574 155.598
 32.344 155.984 c 32.117 156.367 31.941 156.84 31.816 157.41 c 31.695 157.973
 31.633 158.625 31.633 159.367 c h
31.633 159.367 m f
48.332 159.422 m 48.332 160.301 48.242 161.102 48.066 161.828 c 47.891 
162.551 47.625 163.172 47.27 163.691 c 46.91 164.207 46.465 164.609 45.934
 164.898 c 45.406 165.18 44.785 165.32 44.07 165.32 c 43.453 165.32 42.895
 165.203 42.391 164.977 c 41.887 164.742 41.457 164.383 41.098 163.902 c
 40.742 163.422 40.465 162.812 40.273 162.066 c 40.078 161.324 39.98 160.441
 39.98 159.422 c 39.98 158.543 40.07 157.738 40.246 157.012 c 40.426 156.285
 40.695 155.664 41.047 155.148 c 41.402 154.629 41.848 154.227 42.383 153.945
 c 42.914 153.66 43.535 153.516 44.246 153.516 c 44.859 153.516 45.418 153.633
 45.922 153.867 c 46.426 154.094 46.859 154.453 47.215 154.938 c 47.574 
155.418 47.848 156.031 48.043 156.777 c 48.234 157.52 48.332 158.402 48.332
 159.422 c h
46.785 159.473 m 46.785 159.273 46.777 159.078 46.758 158.887 c 46.746 
158.688 46.73 158.492 46.715 158.305 c 41.855 161.918 l 41.941 162.223 42.055
 162.504 42.188 162.762 c 42.324 163.02 42.484 163.242 42.672 163.43 c 42.863
 163.609 43.082 163.754 43.32 163.859 c 43.566 163.961 43.848 164.008 44.156
 164.008 c 44.555 164.008 44.914 163.914 45.238 163.719 c 45.566 163.527
 45.844 163.238 46.074 162.859 c 46.301 162.477 46.477 162.004 46.602 161.441
 c 46.723 160.875 46.785 160.219 46.785 159.473 c h
41.527 159.367 m 41.527 159.551 41.527 159.73 41.527 159.914 c 41.535 160.094
 41.547 160.27 41.562 160.441 c 46.426 156.848 l 46.336 156.547 46.227 156.273
 46.09 156.027 c 45.957 155.781 45.793 155.57 45.605 155.395 c 45.418 155.215
 45.207 155.074 44.965 154.973 c 44.727 154.875 44.457 154.824 44.156 154.824
 c 43.758 154.824 43.395 154.922 43.066 155.113 c 42.746 155.309 42.469 
155.598 42.242 155.984 c 42.012 156.367 41.836 156.84 41.715 157.41 c 41.59
 157.973 41.527 158.625 41.527 159.367 c h
41.527 159.367 m f
68.125 159.422 m 68.125 160.301 68.035 161.102 67.859 161.828 c 67.684 
162.551 67.418 163.172 67.062 163.691 c 66.703 164.207 66.258 164.609 65.727
 164.898 c 65.199 165.18 64.578 165.32 63.863 165.32 c 63.246 165.32 62.688
 165.203 62.184 164.977 c 61.68 164.742 61.25 164.383 60.891 163.902 c 60.535
 163.422 60.258 162.812 60.066 162.066 c 59.871 161.324 59.773 160.441 59.773
 159.422 c 59.773 158.543 59.863 157.738 60.039 157.012 c 60.219 156.285
 60.488 155.664 60.84 155.148 c 61.195 154.629 61.641 154.227 62.176 153.945
 c 62.707 153.66 63.328 153.516 64.039 153.516 c 64.652 153.516 65.211 153.633
 65.715 153.867 c 66.219 154.094 66.652 154.453 67.008 154.938 c 67.367 
155.418 67.641 156.031 67.836 156.777 c 68.027 157.52 68.125 158.402 68.125
 159.422 c h
66.578 159.473 m 66.578 159.273 66.57 159.078 66.551 158.887 c 66.539 158.688
 66.523 158.492 66.508 158.305 c 61.648 161.918 l 61.734 162.223 61.848 
162.504 61.98 162.762 c 62.117 163.02 62.277 163.242 62.465 163.43 c 62.656
 163.609 62.875 163.754 63.113 163.859 c 63.359 163.961 63.641 164.008 63.949
 164.008 c 64.348 164.008 64.707 163.914 65.031 163.719 c 65.359 163.527
 65.637 163.238 65.867 162.859 c 66.094 162.477 66.27 162.004 66.395 161.441
 c 66.516 160.875 66.578 160.219 66.578 159.473 c h
61.32 159.367 m 61.32 159.551 61.32 159.73 61.32 159.914 c 61.328 160.094
 61.34 160.27 61.355 160.441 c 66.219 156.848 l 66.129 156.547 66.02 156.273
 65.883 156.027 c 65.75 155.781 65.586 155.57 65.398 155.395 c 65.211 155.215
 65 155.074 64.758 154.973 c 64.52 154.875 64.25 154.824 63.949 154.824 
c 63.551 154.824 63.188 154.922 62.859 155.113 c 62.539 155.309 62.262 155.598
 62.035 155.984 c 61.805 156.367 61.629 156.84 61.508 157.41 c 61.383 157.973
 61.32 158.625 61.32 159.367 c h
61.32 159.367 m f
78.02 159.422 m 78.02 160.301 77.934 161.102 77.758 161.828 c 77.582 162.551
 77.316 163.172 76.957 163.691 c 76.602 164.207 76.156 164.609 75.621 164.898
 c 75.094 165.18 74.473 165.32 73.758 165.32 c 73.145 165.32 72.582 165.203
 72.078 164.977 c 71.574 164.742 71.145 164.383 70.789 163.902 c 70.43 163.422
 70.156 162.812 69.961 162.066 c 69.77 161.324 69.672 160.441 69.672 159.422
 c 69.672 158.543 69.758 157.738 69.934 157.012 c 70.117 156.285 70.383 
155.664 70.734 155.148 c 71.094 154.629 71.539 154.227 72.07 153.945 c 72.605
 153.66 73.227 153.516 73.934 153.516 c 74.551 153.516 75.109 153.633 75.613
 153.867 c 76.117 154.094 76.547 154.453 76.906 154.938 c 77.262 155.418
 77.539 156.031 77.73 156.777 c 77.926 157.52 78.02 158.402 78.02 159.422
 c h
76.473 159.473 m 76.473 159.273 76.465 159.078 76.449 158.887 c 76.438 
158.688 76.422 158.492 76.402 158.305 c 71.543 161.918 l 71.633 162.223 
71.742 162.504 71.879 162.762 c 72.012 163.02 72.172 163.242 72.359 163.43
 c 72.555 163.609 72.77 163.754 73.012 163.859 c 73.258 163.961 73.535 164.008
 73.848 164.008 c 74.246 164.008 74.605 163.914 74.926 163.719 c 75.254 
163.527 75.535 163.238 75.762 162.859 c 75.992 162.477 76.168 162.004 76.289
 161.441 c 76.414 160.875 76.473 160.219 76.473 159.473 c h
71.219 159.367 m 71.219 159.551 71.219 159.73 71.219 159.914 c 71.223 160.094
 71.234 160.27 71.254 160.441 c 76.113 156.848 l 76.027 156.547 75.914 156.273
 75.781 156.027 c 75.645 155.781 75.484 155.57 75.297 155.395 c 75.109 155.215
 74.895 155.074 74.656 154.973 c 74.414 154.875 74.145 154.824 73.848 154.824
 c 73.449 154.824 73.086 154.922 72.758 155.113 c 72.434 155.309 72.16 155.598
 71.93 155.984 c 71.703 156.367 71.527 156.84 71.402 157.41 c 71.281 157.973
 71.219 158.625 71.219 159.367 c h
71.219 159.367 m f
97.812 159.422 m 97.812 160.301 97.727 161.102 97.551 161.828 c 97.375 
162.551 97.109 163.172 96.75 163.691 c 96.395 164.207 95.949 164.609 95.414
 164.898 c 94.887 165.18 94.266 165.32 93.551 165.32 c 92.938 165.32 92.375
 165.203 91.871 164.977 c 91.367 164.742 90.938 164.383 90.582 163.902 c
 90.223 163.422 89.949 162.812 89.754 162.066 c 89.562 161.324 89.465 160.441
 89.465 159.422 c 89.465 158.543 89.551 157.738 89.727 157.012 c 89.91 156.285
 90.176 155.664 90.527 155.148 c 90.887 154.629 91.332 154.227 91.863 153.945
 c 92.398 153.66 93.02 153.516 93.727 153.516 c 94.344 153.516 94.902 153.633
 95.406 153.867 c 95.91 154.094 96.34 154.453 96.699 154.938 c 97.055 155.418
 97.332 156.031 97.523 156.777 c 97.719 157.52 97.812 158.402 97.812 159.422
 c h
96.266 159.473 m 96.266 159.273 96.258 159.078 96.242 158.887 c 96.23 158.688
 96.215 158.492 96.195 158.305 c 91.336 161.918 l 91.426 162.223 91.535 
162.504 91.672 162.762 c 91.805 163.02 91.965 163.242 92.152 163.43 c 92.348
 163.609 92.562 163.754 92.805 163.859 c 93.051 163.961 93.328 164.008 93.641
 164.008 c 94.039 164.008 94.398 163.914 94.719 163.719 c 95.047 163.527
 95.328 163.238 95.555 162.859 c 95.785 162.477 95.961 162.004 96.082 161.441
 c 96.207 160.875 96.266 160.219 96.266 159.473 c h
91.012 159.367 m 91.012 159.551 91.012 159.73 91.012 159.914 c 91.016 160.094
 91.027 160.27 91.047 160.441 c 95.906 156.848 l 95.82 156.547 95.707 156.273
 95.574 156.027 c 95.438 155.781 95.277 155.57 95.09 155.395 c 94.902 155.215
 94.688 155.074 94.449 154.973 c 94.207 154.875 93.938 154.824 93.641 154.824
 c 93.242 154.824 92.879 154.922 92.551 155.113 c 92.227 155.309 91.953 
155.598 91.723 155.984 c 91.496 156.367 91.32 156.84 91.195 157.41 c 91.074
 157.973 91.012 158.625 91.012 159.367 c h
91.012 159.367 m f
107.711 159.422 m 107.711 160.301 107.621 161.102 107.445 161.828 c 107.27
 162.551 107.004 163.172 106.648 163.691 c 106.289 164.207 105.844 164.609
 105.312 164.898 c 104.785 165.18 104.164 165.32 103.449 165.32 c 102.832
 165.32 102.273 165.203 101.77 164.977 c 101.266 164.742 100.836 164.383
 100.477 163.902 c 100.121 163.422 99.844 162.812 99.652 162.066 c 99.457
 161.324 99.359 160.441 99.359 159.422 c 99.359 158.543 99.449 157.738 99.625
 157.012 c 99.805 156.285 100.074 155.664 100.426 155.148 c 100.781 154.629
 101.227 154.227 101.762 153.945 c 102.293 153.66 102.914 153.516 103.625
 153.516 c 104.238 153.516 104.797 153.633 105.301 153.867 c 105.805 154.094
 106.238 154.453 106.594 154.938 c 106.953 155.418 107.227 156.031 107.422
 156.777 c 107.613 157.52 107.711 158.402 107.711 159.422 c h
106.164 159.473 m 106.164 159.273 106.156 159.078 106.137 158.887 c 106.125
 158.688 106.109 158.492 106.094 158.305 c 101.234 161.918 l 101.32 162.223
 101.434 162.504 101.566 162.762 c 101.703 163.02 101.863 163.242 102.051
 163.43 c 102.242 163.609 102.461 163.754 102.699 163.859 c 102.945 163.961
 103.227 164.008 103.535 164.008 c 103.934 164.008 104.293 163.914 104.617
 163.719 c 104.945 163.527 105.223 163.238 105.453 162.859 c 105.68 162.477
 105.855 162.004 105.98 161.441 c 106.102 160.875 106.164 160.219 106.164
 159.473 c h
100.906 159.367 m 100.906 159.551 100.906 159.73 100.906 159.914 c 100.914
 160.094 100.926 160.27 100.941 160.441 c 105.805 156.848 l 105.715 156.547
 105.605 156.273 105.469 156.027 c 105.336 155.781 105.172 155.57 104.984
 155.395 c 104.797 155.215 104.586 155.074 104.344 154.973 c 104.105 154.875
 103.836 154.824 103.535 154.824 c 103.137 154.824 102.773 154.922 102.445
 155.113 c 102.125 155.309 101.848 155.598 101.621 155.984 c 101.391 156.367
 101.215 156.84 101.094 157.41 c 100.969 157.973 100.906 158.625 100.906
 159.367 c h
100.906 159.367 m f
0.582 176.238 m 0.582 175.488 0.684 174.824 0.887 174.246 c 1.094 173.66
 1.383 173.168 1.758 172.77 c 2.141 172.363 2.594 172.059 3.121 171.855 
c 3.652 171.645 4.246 171.539 4.895 171.539 c 5.176 171.539 5.453 171.555
 5.723 171.59 c 5.996 171.625 6.266 171.68 6.531 171.758 c 6.531 168.047
 l 8.07 168.047 l 8.07 180.469 l 6.699 180.469 l 6.645 178.797 l 6.219 179.418
 5.754 179.879 5.258 180.176 c 4.758 180.477 4.219 180.625 3.641 180.625
 c 3.137 180.625 2.691 180.52 2.305 180.309 c 1.922 180.098 1.602 179.801
 1.344 179.422 c 1.094 179.035 0.902 178.57 0.773 178.031 c 0.645 177.492
 0.582 176.895 0.582 176.238 c h
2.145 176.145 m 2.145 177.211 2.301 178.008 2.609 178.535 c 2.926 179.055
 3.371 179.316 3.945 179.316 c 4.332 179.316 4.742 179.145 5.168 178.797
 c 5.602 178.453 6.055 177.938 6.531 177.258 c 6.531 173.164 l 6.277 173.047
 6 172.957 5.695 172.898 c 5.391 172.836 5.09 172.805 4.789 172.805 c 3.957
 172.805 3.309 173.074 2.84 173.613 c 2.375 174.152 2.145 174.996 2.145 
176.145 c h
2.145 176.145 m f
10.477 176.238 m 10.477 175.488 10.578 174.824 10.785 174.246 c 10.988 
173.66 11.281 173.168 11.656 172.77 c 12.035 172.363 12.488 172.059 13.016
 171.855 c 13.551 171.645 14.141 171.539 14.793 171.539 c 15.074 171.539
 15.348 171.555 15.617 171.59 c 15.895 171.625 16.164 171.68 16.426 171.758
 c 16.426 168.047 l 17.965 168.047 l 17.965 180.469 l 16.594 180.469 l 16.543
 178.797 l 16.113 179.418 15.652 179.879 15.152 180.176 c 14.656 180.477
 14.117 180.625 13.535 180.625 c 13.031 180.625 12.586 180.52 12.199 180.309
 c 11.82 180.098 11.5 179.801 11.242 179.422 c 10.988 179.035 10.801 178.57
 10.672 178.031 c 10.543 177.492 10.477 176.895 10.477 176.238 c h
12.043 176.145 m 12.043 177.211 12.195 178.008 12.508 178.535 c 12.824 
179.055 13.27 179.316 13.844 179.316 c 14.23 179.316 14.637 179.145 15.066
 178.797 c 15.5 178.453 15.953 177.938 16.426 177.258 c 16.426 173.164 l
 16.176 173.047 15.898 172.957 15.594 172.898 c 15.289 172.836 14.984 172.805
 14.688 172.805 c 13.855 172.805 13.203 173.074 12.734 173.613 c 12.273 
174.152 12.043 174.996 12.043 176.145 c h
12.043 176.145 m f
37.953 176.977 m 37.953 177.48 37.848 177.957 37.645 178.402 c 37.438 178.84
 37.133 179.227 36.723 179.562 c 36.312 179.891 35.797 180.152 35.176 180.344
 c 34.555 180.531 33.828 180.625 33.004 180.625 c 32.547 180.625 32.137 
180.609 31.773 180.582 c 31.41 180.551 31.07 180.516 30.754 180.469 c 30.754
 179.098 l 31.117 179.16 31.5 179.211 31.906 179.246 c 32.309 179.281 32.723
 179.297 33.145 179.297 c 33.719 179.297 34.207 179.25 34.613 179.148 c 
35.023 179.043 35.355 178.895 35.613 178.699 c 35.871 178.508 36.059 178.273
 36.176 177.996 c 36.293 177.723 36.352 177.41 36.352 177.066 c 36.352 176.75
 36.281 176.473 36.141 176.238 c 36 176.004 35.801 175.809 35.543 175.652
 c 35.293 175.492 34.988 175.375 34.629 175.301 c 34.277 175.219 33.891 
175.176 33.469 175.176 c 32.16 175.176 l 32.16 173.918 l 33.488 173.918 
l 33.832 173.918 34.145 173.875 34.426 173.789 c 34.715 173.695 34.957 173.562
 35.156 173.391 c 35.363 173.223 35.516 173.016 35.621 172.77 c 35.734 172.516
 35.789 172.23 35.789 171.914 c 35.789 171.301 35.602 170.852 35.227 170.57
 c 34.852 170.289 34.301 170.148 33.574 170.148 c 33.188 170.148 32.789 
170.188 32.379 170.262 c 31.969 170.34 31.531 170.453 31.062 170.605 c 31.062
 169.27 l 31.262 169.199 31.473 169.137 31.695 169.086 c 31.922 169.027 
32.148 168.98 32.371 168.945 c 32.598 168.902 32.824 168.875 33.047 168.855
 c 33.27 168.832 33.484 168.82 33.688 168.82 c 34.297 168.82 34.836 168.891
 35.297 169.023 c 35.762 169.152 36.148 169.34 36.457 169.586 c 36.77 169.832
 37.004 170.133 37.16 170.484 c 37.32 170.836 37.398 171.23 37.398 171.668
 c 37.398 172.324 37.227 172.875 36.887 173.32 c 36.555 173.766 36.094 174.121
 35.508 174.387 c 35.809 174.434 36.102 174.527 36.387 174.668 c 36.68 174.809
 36.941 174.988 37.168 175.211 c 37.402 175.43 37.59 175.688 37.73 175.984
 c 37.879 176.285 37.953 176.613 37.953 176.977 c h
37.953 176.977 m f
48.066 180.469 m 40.5 180.469 l 40.5 179.098 l 43.473 176.145 l 43.957 
175.664 44.352 175.246 44.656 174.895 c 44.961 174.543 45.199 174.223 45.371
 173.938 c 45.539 173.645 45.652 173.367 45.711 173.109 c 45.77 172.852 
45.801 172.574 45.801 172.277 c 45.801 171.996 45.762 171.727 45.688 171.477
 c 45.609 171.219 45.492 170.992 45.336 170.801 c 45.176 170.605 44.973 
170.453 44.719 170.344 c 44.469 170.23 44.164 170.176 43.812 170.176 c 43.328
 170.176 42.887 170.285 42.488 170.5 c 42.09 170.719 41.723 171 41.387 171.344
 c 40.543 170.332 l 40.977 169.875 41.477 169.512 42.039 169.234 c 42.605
 168.961 43.266 168.82 44.016 168.82 c 44.527 168.82 44.988 168.898 45.406
 169.051 c 45.828 169.203 46.191 169.422 46.496 169.711 c 46.801 169.996
 47.035 170.348 47.199 170.766 c 47.367 171.18 47.453 171.648 47.453 172.172
 c 47.453 172.609 47.395 173.016 47.277 173.391 c 47.16 173.766 46.98 174.141
 46.742 174.516 c 46.508 174.887 46.207 175.27 45.844 175.668 c 45.488 176.066
 45.062 176.504 44.57 176.977 c 42.488 179.008 l 48.066 179.008 l h
48.066 180.469 m f
67.801 170.402 m 62.984 180.469 l 61.234 180.469 l 66.234 170.402 l 60.031
 170.402 l 60.031 168.98 l 67.801 168.98 l h
67.801 170.402 m f
75.973 180.469 m 75.938 179.281 l 75.457 179.754 74.969 180.098 74.469 
180.309 c 73.977 180.52 73.461 180.625 72.914 180.625 c 72.41 180.625 71.98
 180.562 71.621 180.434 c 71.266 180.305 70.969 180.129 70.734 179.906 c
 70.508 179.676 70.336 179.41 70.227 179.105 c 70.121 178.801 70.066 178.469
 70.066 178.113 c 70.066 177.227 70.395 176.535 71.051 176.039 c 71.715 
175.535 72.688 175.281 73.977 175.281 c 75.805 175.281 l 75.805 174.508 
l 75.805 173.988 75.641 173.57 75.305 173.262 c 74.973 172.945 74.461 172.785
 73.777 172.785 c 73.277 172.785 72.785 172.84 72.301 172.953 c 71.82 173.062
 71.32 173.223 70.805 173.426 c 70.805 172.047 l 71 171.977 71.211 171.91
 71.445 171.844 c 71.688 171.773 71.938 171.715 72.203 171.66 c 72.465 171.609
 72.742 171.566 73.027 171.539 c 73.316 171.504 73.605 171.484 73.898 171.484
 c 74.434 171.484 74.914 171.543 75.34 171.66 c 75.77 171.777 76.129 171.957
 76.422 172.195 c 76.719 172.438 76.949 172.738 77.105 173.102 c 77.266 
173.465 77.344 173.895 77.344 174.387 c 77.344 180.469 l h
75.805 176.449 m 73.863 176.449 l 73.484 176.449 73.156 176.488 72.879 
176.566 c 72.605 176.641 72.379 176.75 72.203 176.891 c 72.027 177.031 71.895
 177.199 71.809 177.398 c 71.727 177.594 71.684 177.812 71.684 178.059 c
 71.684 178.23 71.711 178.395 71.762 178.551 c 71.816 178.703 71.902 178.84
 72.02 178.965 c 72.137 179.082 72.289 179.176 72.477 179.246 c 72.664 179.316
 72.891 179.352 73.16 179.352 c 73.512 179.352 73.914 179.246 74.363 179.035
 c 74.82 178.816 75.301 178.477 75.805 178.016 c h
75.805 176.449 m f
97.812 174.727 m 97.812 175.605 97.727 176.41 97.551 177.137 c 97.375 177.855
 97.109 178.477 96.75 179 c 96.395 179.516 95.949 179.918 95.414 180.203
 c 94.887 180.484 94.266 180.625 93.551 180.625 c 92.938 180.625 92.375 
180.512 91.871 180.281 c 91.367 180.047 90.938 179.691 90.582 179.211 c 
90.223 178.73 89.949 178.117 89.754 177.375 c 89.562 176.629 89.465 175.746
 89.465 174.727 c 89.465 173.848 89.551 173.047 89.727 172.32 c 89.91 171.594
 90.176 170.973 90.527 170.457 c 90.887 169.934 91.332 169.535 91.863 169.254
 c 92.398 168.965 93.02 168.82 93.727 168.82 c 94.344 168.82 94.902 168.938
 95.406 169.172 c 95.91 169.402 96.34 169.758 96.699 170.246 c 97.055 170.727
 97.332 171.34 97.523 172.082 c 97.719 172.828 97.812 173.707 97.812 174.727
 c h
96.266 174.781 m 96.266 174.582 96.258 174.387 96.242 174.191 c 96.23 173.992
 96.215 173.801 96.195 173.613 c 91.336 177.223 l 91.426 177.527 91.535 
177.809 91.672 178.066 c 91.805 178.324 91.965 178.547 92.152 178.734 c 
92.348 178.918 92.562 179.062 92.805 179.168 c 93.051 179.266 93.328 179.316
 93.641 179.316 c 94.039 179.316 94.398 179.219 94.719 179.027 c 95.047 
178.832 95.328 178.547 95.555 178.164 c 95.785 177.785 95.961 177.312 96.082
 176.75 c 96.207 176.18 96.266 175.523 96.266 174.781 c h
91.012 174.676 m 91.012 174.855 91.012 175.039 91.012 175.219 c 91.016 
175.402 91.027 175.578 91.047 175.746 c 95.906 172.152 l 95.82 171.855 95.707
 171.582 95.574 171.336 c 95.438 171.09 95.277 170.879 95.09 170.703 c 94.902
 170.52 94.688 170.379 94.449 170.281 c 94.207 170.18 93.938 170.133 93.641
 170.133 c 93.242 170.133 92.879 170.227 92.551 170.422 c 92.227 170.613
 91.953 170.906 91.723 171.293 c 91.496 171.672 91.32 172.148 91.195 172.715
 c 91.074 173.277 91.012 173.93 91.012 174.676 c h
91.012 174.676 m f
107.711 174.727 m 107.711 175.605 107.621 176.41 107.445 177.137 c 107.27
 177.855 107.004 178.477 106.648 179 c 106.289 179.516 105.844 179.918 105.312
 180.203 c 104.785 180.484 104.164 180.625 103.449 180.625 c 102.832 180.625
 102.273 180.512 101.77 180.281 c 101.266 180.047 100.836 179.691 100.477
 179.211 c 100.121 178.73 99.844 178.117 99.652 177.375 c 99.457 176.629
 99.359 175.746 99.359 174.727 c 99.359 173.848 99.449 173.047 99.625 172.32
 c 99.805 171.594 100.074 170.973 100.426 170.457 c 100.781 169.934 101.227
 169.535 101.762 169.254 c 102.293 168.965 102.914 168.82 103.625 168.82
 c 104.238 168.82 104.797 168.938 105.301 169.172 c 105.805 169.402 106.238
 169.758 106.594 170.246 c 106.953 170.727 107.227 171.34 107.422 172.082
 c 107.613 172.828 107.711 173.707 107.711 174.727 c h
106.164 174.781 m 106.164 174.582 106.156 174.387 106.137 174.191 c 106.125
 173.992 106.109 173.801 106.094 173.613 c 101.234 177.223 l 101.32 177.527
 101.434 177.809 101.566 178.066 c 101.703 178.324 101.863 178.547 102.051
 178.734 c 102.242 178.918 102.461 179.062 102.699 179.168 c 102.945 179.266
 103.227 179.316 103.535 179.316 c 103.934 179.316 104.293 179.219 104.617
 179.027 c 104.945 178.832 105.223 178.547 105.453 178.164 c 105.68 177.785
 105.855 177.312 105.98 176.75 c 106.102 176.18 106.164 175.523 106.164 
174.781 c h
100.906 174.676 m 100.906 174.855 100.906 175.039 100.906 175.219 c 100.914
 175.402 100.926 175.578 100.941 175.746 c 105.805 172.152 l 105.715 171.855
 105.605 171.582 105.469 171.336 c 105.336 171.09 105.172 170.879 104.984
 170.703 c 104.797 170.52 104.586 170.379 104.344 170.281 c 104.105 170.18
 103.836 170.133 103.535 170.133 c 103.137 170.133 102.773 170.227 102.445
 170.422 c 102.125 170.613 101.848 170.906 101.621 171.293 c 101.391 171.672
 101.215 172.148 101.094 172.715 c 100.969 173.277 100.906 173.93 100.906
 174.676 c h
100.906 174.676 m f
8.746 190.035 m 8.746 190.914 8.656 191.719 8.48 192.445 c 8.305 193.164
 8.039 193.785 7.684 194.309 c 7.324 194.824 6.879 195.223 6.348 195.512
 c 5.82 195.793 5.199 195.934 4.484 195.934 c 3.867 195.934 3.309 195.82
 2.805 195.59 c 2.301 195.355 1.871 195 1.512 194.52 c 1.156 194.039 0.879
 193.426 0.688 192.68 c 0.492 191.938 0.395 191.055 0.395 190.035 c 0.395
 189.156 0.484 188.355 0.66 187.629 c 0.84 186.902 1.109 186.281 1.461 185.766
 c 1.816 185.242 2.262 184.84 2.797 184.559 c 3.328 184.273 3.949 184.129
 4.66 184.129 c 5.273 184.129 5.832 184.246 6.336 184.48 c 6.84 184.711 
7.273 185.066 7.629 185.555 c 7.988 186.035 8.262 186.645 8.457 187.391 
c 8.648 188.133 8.746 189.016 8.746 190.035 c h
7.199 190.09 m 7.199 189.891 7.191 189.691 7.172 189.5 c 7.16 189.301 7.145
 189.105 7.129 188.918 c 2.27 192.531 l 2.355 192.836 2.469 193.117 2.602
 193.375 c 2.738 193.633 2.898 193.855 3.086 194.043 c 3.277 194.227 3.496
 194.367 3.734 194.473 c 3.98 194.574 4.262 194.625 4.57 194.625 c 4.969
 194.625 5.328 194.527 5.652 194.332 c 5.98 194.141 6.258 193.852 6.488 
193.473 c 6.715 193.09 6.891 192.621 7.016 192.059 c 7.137 191.488 7.199
 190.832 7.199 190.09 c h
1.941 189.984 m 1.941 190.164 1.941 190.348 1.941 190.527 c 1.949 190.711
 1.961 190.887 1.977 191.055 c 6.84 187.461 l 6.75 187.16 6.641 186.891 
6.504 186.645 c 6.371 186.398 6.207 186.188 6.02 186.012 c 5.832 185.828
 5.621 185.688 5.379 185.59 c 5.141 185.488 4.871 185.438 4.57 185.438 c
 4.172 185.438 3.809 185.535 3.48 185.73 c 3.16 185.922 2.883 186.211 2.656
 186.598 c 2.426 186.98 2.25 187.453 2.129 188.023 c 2.004 188.586 1.941
 189.238 1.941 189.984 c h
1.941 189.984 m f
18.379 195.773 m 10.812 195.773 l 10.812 194.402 l 13.781 191.449 l 14.27
 190.969 14.664 190.555 14.969 190.203 c 15.273 189.852 15.512 189.531 15.68
 189.246 c 15.852 188.953 15.965 188.676 16.023 188.418 c 16.082 188.16 
16.109 187.883 16.109 187.582 c 16.109 187.301 16.074 187.035 15.996 186.785
 c 15.922 186.527 15.805 186.301 15.645 186.105 c 15.488 185.914 15.281 
185.762 15.031 185.648 c 14.777 185.539 14.477 185.484 14.125 185.484 c 
13.637 185.484 13.195 185.59 12.797 185.809 c 12.398 186.023 12.031 186.305
 11.699 186.652 c 10.855 185.641 l 11.289 185.184 11.785 184.816 12.348 
184.543 c 12.918 184.266 13.578 184.129 14.328 184.129 c 14.836 184.129 
15.301 184.207 15.715 184.359 c 16.137 184.512 16.5 184.73 16.805 185.016
 c 17.109 185.305 17.344 185.656 17.508 186.07 c 17.68 186.488 17.762 186.957
 17.762 187.477 c 17.762 187.918 17.703 188.324 17.586 188.699 c 17.469 
189.074 17.293 189.449 17.051 189.824 c 16.816 190.195 16.52 190.578 16.156
 190.977 c 15.797 191.375 15.371 191.812 14.879 192.285 c 12.797 194.316
 l 18.379 194.316 l h
18.379 195.773 m f
37.883 192.102 m 37.883 192.668 37.758 193.188 37.512 193.656 c 37.266 
194.125 36.926 194.531 36.492 194.871 c 36.066 195.203 35.559 195.465 34.973
 195.652 c 34.387 195.84 33.754 195.934 33.074 195.934 c 32.902 195.934 
32.719 195.926 32.52 195.914 c 32.328 195.91 32.133 195.898 31.941 195.879
 c 31.746 195.867 31.555 195.855 31.367 195.836 c 31.188 195.82 31.023 195.797
 30.875 195.773 c 30.875 194.387 l 31.191 194.461 31.555 194.52 31.957 194.555
 c 32.367 194.59 32.781 194.605 33.195 194.605 c 33.664 194.605 34.086 194.551
 34.461 194.438 c 34.836 194.328 35.156 194.168 35.422 193.965 c 35.684 
193.754 35.887 193.5 36.027 193.207 c 36.168 192.91 36.238 192.574 36.238
 192.207 c 36.238 191.492 35.98 190.973 35.465 190.652 c 34.953 190.324 
34.219 190.16 33.258 190.16 c 31.078 190.16 l 31.078 184.289 l 37.266 184.289
 l 37.266 185.625 l 32.52 185.625 l 32.52 188.848 l 33.523 188.848 l 34.074
 188.848 34.609 188.898 35.129 189 c 35.652 189.098 36.113 189.273 36.52
 189.527 c 36.93 189.773 37.258 190.105 37.504 190.527 c 37.754 190.945 
37.883 191.469 37.883 192.102 c h
37.883 192.102 m f
48.066 192.891 m 48.066 193.379 47.969 193.812 47.77 194.191 c 47.57 194.566
 47.293 194.883 46.934 195.141 c 46.578 195.398 46.156 195.598 45.668 195.73
 c 45.184 195.867 44.656 195.934 44.086 195.934 c 43.461 195.934 42.906 
195.863 42.426 195.723 c 41.949 195.582 41.551 195.387 41.23 195.133 c 40.906
 194.883 40.664 194.582 40.5 194.238 c 40.336 193.891 40.254 193.512 40.254
 193.094 c 40.254 192.391 40.449 191.785 40.844 191.273 c 41.234 190.766
 41.844 190.301 42.664 189.887 c 41.914 189.504 41.363 189.082 41.02 188.621
 c 40.672 188.152 40.5 187.617 40.5 187.012 c 40.5 186.645 40.578 186.285
 40.73 185.941 c 40.883 185.594 41.109 185.285 41.414 185.016 c 41.727 184.746
 42.113 184.535 42.574 184.375 c 43.039 184.211 43.582 184.129 44.211 184.129
 c 44.801 184.129 45.32 184.195 45.766 184.324 c 46.215 184.445 46.594 184.625
 46.898 184.859 c 47.203 185.094 47.434 185.379 47.586 185.711 c 47.738 
186.047 47.812 186.418 47.812 186.828 c 47.812 187.496 47.625 188.062 47.25
 188.531 c 46.883 189 46.355 189.41 45.668 189.762 c 46.008 189.934 46.324
 190.121 46.617 190.324 c 46.91 190.531 47.164 190.758 47.383 191.012 c 
47.598 191.262 47.766 191.543 47.883 191.855 c 48.008 192.164 48.066 192.512
 48.066 192.891 c h
46.25 186.949 m 46.25 186.43 46.062 186.043 45.695 185.789 c 45.332 185.531
 44.82 185.402 44.156 185.402 c 43.5 185.402 42.988 185.531 42.617 185.781
 c 42.254 186.035 42.074 186.41 42.074 186.914 c 42.074 187.145 42.117 187.355
 42.207 187.547 c 42.293 187.742 42.43 187.922 42.609 188.094 c 42.797 188.262
 43.027 188.43 43.305 188.594 c 43.578 188.758 43.906 188.926 44.289 189.094
 c 44.949 188.785 45.441 188.461 45.766 188.129 c 46.086 187.789 46.25 187.395
 46.25 186.949 c h
46.406 193.008 m 46.406 192.789 46.371 192.578 46.301 192.375 c 46.23 192.168
 46.105 191.965 45.922 191.766 c 45.742 191.566 45.5 191.367 45.195 191.168
 c 44.891 190.969 44.504 190.766 44.035 190.555 c 43.637 190.746 43.297 
190.941 43.023 191.133 c 42.754 191.32 42.535 191.516 42.363 191.715 c 42.199
 191.906 42.082 192.109 42.012 192.32 c 41.941 192.531 41.906 192.754 41.906
 192.988 c 41.906 193.254 41.961 193.488 42.074 193.691 c 42.191 193.891
 42.348 194.062 42.547 194.203 c 42.746 194.344 42.984 194.449 43.262 194.52
 c 43.535 194.59 43.836 194.625 44.156 194.625 c 44.469 194.625 44.762 194.59
 45.035 194.527 c 45.312 194.461 45.547 194.367 45.746 194.238 c 45.953 
194.102 46.113 193.934 46.23 193.734 c 46.348 193.531 46.406 193.289 46.406
 193.008 c h
46.406 193.008 m f
67.859 195.773 m 60.293 195.773 l 60.293 194.402 l 63.266 191.449 l 63.75
 190.969 64.145 190.555 64.449 190.203 c 64.754 189.852 64.992 189.531 65.164
 189.246 c 65.332 188.953 65.445 188.676 65.504 188.418 c 65.562 188.16 
65.594 187.883 65.594 187.582 c 65.594 187.301 65.555 187.035 65.48 186.785
 c 65.402 186.527 65.285 186.301 65.129 186.105 c 64.969 185.914 64.766 
185.762 64.512 185.648 c 64.262 185.539 63.957 185.484 63.605 185.484 c 
63.121 185.484 62.68 185.59 62.281 185.809 c 61.883 186.023 61.516 186.305
 61.18 186.652 c 60.336 185.641 l 60.77 185.184 61.27 184.816 61.832 184.543
 c 62.398 184.266 63.059 184.129 63.809 184.129 c 64.32 184.129 64.781 184.207
 65.199 184.359 c 65.621 184.512 65.984 184.73 66.289 185.016 c 66.594 185.305
 66.828 185.656 66.992 186.07 c 67.16 186.488 67.246 186.957 67.246 187.477
 c 67.246 187.918 67.188 188.324 67.07 188.699 c 66.953 189.074 66.773 189.449
 66.535 189.824 c 66.301 190.195 66 190.578 65.637 190.977 c 65.281 191.375
 64.855 191.812 64.363 192.285 c 62.281 194.316 l 67.859 194.316 l h
67.859 195.773 m f
77.758 195.773 m 70.191 195.773 l 70.191 194.402 l 73.16 191.449 l 73.648
 190.969 74.043 190.555 74.348 190.203 c 74.652 189.852 74.891 189.531 75.059
 189.246 c 75.23 188.953 75.344 188.676 75.402 188.418 c 75.461 188.16 75.488
 187.883 75.488 187.582 c 75.488 187.301 75.453 187.035 75.375 186.785 c
 75.301 186.527 75.184 186.301 75.023 186.105 c 74.867 185.914 74.66 185.762
 74.41 185.648 c 74.156 185.539 73.855 185.484 73.504 185.484 c 73.016 185.484
 72.574 185.59 72.176 185.809 c 71.777 186.023 71.41 186.305 71.078 186.652
 c 70.234 185.641 l 70.668 185.184 71.164 184.816 71.727 184.543 c 72.297
 184.266 72.957 184.129 73.707 184.129 c 74.215 184.129 74.68 184.207 75.094
 184.359 c 75.516 184.512 75.879 184.73 76.184 185.016 c 76.488 185.305 
76.723 185.656 76.887 186.07 c 77.059 186.488 77.141 186.957 77.141 187.477
 c 77.141 187.918 77.082 188.324 76.965 188.699 c 76.848 189.074 76.672 
189.449 76.43 189.824 c 76.195 190.195 75.898 190.578 75.535 190.977 c 75.176
 191.375 74.75 191.812 74.258 192.285 c 72.176 194.316 l 77.758 194.316 
l h
77.758 195.773 m f
97.488 189.387 m 97.488 190.504 97.355 191.469 97.086 192.277 c 96.816 
193.078 96.418 193.742 95.891 194.262 c 95.363 194.777 94.707 195.16 93.93
 195.406 c 93.148 195.652 92.25 195.773 91.23 195.773 c 90.273 195.773 l
 90.273 194.438 l 91.336 194.438 l 92.094 194.438 92.746 194.363 93.297 
194.211 c 93.848 194.059 94.305 193.836 94.668 193.543 c 95.035 193.242 
95.316 192.883 95.512 192.461 c 95.703 192.035 95.824 191.547 95.871 191.004
 c 95.906 190.641 l 95.539 190.859 95.113 191.035 94.633 191.168 c 94.152
 191.297 93.629 191.363 93.066 191.363 c 92.488 191.363 91.977 191.277 91.539
 191.109 c 91.098 190.938 90.734 190.699 90.441 190.395 c 90.152 190.09 
89.938 189.73 89.789 189.316 c 89.645 188.895 89.57 188.438 89.57 187.945
 c 89.57 187.41 89.668 186.914 89.859 186.449 c 90.055 185.988 90.324 185.586
 90.668 185.246 c 91.02 184.898 91.438 184.629 91.926 184.43 c 92.41 184.23
 92.949 184.129 93.535 184.129 c 94.102 184.129 94.625 184.223 95.105 184.41
 c 95.594 184.598 96.012 184.902 96.363 185.324 c 96.715 185.742 96.992 
186.281 97.191 186.949 c 97.391 187.617 97.488 188.43 97.488 189.387 c h
93.465 185.387 m 93.137 185.387 92.832 185.441 92.551 185.555 c 92.273 
185.66 92.035 185.816 91.828 186.027 c 91.629 186.234 91.473 186.488 91.355
 186.793 c 91.238 187.098 91.18 187.445 91.18 187.84 c 91.18 188.195 91.219
 188.516 91.301 188.797 c 91.391 189.078 91.52 189.316 91.695 189.516 c 
91.879 189.711 92.109 189.859 92.391 189.965 c 92.672 190.07 93.008 190.125
 93.395 190.125 c 93.609 190.125 93.832 190.102 94.062 190.062 c 94.297 
190.02 94.52 189.965 94.738 189.895 c 94.961 189.824 95.172 189.742 95.371
 189.648 c 95.57 189.555 95.75 189.457 95.906 189.352 c 95.906 188.594 95.852
 187.965 95.738 187.461 c 95.629 186.949 95.469 186.543 95.258 186.238 c
 95.047 185.93 94.789 185.707 94.484 185.578 c 94.184 185.449 93.844 185.387
 93.465 185.387 c h
93.465 185.387 m f
107.227 192.285 m 107.227 192.789 107.125 193.266 106.918 193.711 c 106.715
 194.148 106.406 194.535 105.996 194.871 c 105.586 195.199 105.07 195.457
 104.449 195.652 c 103.828 195.84 103.105 195.934 102.277 195.934 c 101.82
 195.934 101.41 195.918 101.047 195.891 c 100.684 195.859 100.344 195.82
 100.027 195.773 c 100.027 194.402 l 100.391 194.469 100.777 194.52 101.18
 194.555 c 101.586 194.59 101.996 194.605 102.418 194.605 c 102.992 194.605
 103.484 194.555 103.887 194.457 c 104.297 194.352 104.633 194.203 104.891
 194.008 c 105.148 193.816 105.336 193.582 105.453 193.305 c 105.57 193.031
 105.629 192.719 105.629 192.375 c 105.629 192.059 105.559 191.781 105.418
 191.547 c 105.277 191.312 105.078 191.117 104.82 190.957 c 104.566 190.801
 104.262 190.684 103.906 190.605 c 103.555 190.523 103.168 190.484 102.746
 190.484 c 101.434 190.484 l 101.434 189.227 l 102.762 189.227 l 103.109
 189.227 103.422 189.184 103.703 189.094 c 103.988 189 104.234 188.871 104.434
 188.699 c 104.637 188.531 104.793 188.32 104.898 188.074 c 105.008 187.824
 105.066 187.539 105.066 187.223 c 105.066 186.609 104.879 186.16 104.504
 185.879 c 104.129 185.598 103.578 185.457 102.852 185.457 c 102.465 185.457
 102.066 185.496 101.656 185.57 c 101.246 185.648 100.805 185.762 100.336
 185.914 c 100.336 184.578 l 100.535 184.508 100.746 184.445 100.969 184.395
 c 101.199 184.336 101.422 184.289 101.645 184.254 c 101.875 184.211 102.102
 184.184 102.324 184.164 c 102.547 184.141 102.758 184.129 102.965 184.129
 c 103.574 184.129 104.109 184.195 104.574 184.332 c 105.035 184.461 105.422
 184.648 105.734 184.895 c 106.043 185.141 106.277 185.438 106.438 185.789
 c 106.594 186.141 106.672 186.539 106.672 186.977 c 106.672 187.633 106.504
 188.184 106.164 188.629 c 105.828 189.074 105.371 189.43 104.785 189.691
 c 105.082 189.738 105.375 189.832 105.664 189.973 c 105.957 190.113 106.215
 190.297 106.445 190.52 c 106.68 190.734 106.867 190.992 107.008 191.293
 c 107.152 191.59 107.227 191.922 107.227 192.285 c h
107.227 192.285 m f
1.941 358.383 m 1.695 362.508 l 0.254 362.508 l 0 358.383 l h
5.363 358.383 m 5.113 362.508 l 3.672 362.508 l 3.418 358.383 l h
5.363 358.383 m f
16.129 358.383 m 10.098 372.691 l 8.641 372.691 l 14.668 358.383 l h
16.129 358.383 m f
26.762 359.809 m 25.961 359.637 25.27 359.555 24.688 359.555 c 23.312 359.555
 22.621 360.273 22.621 361.715 c 22.621 363.262 l 26.488 363.262 l 26.488
 364.535 l 22.621 364.535 l 22.621 370.805 l 21.066 370.805 l 21.066 364.535
 l 18.227 364.535 l 18.227 363.262 l 21.066 363.262 l 21.066 361.805 l 21.066
 359.453 22.293 358.277 24.742 358.277 c 25.352 358.277 26.023 358.348 26.762
 358.488 c h
26.762 359.809 m f
36.512 366.32 m 36.512 367.008 36.414 367.637 36.219 368.211 c 36.027 368.777
 35.75 369.27 35.387 369.68 c 35.023 370.082 34.578 370.398 34.059 370.629
 c 33.535 370.852 32.945 370.961 32.281 370.961 c 31.648 370.961 31.082 
370.863 30.578 370.672 c 30.078 370.473 29.656 370.184 29.305 369.801 c 
28.957 369.422 28.691 368.949 28.504 368.387 c 28.32 367.824 28.23 367.176
 28.23 366.445 c 28.23 365.758 28.328 365.133 28.52 364.57 c 28.715 364.004
 28.992 363.516 29.355 363.113 c 29.719 362.703 30.16 362.387 30.684 362.164
 c 31.203 361.934 31.797 361.82 32.457 361.82 c 33.09 361.82 33.656 361.922
 34.152 362.121 c 34.656 362.312 35.082 362.602 35.43 362.98 c 35.781 363.355
 36.047 363.824 36.227 364.387 c 36.414 364.949 36.512 365.594 36.512 366.32
 c h
34.945 366.391 m 34.945 365.848 34.883 365.371 34.762 364.969 c 34.645 
364.559 34.473 364.219 34.25 363.949 c 34.027 363.672 33.758 363.469 33.434
 363.332 c 33.117 363.191 32.762 363.121 32.371 363.121 c 31.914 363.121
 31.52 363.211 31.191 363.395 c 30.871 363.57 30.605 363.809 30.395 364.105
 c 30.188 364.406 30.035 364.754 29.938 365.152 c 29.844 365.543 29.797 
365.957 29.797 366.391 c 29.797 366.938 29.855 367.414 29.969 367.824 c 
30.094 368.234 30.266 368.578 30.488 368.852 c 30.711 369.121 30.98 369.328
 31.297 369.469 c 31.613 369.602 31.973 369.668 32.371 369.668 c 32.828 
369.668 33.215 369.582 33.539 369.406 c 33.867 369.223 34.133 368.984 34.34
 368.684 c 34.551 368.387 34.703 368.039 34.797 367.648 c 34.895 367.25 
34.945 366.832 34.945 366.391 c h
34.945 366.391 m f
46.406 366.32 m 46.406 367.008 46.309 367.637 46.117 368.211 c 45.922 368.777
 45.645 369.27 45.281 369.68 c 44.918 370.082 44.477 370.398 43.953 370.629
 c 43.434 370.852 42.84 370.961 42.18 370.961 c 41.547 370.961 40.977 370.863
 40.473 370.672 c 39.977 370.473 39.551 370.184 39.199 369.801 c 38.855 
369.422 38.586 368.949 38.398 368.387 c 38.219 367.824 38.125 367.176 38.125
 366.445 c 38.125 365.758 38.223 365.133 38.418 364.57 c 38.609 364.004 
38.887 363.516 39.25 363.113 c 39.613 362.703 40.059 362.387 40.578 362.164
 c 41.102 361.934 41.691 361.82 42.355 361.82 c 42.988 361.82 43.551 361.922
 44.051 362.121 c 44.555 362.312 44.98 362.602 45.324 362.98 c 45.676 363.355
 45.941 363.824 46.125 364.387 c 46.312 364.949 46.406 365.594 46.406 366.32
 c h
44.844 366.391 m 44.844 365.848 44.781 365.371 44.656 364.969 c 44.539 
364.559 44.371 364.219 44.148 363.949 c 43.926 363.672 43.652 363.469 43.332
 363.332 c 43.016 363.191 42.66 363.121 42.266 363.121 c 41.809 363.121 
41.418 363.211 41.09 363.395 c 40.766 363.57 40.5 363.809 40.289 364.105
 c 40.086 364.406 39.934 364.754 39.832 365.152 c 39.738 365.543 39.691 
365.957 39.691 366.391 c 39.691 366.938 39.75 367.414 39.867 367.824 c 39.988
 368.234 40.164 368.578 40.387 368.852 c 40.609 369.121 40.879 369.328 41.195
 369.469 c 41.512 369.602 41.867 369.668 42.266 369.668 c 42.723 369.668
 43.113 369.582 43.438 369.406 c 43.766 369.223 44.031 368.984 44.234 368.684
 c 44.445 368.387 44.598 368.039 44.691 367.648 c 44.793 367.25 44.844 366.832
 44.844 366.391 c h
44.844 366.391 m f
55.715 358.383 m 49.684 372.691 l 48.227 372.691 l 54.254 358.383 l h
55.715 358.383 m f
66.059 366.234 m 66.059 366.965 65.957 367.621 65.75 368.203 c 65.551 368.777
 65.266 369.266 64.891 369.668 c 64.52 370.066 64.07 370.375 63.535 370.594
 c 63.004 370.805 62.402 370.91 61.734 370.91 c 61.215 370.91 60.68 370.859
 60.137 370.758 c 59.59 370.66 59.051 370.5 58.52 370.285 c 58.52 358.383
 l 60.047 358.383 l 60.047 361.805 l 59.977 363.438 l 60.414 362.848 60.883
 362.43 61.383 362.191 c 61.887 361.945 62.426 361.82 63 361.82 c 63.504
 361.82 63.945 361.926 64.328 362.137 c 64.707 362.348 65.027 362.648 65.285
 363.035 c 65.543 363.414 65.734 363.879 65.863 364.422 c 65.992 364.961
 66.059 365.566 66.059 366.234 c h
64.496 366.305 m 64.496 365.84 64.457 365.414 64.387 365.027 c 64.324 364.641
 64.219 364.312 64.07 364.035 c 63.926 363.762 63.738 363.547 63.508 363.395
 c 63.281 363.234 63.008 363.156 62.691 363.156 c 62.5 363.156 62.301 363.188
 62.102 363.254 c 61.902 363.312 61.695 363.414 61.48 363.562 c 61.27 363.703
 61.043 363.891 60.801 364.133 c 60.566 364.367 60.316 364.66 60.047 365.012
 c 60.047 369.293 l 60.344 369.41 60.648 369.504 60.961 369.574 c 61.27 
369.637 61.566 369.668 61.848 369.668 c 62.199 369.668 62.535 369.613 62.852
 369.504 c 63.172 369.391 63.453 369.207 63.695 368.949 c 63.941 368.684
 64.133 368.34 64.273 367.91 c 64.422 367.477 64.492 366.941 64.492 366.305
 c h
64.496 366.305 m f
74.082 370.805 m 74.047 369.617 l 73.566 370.09 73.078 370.434 72.582 370.645
 c 72.09 370.855 71.57 370.961 71.023 370.961 c 70.52 370.961 70.09 370.898
 69.734 370.77 c 69.375 370.641 69.078 370.465 68.844 370.242 c 68.617 370.012
 68.445 369.746 68.336 369.441 c 68.23 369.137 68.176 368.805 68.176 368.449
 c 68.176 367.562 68.504 366.871 69.16 366.375 c 69.824 365.871 70.801 365.617
 72.09 365.617 c 73.918 365.617 l 73.918 364.844 l 73.918 364.324 73.75 
363.906 73.414 363.598 c 73.082 363.281 72.57 363.121 71.887 363.121 c 71.387
 363.121 70.895 363.176 70.41 363.289 c 69.93 363.398 69.43 363.559 68.914
 363.762 c 68.914 362.383 l 69.109 362.312 69.324 362.246 69.559 362.18 
c 69.797 362.109 70.051 362.051 70.312 361.996 c 70.578 361.945 70.852 361.902
 71.141 361.875 c 71.426 361.84 71.715 361.82 72.008 361.82 c 72.543 361.82
 73.023 361.879 73.449 361.996 c 73.879 362.113 74.238 362.293 74.531 362.531
 c 74.832 362.773 75.059 363.074 75.219 363.438 c 75.375 363.801 75.453 
364.23 75.453 364.723 c 75.453 370.805 l h
73.918 366.785 m 71.973 366.785 l 71.594 366.785 71.266 366.824 70.988 
366.902 c 70.715 366.977 70.488 367.086 70.312 367.227 c 70.137 367.367 
70.004 367.535 69.918 367.734 c 69.836 367.93 69.793 368.148 69.793 368.395
 c 69.793 368.566 69.82 368.73 69.875 368.887 c 69.926 369.039 70.012 369.176
 70.129 369.301 c 70.246 369.418 70.398 369.512 70.586 369.582 c 70.773 
369.652 71 369.688 71.27 369.688 c 71.621 369.688 72.023 369.582 72.477 
369.371 c 72.934 369.152 73.414 368.812 73.918 368.352 c h
73.918 366.785 m f
78.672 361.98 m 80.07 361.98 l 80.113 363.605 l 80.633 362.977 81.145 362.523
 81.648 362.242 c 82.16 361.961 82.672 361.82 83.188 361.82 c 84.102 361.82
 84.793 362.117 85.262 362.707 c 85.738 363.301 85.957 364.18 85.922 365.344
 c 84.375 365.344 l 84.391 364.57 84.277 364.012 84.031 363.668 c 83.793
 363.316 83.438 363.141 82.969 363.141 c 82.762 363.141 82.555 363.176 82.344
 363.254 c 82.141 363.324 81.926 363.441 81.703 363.605 c 81.484 363.762
 81.254 363.969 81.008 364.219 c 80.762 364.473 80.5 364.777 80.219 365.133
 c 80.219 370.805 l 78.672 370.805 l h
78.672 361.98 m f
91.012 358.383 m 90.766 362.508 l 89.324 362.508 l 89.066 358.383 l h
94.43 358.383 m 94.184 362.508 l 92.742 362.508 l 92.488 358.383 l h
94.43 358.383 m f
165.27 91 m 159.242 105.309 l 157.781 105.309 l 163.812 91 l h
165.27 91 m f
175.906 92.426 m 175.102 92.254 174.41 92.172 173.832 92.172 c 172.453 
92.172 171.766 92.891 171.766 94.332 c 171.766 95.879 l 175.633 95.879 l
 175.633 97.152 l 171.766 97.152 l 171.766 103.422 l 170.211 103.422 l 170.211
 97.152 l 167.371 97.152 l 167.371 95.879 l 170.211 95.879 l 170.211 94.422
 l 170.211 92.07 171.434 90.895 173.883 90.895 c 174.492 90.895 175.168 
90.965 175.906 91.105 c h
175.906 92.426 m f
185.652 98.938 m 185.652 99.625 185.555 100.254 185.363 100.828 c 185.168
 101.395 184.891 101.887 184.527 102.297 c 184.164 102.699 183.723 103.016
 183.199 103.246 c 182.68 103.469 182.086 103.578 181.426 103.578 c 180.793
 103.578 180.223 103.48 179.719 103.289 c 179.223 103.09 178.797 102.801
 178.445 102.418 c 178.102 102.039 177.832 101.566 177.645 101.004 c 177.465
 100.441 177.375 99.793 177.375 99.062 c 177.375 98.375 177.469 97.75 177.664
 97.188 c 177.855 96.621 178.137 96.133 178.5 95.73 c 178.863 95.32 179.305
 95.004 179.824 94.781 c 180.348 94.551 180.938 94.438 181.602 94.438 c 
182.234 94.438 182.801 94.539 183.297 94.738 c 183.801 94.93 184.227 95.219
 184.57 95.598 c 184.922 95.973 185.191 96.441 185.371 97.004 c 185.559 
97.566 185.652 98.211 185.652 98.938 c h
184.09 99.008 m 184.09 98.465 184.027 97.988 183.902 97.586 c 183.785 97.176
 183.617 96.836 183.395 96.566 c 183.172 96.289 182.898 96.086 182.578 95.949
 c 182.262 95.809 181.906 95.738 181.512 95.738 c 181.055 95.738 180.664
 95.828 180.336 96.012 c 180.012 96.188 179.746 96.426 179.535 96.723 c 
179.332 97.023 179.18 97.371 179.078 97.77 c 178.984 98.16 178.938 98.574
 178.938 99.008 c 178.938 99.555 178.996 100.031 179.113 100.441 c 179.238
 100.852 179.41 101.195 179.633 101.469 c 179.855 101.738 180.125 101.945
 180.441 102.086 c 180.758 102.219 181.113 102.285 181.512 102.285 c 181.969
 102.285 182.359 102.199 182.684 102.023 c 183.012 101.84 183.277 101.602
 183.48 101.301 c 183.691 101.004 183.844 100.656 183.938 100.266 c 184.039
 99.867 184.09 99.449 184.09 99.008 c h
184.09 99.008 m f
195.551 98.938 m 195.551 99.625 195.453 100.254 195.258 100.828 c 195.066
 101.395 194.789 101.887 194.426 102.297 c 194.062 102.699 193.617 103.016
 193.098 103.246 c 192.574 103.469 191.984 103.578 191.32 103.578 c 190.688
 103.578 190.121 103.48 189.617 103.289 c 189.117 103.09 188.695 102.801
 188.344 102.418 c 187.996 102.039 187.73 101.566 187.543 101.004 c 187.359
 100.441 187.27 99.793 187.27 99.062 c 187.27 98.375 187.367 97.75 187.559
 97.188 c 187.754 96.621 188.031 96.133 188.395 95.73 c 188.758 95.32 189.199
 95.004 189.723 94.781 c 190.242 94.551 190.836 94.438 191.496 94.438 c 
192.129 94.438 192.695 94.539 193.195 94.738 c 193.699 94.93 194.121 95.219
 194.469 95.598 c 194.82 95.973 195.086 96.441 195.27 97.004 c 195.457 97.566
 195.551 98.211 195.551 98.938 c h
193.984 99.008 m 193.984 98.465 193.922 97.988 193.801 97.586 c 193.684
 97.176 193.512 96.836 193.289 96.566 c 193.066 96.289 192.797 96.086 192.473
 95.949 c 192.156 95.809 191.801 95.738 191.41 95.738 c 190.953 95.738 190.559
 95.828 190.23 96.012 c 189.91 96.188 189.645 96.426 189.434 96.723 c 189.227
 97.023 189.074 97.371 188.977 97.77 c 188.883 98.16 188.836 98.574 188.836
 99.008 c 188.836 99.555 188.895 100.031 189.012 100.441 c 189.133 100.852
 189.305 101.195 189.527 101.469 c 189.75 101.738 190.02 101.945 190.336
 102.086 c 190.652 102.219 191.012 102.285 191.41 102.285 c 191.867 102.285
 192.258 102.199 192.578 102.023 c 192.906 101.84 193.172 101.602 193.379
 101.301 c 193.59 101.004 193.742 100.656 193.836 100.266 c 193.934 99.867
 193.984 99.449 193.984 99.008 c h
193.984 99.008 m f
204.855 91 m 198.828 105.309 l 197.367 105.309 l 203.398 91 l h
204.855 91 m f
215.203 98.852 m 215.203 99.582 215.098 100.238 214.895 100.82 c 214.695
 101.395 214.406 101.883 214.031 102.285 c 213.664 102.684 213.211 102.992
 212.68 103.211 c 212.145 103.422 211.547 103.527 210.879 103.527 c 210.355
 103.527 209.824 103.477 209.277 103.375 c 208.734 103.277 208.195 103.117
 207.66 102.902 c 207.66 91 l 209.191 91 l 209.191 94.422 l 209.121 96.055
 l 209.559 95.465 210.027 95.047 210.527 94.809 c 211.031 94.562 211.57 
94.438 212.145 94.438 c 212.648 94.438 213.09 94.543 213.469 94.754 c 213.852
 94.965 214.172 95.266 214.43 95.652 c 214.688 96.031 214.879 96.496 215.008
 97.039 c 215.137 97.578 215.203 98.184 215.203 98.852 c h
213.637 98.922 m 213.637 98.457 213.602 98.031 213.531 97.645 c 213.469
 97.258 213.363 96.93 213.215 96.652 c 213.07 96.379 212.883 96.164 212.652
 96.012 c 212.426 95.852 212.152 95.773 211.836 95.773 c 211.641 95.773 
211.445 95.805 211.246 95.871 c 211.047 95.93 210.84 96.031 210.621 96.18
 c 210.41 96.32 210.188 96.508 209.945 96.75 c 209.711 96.984 209.461 97.277
 209.191 97.629 c 209.191 101.91 l 209.488 102.027 209.793 102.121 210.105
 102.191 c 210.414 102.254 210.711 102.285 210.992 102.285 c 211.344 102.285
 211.676 102.23 211.992 102.121 c 212.316 102.008 212.598 101.824 212.836
 101.566 c 213.082 101.301 213.277 100.957 213.418 100.527 c 213.562 100.094
 213.637 99.559 213.637 98.922 c h
213.637 98.922 m f
223.227 103.422 m 223.191 102.234 l 222.711 102.707 222.223 103.051 221.723
 103.262 c 221.23 103.473 220.711 103.578 220.168 103.578 c 219.664 103.578
 219.234 103.516 218.875 103.387 c 218.52 103.258 218.223 103.082 217.988
 102.859 c 217.758 102.629 217.59 102.363 217.477 102.059 c 217.371 101.754
 217.32 101.422 217.32 101.066 c 217.32 100.18 217.648 99.488 218.305 98.992
 c 218.965 98.488 219.941 98.234 221.23 98.234 c 223.059 98.234 l 223.059
 97.461 l 223.059 96.941 222.891 96.523 222.559 96.215 c 222.223 95.898 
221.715 95.738 221.027 95.738 c 220.531 95.738 220.039 95.793 219.551 95.906
 c 219.07 96.016 218.574 96.176 218.059 96.379 c 218.059 95 l 218.25 94.93
 218.465 94.863 218.699 94.797 c 218.941 94.727 219.191 94.668 219.457 94.613
 c 219.719 94.562 219.996 94.52 220.281 94.492 c 220.57 94.457 220.859 94.438
 221.152 94.438 c 221.684 94.438 222.164 94.496 222.594 94.613 c 223.02 
94.73 223.383 94.91 223.676 95.148 c 223.973 95.391 224.203 95.691 224.359
 96.055 c 224.52 96.418 224.598 96.848 224.598 97.34 c 224.598 103.422 l
 h
223.059 99.402 m 221.117 99.402 l 220.734 99.402 220.406 99.441 220.133
 99.52 c 219.855 99.594 219.633 99.703 219.457 99.844 c 219.281 99.984 219.148
 100.152 219.059 100.352 c 218.977 100.547 218.938 100.766 218.938 101.012
 c 218.938 101.184 218.965 101.348 219.016 101.504 c 219.07 101.656 219.152
 101.793 219.27 101.918 c 219.387 102.035 219.539 102.129 219.727 102.199
 c 219.914 102.27 220.145 102.305 220.414 102.305 c 220.766 102.305 221.168
 102.199 221.617 101.988 c 222.074 101.77 222.555 101.43 223.059 100.969
 c h
223.059 99.402 m f
227.812 94.598 m 229.211 94.598 l 229.254 96.223 l 229.777 95.594 230.289
 95.141 230.793 94.859 c 231.305 94.578 231.816 94.438 232.332 94.438 c 
233.246 94.438 233.938 94.734 234.406 95.324 c 234.879 95.918 235.102 96.797
 235.066 97.961 c 233.52 97.961 l 233.535 97.188 233.422 96.629 233.176 
96.285 c 232.934 95.934 232.582 95.758 232.113 95.758 c 231.906 95.758 231.699
 95.793 231.488 95.871 c 231.281 95.941 231.07 96.059 230.848 96.223 c 230.629
 96.379 230.398 96.586 230.152 96.836 c 229.906 97.09 229.641 97.395 229.359
 97.75 c 229.359 103.422 l 227.812 103.422 l h
227.812 94.598 m f
1 g
171.547 76.062 m 172.363 69.008 173.184 61.945 173.441 53.289 c 173.703
 44.633 173.406 34.375 172.773 25.867 c 172.145 17.355 171.176 10.594 170.508
 6.73 c 169.84 2.867 169.469 1.898 169.656 1.375 c 169.844 0.848 170.59 
0.773 171.926 0.887 c 173.266 1 175.199 1.297 177.539 1.52 c 179.879 1.742
 182.629 1.891 187.867 1.855 c 193.109 1.816 200.836 1.594 205.109 1.371
 c 209.383 1.145 210.199 0.922 210.645 0.812 c 211.094 0.703 211.168 0.703
 211.574 1.188 c 211.984 1.676 212.727 2.641 214.586 4.945 c 216.441 7.25
 219.418 10.891 222.316 14.012 c 225.215 17.133 228.039 19.734 229.672 21.184
 c 231.309 22.633 231.754 22.93 231.941 23.074 c 232.125 23.219 232.051 
23.219 232.012 23.188 c 231.969 23.152 231.969 23.078 231.969 23.078 c 231.969
 23.078 231.969 23.152 231.855 23.746 c 231.746 24.34 231.523 25.457 231.227
 27.203 c 230.93 28.949 230.555 31.328 229.777 36.418 c 228.996 41.508 227.805
 49.312 226.953 55.668 c 226.098 62.023 225.578 66.926 225.316 70.68 c 225.059
 74.434 225.059 77.035 225.059 78.594 c 225.059 80.156 225.059 80.676 225.059
 81.047 c 225.059 81.418 225.059 81.645 225.023 81.75 c 224.992 81.859 224.918
 81.859 224.844 81.824 c 224.77 81.793 224.695 81.719 224.582 81.676 c 224.473
 81.637 224.324 81.637 224.062 81.527 c 223.805 81.418 223.434 81.195 221.016
 80.449 c 218.602 79.707 214.141 78.441 207.602 77.551 c 201.062 76.656 
192.441 76.137 186.789 75.988 c 181.141 75.836 178.465 76.062 177.125 76.215
 c 175.785 76.367 175.785 76.441 175.715 76.473 c 175.645 76.508 175.496
 76.508 175.344 76.543 c 175.191 76.578 175.043 76.656 174.891 76.73 c f*
0 g
1.500001 w
1 J
0 j
[] 0.0 d
4 M q 1 0 0 1 0 0 cm
171.547 76.062 m 172.363 69.008 173.184 61.945 173.441 53.289 c 173.703
 44.633 173.406 34.375 172.773 25.867 c 172.145 17.355 171.176 10.594 170.508
 6.73 c 169.84 2.867 169.469 1.898 169.656 1.375 c 169.844 0.848 170.59 
0.773 171.926 0.887 c 173.266 1 175.199 1.297 177.539 1.52 c 179.879 1.742
 182.629 1.891 187.867 1.855 c 193.109 1.816 200.836 1.594 205.109 1.371
 c 209.383 1.145 210.199 0.922 210.645 0.812 c 211.094 0.703 211.168 0.703
 211.574 1.188 c 211.984 1.676 212.727 2.641 214.586 4.945 c 216.441 7.25
 219.418 10.891 222.316 14.012 c 225.215 17.133 228.039 19.734 229.672 21.184
 c 231.309 22.633 231.754 22.93 231.941 23.074 c 232.125 23.219 232.051 
23.219 232.012 23.188 c 231.969 23.152 231.969 23.078 231.969 23.078 c 231.969
 23.078 231.969 23.152 231.855 23.746 c 231.746 24.34 231.523 25.457 231.227
 27.203 c 230.93 28.949 230.555 31.328 229.777 36.418 c 228.996 41.508 227.805
 49.312 226.953 55.668 c 226.098 62.023 225.578 66.926 225.316 70.68 c 225.059
 74.434 225.059 77.035 225.059 78.594 c 225.059 80.156 225.059 80.676 225.059
 81.047 c 225.059 81.418 225.059 81.645 225.023 81.75 c 224.992 81.859 224.918
 81.859 224.844 81.824 c 224.77 81.793 224.695 81.719 224.582 81.676 c 224.473
 81.637 224.324 81.637 224.062 81.527 c 223.805 81.418 223.434 81.195 221.016
 80.449 c 218.602 79.707 214.141 78.441 207.602 77.551 c 201.062 76.656 
192.441 76.137 186.789 75.988 c 181.141 75.836 178.465 76.062 177.125 76.215
 c 175.785 76.367 175.785 76.441 175.715 76.473 c 175.645 76.508 175.496
 76.508 175.344 76.543 c 175.191 76.578 175.043 76.656 174.891 76.73 c S Q
1 g
211.066 2.125 m 211.121 2.871 211.172 3.605 211.25 4.473 c 211.328 5.34
 211.434 6.34 211.406 8.836 c 211.383 11.328 211.223 15.324 211.117 17.559
 c 211.012 19.789 210.961 20.262 210.934 20.684 c 210.91 21.105 210.91 21.473
 210.91 21.812 c 210.91 22.156 210.91 22.473 210.91 22.707 c 210.91 22.945
 210.91 23.102 210.91 23.207 c 210.91 23.312 210.91 23.363 210.938 23.387
 c 210.969 23.41 211.023 23.41 211.52 23.438 c 212.02 23.461 212.965 23.516
 214.176 23.621 c 215.383 23.727 216.855 23.883 218.406 24.016 c 219.957
 24.145 221.586 24.25 223.715 24.355 c 225.84 24.461 228.469 24.566 231.09
 24.672 c f*
0 g
q 1 0 0 1 0 0 cm
211.066 2.125 m 211.121 2.871 211.172 3.605 211.25 4.473 c 211.328 5.34
 211.434 6.34 211.406 8.836 c 211.383 11.328 211.223 15.324 211.117 17.559
 c 211.012 19.789 210.961 20.262 210.934 20.684 c 210.91 21.105 210.91 21.473
 210.91 21.812 c 210.91 22.156 210.91 22.473 210.91 22.707 c 210.91 22.945
 210.91 23.102 210.91 23.207 c 210.91 23.312 210.91 23.363 210.938 23.387
 c 210.969 23.41 211.023 23.41 211.52 23.438 c 212.02 23.461 212.965 23.516
 214.176 23.621 c 215.383 23.727 216.855 23.883 218.406 24.016 c 219.957
 24.145 221.586 24.25 223.715 24.355 c 225.84 24.461 228.469 24.566 231.09
 24.672 c S Q
q 1 0 0 1 0 0 cm
196.816 124.684 m 196.965 128.559 197.113 132.422 197.484 137.18 c 197.855
 141.938 198.453 147.582 198.898 152.043 c 199.344 156.504 199.641 159.773
 200.234 167.129 c 200.828 174.488 201.723 185.934 202.168 196.039 c 202.613
 206.148 202.613 214.918 202.613 225.32 c 202.613 235.727 202.613 247.766
 202.613 255.199 c 202.613 262.629 202.613 265.453 202.613 269.469 c 202.613
 273.48 202.613 278.684 202.688 282.398 c 202.762 286.113 202.91 288.344
 202.984 292.059 c 203.059 295.777 203.059 300.977 203.059 304.77 c 203.059
 308.559 203.059 310.938 202.539 315.691 c 202.016 320.449 200.977 327.582
 200.086 332.562 c 199.191 337.543 198.449 340.367 197.262 343.336 c 196.07
 346.309 194.438 349.43 192.801 351.809 c 191.168 354.184 189.531 355.82
 184.258 358.047 c 178.984 360.277 170.066 363.102 163.676 364.289 c 157.285
 365.48 153.422 365.035 151.043 364.516 c 148.664 364 147.773 363.406 146.062
 362.809 c 144.355 362.211 141.828 361.617 140.266 361.469 c 138.699 361.316
 138.105 361.613 137.508 361.914 c S Q
q 1 0 0 1 0 0 cm
196.816 129.145 m 196.816 132.273 196.816 135.395 196.742 138.887 c 196.668
 142.379 196.52 146.246 196.293 148.996 c 196.07 151.742 195.773 153.379
 195.254 155.906 c 194.734 158.434 193.988 161.852 193.246 164.301 c 192.504
 166.754 191.762 168.238 189.309 170.469 c 186.859 172.695 182.695 175.668
 179.129 177.598 c 175.566 179.531 172.594 180.422 168.805 180.723 c 165.016
 181.02 160.406 180.723 157.359 180.203 c 154.312 179.688 152.828 178.941
 151.711 178.422 c 150.598 177.902 149.855 177.605 149.262 177.309 c 148.664
 177.012 148.219 176.715 147.922 176.492 c 147.625 176.27 147.477 176.121
 147.25 176.043 c 147.027 175.965 146.73 175.965 146.426 175.965 c S Q
q 1 0 0 1 0 0 cm
159.598 171.953 m 158.859 172.25 158.113 172.547 154.699 172.844 c 151.281
 173.141 145.188 173.438 140.133 173.586 c 135.078 173.734 131.066 173.734
 129.133 173.734 c 127.203 173.734 127.352 173.734 128.094 174.184 c 128.836
 174.633 130.176 175.527 133.594 177.16 c 137.012 178.793 142.512 181.172
 147.566 183.328 c 152.621 185.48 157.227 187.414 159.605 188.457 c 161.984
 189.5 162.133 189.648 162.273 189.789 c S Q
q 1 0 0 1 0 0 cm
152.668 351.656 m 150.594 352.398 148.512 353.141 146.133 353.812 c 143.758
 354.48 141.082 355.074 138.926 355.816 c 136.77 356.559 135.133 357.453
 133.648 358.27 c 132.16 359.086 130.824 359.832 130.004 360.277 c 129.188
 360.723 128.891 360.871 128.742 361.023 c 128.59 361.176 128.59 361.324
 128.516 361.469 c 128.441 361.617 128.293 361.766 127.996 362.062 c 127.699
 362.359 127.254 362.805 126.883 363.176 c 126.508 363.547 126.211 363.844
 125.992 363.992 c 125.773 364.141 125.625 364.141 125.547 364.07 c 125.469
 364 125.469 363.852 125.547 363.773 c 125.625 363.695 125.773 363.695 126.145
 363.922 c 126.52 364.148 127.113 364.594 128.375 365.113 c 129.641 365.633
 131.57 366.227 135.141 367.414 c 138.707 368.605 143.91 370.387 147.328
 371.504 c 150.746 372.617 152.383 373.062 153.496 373.438 c 154.609 373.809
 155.207 374.105 155.793 374.398 c S Q
Q Q
showpage
%%Trailer
end
%%EOF
