%!PS-Adobe-3.0 EPSF-3.0
%%Creator: cairo 1.17.8 (https://cairographics.org)
%%CreationDate: Mon Jun  5 12:12:21 2023
%%Pages: 1
%%DocumentData: Clean7Bit
%%LanguageLevel: 2
%%BoundingBox: 0 1 543 169
%%EndComments
%%BeginProlog
50 dict begin
/q { gsave } bind def
/Q { grestore } bind def
/cm { 6 array astore concat } bind def
/w { setlinewidth } bind def
/J { setlinecap } bind def
/j { setlinejoin } bind def
/M { setmiterlimit } bind def
/d { setdash } bind def
/m { moveto } bind def
/l { lineto } bind def
/c { curveto } bind def
/h { closepath } bind def
/re { exch dup neg 3 1 roll 5 3 roll moveto 0 rlineto
      0 exch rlineto 0 rlineto closepath } bind def
/S { stroke } bind def
/f { fill } bind def
/f* { eofill } bind def
/n { newpath } bind def
/W { clip } bind def
/W* { eoclip } bind def
/BT { } bind def
/ET { } bind def
/BDC { mark 3 1 roll /BDC pdfmark } bind def
/EMC { mark /EMC pdfmark } bind def
/cairo_store_point { /cairo_point_y exch def /cairo_point_x exch def } def
/Tj { show currentpoint cairo_store_point } bind def
/TJ {
  {
    dup
    type /stringtype eq
    { show } { -0.001 mul 0 cairo_font_matrix dtransform rmoveto } ifelse
  } forall
  currentpoint cairo_store_point
} bind def
/cairo_selectfont { cairo_font_matrix aload pop pop pop 0 0 6 array astore
    cairo_font exch selectfont cairo_point_x cairo_point_y moveto } bind def
/Tf { pop /cairo_font exch def /cairo_font_matrix where
      { pop cairo_selectfont } if } bind def
/Td { matrix translate cairo_font_matrix matrix concatmatrix dup
      /cairo_font_matrix exch def dup 4 get exch 5 get cairo_store_point
      /cairo_font where { pop cairo_selectfont } if } bind def
/Tm { 2 copy 8 2 roll 6 array astore /cairo_font_matrix exch def
      cairo_store_point /cairo_font where { pop cairo_selectfont } if } bind def
/g { setgray } bind def
/rg { setrgbcolor } bind def
/d1 { setcachedevice } bind def
/cairo_data_source {
  CairoDataIndex CairoData length lt
    { CairoData CairoDataIndex get /CairoDataIndex CairoDataIndex 1 add def }
    { () } ifelse
} def
/cairo_flush_ascii85_file { cairo_ascii85_file status { cairo_ascii85_file flushfile } if } def
/cairo_image { image cairo_flush_ascii85_file } def
/cairo_imagemask { imagemask cairo_flush_ascii85_file } def
%%EndProlog
%%BeginSetup
%%EndSetup
%%Page: 1 1
%%BeginPageSetup
%%PageBoundingBox: 0 1 543 169
%%EndPageSetup
q 0 1 543 168 rectclip
1 0 0 -1 0 169 cm q
0 g
7.988 31.117 m 0.773 31.117 l 0.773 29.691 l 3.727 29.691 l 3.727 21.309
 l 0.977 22.801 l 0.414 21.5 l 4.07 19.578 l 5.422 19.578 l 5.422 29.691
 l 7.988 29.691 l h
7.988 31.117 m f
16.199 31.117 m 16.164 29.93 l 15.684 30.406 15.195 30.746 14.695 30.957
 c 14.203 31.168 13.684 31.273 13.141 31.273 c 12.637 31.273 12.207 31.211
 11.848 31.082 c 11.492 30.953 11.195 30.777 10.961 30.555 c 10.73 30.324
 10.562 30.059 10.449 29.754 c 10.344 29.449 10.293 29.117 10.293 28.762
 c 10.293 27.875 10.621 27.184 11.277 26.688 c 11.938 26.184 12.914 25.93
 14.203 25.93 c 16.031 25.93 l 16.031 25.156 l 16.031 24.637 15.863 24.219
 15.531 23.91 c 15.195 23.594 14.688 23.434 14 23.434 c 13.504 23.434 13.012
 23.492 12.523 23.602 c 12.043 23.715 11.547 23.871 11.031 24.078 c 11.031
 22.695 l 11.223 22.625 11.438 22.559 11.672 22.496 c 11.914 22.426 12.164
 22.363 12.43 22.309 c 12.691 22.258 12.969 22.215 13.254 22.188 c 13.543
 22.152 13.832 22.133 14.125 22.133 c 14.656 22.133 15.137 22.191 15.566
 22.309 c 15.992 22.426 16.355 22.605 16.648 22.848 c 16.945 23.086 17.176
 23.387 17.332 23.75 c 17.492 24.113 17.57 24.543 17.57 25.035 c 17.57 31.117
 l h
16.031 27.102 m 14.09 27.102 l 13.707 27.102 13.379 27.137 13.105 27.215
 c 12.828 27.289 12.605 27.398 12.43 27.539 c 12.25 27.68 12.121 27.852 
12.031 28.051 c 11.949 28.242 11.91 28.461 11.91 28.707 c 11.91 28.879 11.934
 29.043 11.988 29.199 c 12.039 29.352 12.125 29.492 12.242 29.613 c 12.359
 29.73 12.512 29.824 12.699 29.895 c 12.887 29.965 13.117 30 13.387 30 c
 13.738 30 14.137 29.895 14.59 29.684 c 15.047 29.469 15.527 29.129 16.031
 28.664 c h
16.031 27.102 m f
38.039 25.379 m 38.039 26.258 37.949 27.059 37.773 27.785 c 37.598 28.508
 37.332 29.129 36.977 29.648 c 36.617 30.164 36.172 30.566 35.641 30.852
 c 35.113 31.133 34.492 31.273 33.777 31.273 c 33.16 31.273 32.602 31.16
 32.098 30.934 c 31.594 30.699 31.164 30.34 30.805 29.859 c 30.449 29.379
 30.172 28.766 29.98 28.023 c 29.785 27.277 29.688 26.398 29.688 25.379 
c 29.688 24.5 29.777 23.695 29.953 22.969 c 30.137 22.242 30.402 21.621 
30.754 21.105 c 31.109 20.586 31.555 20.184 32.09 19.902 c 32.621 19.613
 33.242 19.473 33.953 19.473 c 34.566 19.473 35.125 19.59 35.629 19.824 
c 36.137 20.051 36.566 20.41 36.922 20.895 c 37.281 21.375 37.555 21.988
 37.75 22.73 c 37.941 23.477 38.039 24.359 38.039 25.379 c h
36.492 25.43 m 36.492 25.23 36.484 25.035 36.465 24.84 c 36.453 24.641 
36.441 24.449 36.422 24.262 c 31.562 27.875 l 31.648 28.18 31.762 28.461
 31.895 28.719 c 32.031 28.977 32.191 29.199 32.379 29.387 c 32.574 29.566
 32.789 29.711 33.031 29.816 c 33.277 29.914 33.555 29.965 33.863 29.965
 c 34.262 29.965 34.625 29.867 34.945 29.676 c 35.273 29.48 35.551 29.195
 35.781 28.812 c 36.008 28.434 36.184 27.961 36.309 27.398 c 36.43 26.832
 36.492 26.176 36.492 25.43 c h
31.238 25.324 m 31.238 25.508 31.238 25.688 31.238 25.871 c 31.242 26.051
 31.254 26.227 31.27 26.398 c 36.133 22.801 l 36.043 22.504 35.934 22.23
 35.797 21.984 c 35.664 21.738 35.504 21.527 35.312 21.352 c 35.125 21.172
 34.914 21.031 34.672 20.93 c 34.434 20.832 34.164 20.781 33.863 20.781 
c 33.465 20.781 33.102 20.879 32.773 21.07 c 32.453 21.266 32.176 21.555
 31.949 21.941 c 31.719 22.32 31.543 22.797 31.422 23.363 c 31.297 23.926
 31.238 24.582 31.238 25.324 c h
31.238 25.324 m f
47.938 25.379 m 47.938 26.258 47.848 27.059 47.672 27.785 c 47.496 28.508
 47.23 29.129 46.871 29.648 c 46.516 30.164 46.07 30.566 45.535 30.852 c
 45.008 31.133 44.387 31.273 43.672 31.273 c 43.059 31.273 42.496 31.16 
41.992 30.934 c 41.488 30.699 41.059 30.34 40.703 29.859 c 40.344 29.379
 40.07 28.766 39.875 28.023 c 39.684 27.277 39.586 26.398 39.586 25.379 
c 39.586 24.5 39.672 23.695 39.852 22.969 c 40.031 22.242 40.297 21.621 
40.648 21.105 c 41.008 20.586 41.453 20.184 41.984 19.902 c 42.52 19.613
 43.141 19.473 43.848 19.473 c 44.465 19.473 45.023 19.59 45.527 19.824 
c 46.031 20.051 46.461 20.41 46.82 20.895 c 47.176 21.375 47.453 21.988 
47.645 22.73 c 47.84 23.477 47.938 24.359 47.938 25.379 c h
46.387 25.43 m 46.387 25.23 46.379 25.035 46.363 24.84 c 46.352 24.641 
46.336 24.449 46.32 24.262 c 41.457 27.875 l 41.547 28.18 41.656 28.461 
41.793 28.719 c 41.926 28.977 42.09 29.199 42.277 29.387 c 42.469 29.566
 42.688 29.711 42.926 29.816 c 43.172 29.914 43.449 29.965 43.762 29.965
 c 44.16 29.965 44.52 29.867 44.844 29.676 c 45.172 29.48 45.449 29.195 
45.676 28.812 c 45.906 28.434 46.082 27.961 46.203 27.398 c 46.328 26.832
 46.391 26.176 46.391 25.43 c h
41.133 25.324 m 41.133 25.508 41.133 25.688 41.133 25.871 c 41.137 26.051
 41.148 26.227 41.168 26.398 c 46.027 22.801 l 45.941 22.504 45.828 22.23
 45.695 21.984 c 45.559 21.738 45.398 21.527 45.211 21.352 c 45.023 21.172
 44.809 21.031 44.57 20.93 c 44.328 20.832 44.059 20.781 43.762 20.781 c
 43.363 20.781 43 20.879 42.672 21.07 c 42.348 21.266 42.074 21.555 41.844
 21.941 c 41.617 22.32 41.441 22.797 41.316 23.363 c 41.195 23.926 41.133
 24.582 41.133 25.324 c h
41.133 25.324 m f
67.73 25.379 m 67.73 26.258 67.641 27.059 67.465 27.785 c 67.289 28.508
 67.023 29.129 66.664 29.648 c 66.309 30.164 65.863 30.566 65.328 30.852
 c 64.801 31.133 64.18 31.273 63.465 31.273 c 62.852 31.273 62.289 31.16
 61.785 30.934 c 61.281 30.699 60.852 30.34 60.496 29.859 c 60.137 29.379
 59.863 28.766 59.668 28.023 c 59.477 27.277 59.379 26.398 59.379 25.379
 c 59.379 24.5 59.465 23.695 59.645 22.969 c 59.824 22.242 60.09 21.621 
60.441 21.105 c 60.801 20.586 61.246 20.184 61.777 19.902 c 62.312 19.613
 62.934 19.473 63.641 19.473 c 64.258 19.473 64.816 19.59 65.32 19.824 c
 65.824 20.051 66.254 20.41 66.613 20.895 c 66.969 21.375 67.246 21.988 
67.438 22.73 c 67.633 23.477 67.73 24.359 67.73 25.379 c h
66.184 25.43 m 66.184 25.23 66.172 25.035 66.156 24.84 c 66.145 24.641 
66.129 24.449 66.113 24.262 c 61.25 27.875 l 61.34 28.18 61.449 28.461 61.586
 28.719 c 61.719 28.977 61.883 29.199 62.07 29.387 c 62.262 29.566 62.48
 29.711 62.719 29.816 c 62.965 29.914 63.242 29.965 63.555 29.965 c 63.953
 29.965 64.312 29.867 64.637 29.676 c 64.965 29.48 65.242 29.195 65.469 
28.812 c 65.699 28.434 65.875 27.961 65.996 27.398 c 66.121 26.832 66.184
 26.176 66.184 25.43 c h
60.926 25.324 m 60.926 25.508 60.926 25.688 60.926 25.871 c 60.93 26.051
 60.941 26.227 60.961 26.398 c 65.82 22.801 l 65.734 22.504 65.621 22.23
 65.488 21.984 c 65.352 21.738 65.191 21.527 65.004 21.352 c 64.816 21.172
 64.602 21.031 64.363 20.93 c 64.121 20.832 63.852 20.781 63.555 20.781 
c 63.156 20.781 62.793 20.879 62.465 21.07 c 62.141 21.266 61.867 21.555
 61.637 21.941 c 61.41 22.32 61.234 22.797 61.109 23.363 c 60.988 23.926
 60.926 24.582 60.926 25.324 c h
60.926 25.324 m f
77.625 25.379 m 77.625 26.258 77.535 27.059 77.359 27.785 c 77.184 28.508
 76.918 29.129 76.562 29.648 c 76.203 30.164 75.758 30.566 75.227 30.852
 c 74.699 31.133 74.078 31.273 73.363 31.273 c 72.746 31.273 72.188 31.16
 71.684 30.934 c 71.18 30.699 70.75 30.34 70.391 29.859 c 70.035 29.379 
69.758 28.766 69.566 28.023 c 69.371 27.277 69.273 26.398 69.273 25.379 
c 69.273 24.5 69.363 23.695 69.539 22.969 c 69.723 22.242 69.988 21.621 
70.34 21.105 c 70.695 20.586 71.141 20.184 71.676 19.902 c 72.207 19.613
 72.828 19.473 73.539 19.473 c 74.152 19.473 74.711 19.59 75.215 19.824 
c 75.719 20.051 76.152 20.41 76.508 20.895 c 76.867 21.375 77.141 21.988
 77.336 22.73 c 77.527 23.477 77.625 24.359 77.625 25.379 c h
76.078 25.43 m 76.078 25.23 76.07 25.035 76.051 24.84 c 76.039 24.641 76.027
 24.449 76.008 24.262 c 71.148 27.875 l 71.234 28.18 71.348 28.461 71.48
 28.719 c 71.617 28.977 71.777 29.199 71.965 29.387 c 72.16 29.566 72.375
 29.711 72.617 29.816 c 72.863 29.914 73.141 29.965 73.449 29.965 c 73.848
 29.965 74.211 29.867 74.531 29.676 c 74.859 29.48 75.137 29.195 75.367 
28.812 c 75.594 28.434 75.77 27.961 75.895 27.398 c 76.016 26.832 76.078
 26.176 76.078 25.43 c h
70.82 25.324 m 70.82 25.508 70.82 25.688 70.82 25.871 c 70.828 26.051 70.84
 26.227 70.855 26.398 c 75.719 22.801 l 75.629 22.504 75.52 22.23 75.383
 21.984 c 75.25 21.738 75.086 21.527 74.898 21.352 c 74.711 21.172 74.5 
21.031 74.258 20.93 c 74.02 20.832 73.75 20.781 73.449 20.781 c 73.051 20.781
 72.688 20.879 72.359 21.07 c 72.039 21.266 71.762 21.555 71.535 21.941 
c 71.305 22.32 71.129 22.797 71.008 23.363 c 70.883 23.926 70.82 24.582 
70.82 25.324 c h
70.82 25.324 m f
97.418 25.379 m 97.418 26.258 97.328 27.059 97.152 27.785 c 96.977 28.508
 96.711 29.129 96.355 29.648 c 95.996 30.164 95.551 30.566 95.02 30.852 
c 94.492 31.133 93.871 31.273 93.156 31.273 c 92.539 31.273 91.98 31.16 
91.477 30.934 c 90.973 30.699 90.543 30.34 90.184 29.859 c 89.828 29.379
 89.551 28.766 89.359 28.023 c 89.164 27.277 89.066 26.398 89.066 25.379
 c 89.066 24.5 89.156 23.695 89.332 22.969 c 89.516 22.242 89.781 21.621
 90.133 21.105 c 90.488 20.586 90.934 20.184 91.469 19.902 c 92 19.613 92.621
 19.473 93.332 19.473 c 93.945 19.473 94.508 19.59 95.012 19.824 c 95.516
 20.051 95.945 20.41 96.301 20.895 c 96.66 21.375 96.934 21.988 97.129 22.73
 c 97.32 23.477 97.418 24.359 97.418 25.379 c h
95.871 25.43 m 95.871 25.23 95.863 25.035 95.844 24.84 c 95.832 24.641 
95.82 24.449 95.801 24.262 c 90.941 27.875 l 91.027 28.18 91.141 28.461 
91.273 28.719 c 91.41 28.977 91.57 29.199 91.758 29.387 c 91.953 29.566 
92.168 29.711 92.41 29.816 c 92.656 29.914 92.934 29.965 93.242 29.965 c
 93.641 29.965 94.004 29.867 94.324 29.676 c 94.652 29.48 94.93 29.195 95.16
 28.812 c 95.387 28.434 95.562 27.961 95.688 27.398 c 95.809 26.832 95.871
 26.176 95.871 25.43 c h
90.617 25.324 m 90.617 25.508 90.617 25.688 90.617 25.871 c 90.621 26.051
 90.633 26.227 90.648 26.398 c 95.512 22.801 l 95.422 22.504 95.312 22.23
 95.176 21.984 c 95.043 21.738 94.883 21.527 94.691 21.352 c 94.504 21.172
 94.293 21.031 94.051 20.93 c 93.812 20.832 93.543 20.781 93.242 20.781 
c 92.844 20.781 92.48 20.879 92.152 21.07 c 91.832 21.266 91.555 21.555 
91.328 21.941 c 91.098 22.32 90.922 22.797 90.801 23.363 c 90.676 23.926
 90.617 24.582 90.617 25.324 c h
90.617 25.324 m f
107.312 25.379 m 107.312 26.258 107.227 27.059 107.051 27.785 c 106.875
 28.508 106.609 29.129 106.25 29.648 c 105.895 30.164 105.449 30.566 104.914
 30.852 c 104.387 31.133 103.766 31.273 103.051 31.273 c 102.438 31.273 
101.875 31.16 101.371 30.934 c 100.867 30.699 100.438 30.34 100.082 29.859
 c 99.723 29.379 99.449 28.766 99.254 28.023 c 99.062 27.277 98.965 26.398
 98.965 25.379 c 98.965 24.5 99.051 23.695 99.227 22.969 c 99.41 22.242 
99.676 21.621 100.027 21.105 c 100.387 20.586 100.832 20.184 101.363 19.902
 c 101.898 19.613 102.52 19.473 103.227 19.473 c 103.844 19.473 104.402 
19.59 104.906 19.824 c 105.41 20.051 105.84 20.41 106.199 20.895 c 106.555
 21.375 106.832 21.988 107.023 22.73 c 107.219 23.477 107.312 24.359 107.312
 25.379 c h
105.766 25.43 m 105.766 25.23 105.758 25.035 105.742 24.84 c 105.73 24.641
 105.715 24.449 105.699 24.262 c 100.836 27.875 l 100.926 28.18 101.035 
28.461 101.172 28.719 c 101.305 28.977 101.469 29.199 101.656 29.387 c 101.848
 29.566 102.066 29.711 102.305 29.816 c 102.551 29.914 102.828 29.965 103.141
 29.965 c 103.539 29.965 103.898 29.867 104.223 29.676 c 104.551 29.48 104.828
 29.195 105.055 28.812 c 105.285 28.434 105.461 27.961 105.582 27.398 c 
105.707 26.832 105.77 26.176 105.77 25.43 c h
100.512 25.324 m 100.512 25.508 100.512 25.688 100.512 25.871 c 100.516
 26.051 100.527 26.227 100.547 26.398 c 105.406 22.801 l 105.32 22.504 105.207
 22.23 105.074 21.984 c 104.938 21.738 104.777 21.527 104.59 21.352 c 104.402
 21.172 104.188 21.031 103.949 20.93 c 103.707 20.832 103.438 20.781 103.141
 20.781 c 102.742 20.781 102.379 20.879 102.051 21.07 c 101.727 21.266 101.453
 21.555 101.223 21.941 c 100.996 22.32 100.82 22.797 100.695 23.363 c 100.574
 23.926 100.512 24.582 100.512 25.324 c h
100.512 25.324 m f
8.348 40.684 m 8.348 41.562 8.262 42.367 8.086 43.094 c 7.91 43.812 7.645
 44.434 7.285 44.957 c 6.93 45.473 6.484 45.875 5.949 46.16 c 5.422 46.441
 4.801 46.582 4.086 46.582 c 3.473 46.582 2.91 46.469 2.406 46.238 c 1.902
 46.004 1.473 45.648 1.117 45.168 c 0.758 44.688 0.484 44.074 0.289 43.332
 c 0.098 42.586 0 41.703 0 40.684 c 0 39.805 0.086 39.004 0.262 38.277 c
 0.445 37.551 0.711 36.93 1.062 36.414 c 1.422 35.891 1.867 35.492 2.398
 35.211 c 2.934 34.922 3.555 34.777 4.262 34.777 c 4.879 34.777 5.438 34.895
 5.941 35.129 c 6.445 35.359 6.875 35.715 7.234 36.203 c 7.59 36.684 7.867
 37.297 8.059 38.039 c 8.254 38.785 8.348 39.664 8.348 40.684 c h
6.801 40.738 m 6.801 40.539 6.793 40.344 6.777 40.148 c 6.766 39.949 6.75
 39.758 6.734 39.57 c 1.871 43.18 l 1.961 43.484 2.07 43.766 2.207 44.023
 c 2.34 44.281 2.504 44.504 2.691 44.691 c 2.883 44.875 3.102 45.02 3.34
 45.125 c 3.586 45.223 3.863 45.273 4.176 45.273 c 4.574 45.273 4.934 45.176
 5.258 44.984 c 5.586 44.789 5.863 44.504 6.09 44.121 c 6.32 43.742 6.496
 43.27 6.617 42.707 c 6.742 42.137 6.805 41.48 6.805 40.738 c h
1.547 40.633 m 1.547 40.812 1.547 40.996 1.547 41.176 c 1.551 41.359 1.562
 41.535 1.582 41.703 c 6.441 38.109 l 6.355 37.812 6.242 37.539 6.109 37.293
 c 5.973 37.047 5.812 36.836 5.625 36.66 c 5.438 36.477 5.223 36.336 4.984
 36.238 c 4.742 36.137 4.473 36.09 4.176 36.09 c 3.777 36.09 3.414 36.184
 3.086 36.379 c 2.762 36.57 2.488 36.863 2.258 37.25 c 2.031 37.629 1.855
 38.105 1.73 38.672 c 1.609 39.234 1.547 39.887 1.547 40.633 c h
1.547 40.633 m f
17.887 46.426 m 10.668 46.426 l 10.668 45 l 13.621 45 l 13.621 36.617 l
 10.871 38.109 l 10.309 36.809 l 13.965 34.883 l 15.32 34.883 l 15.32 45
 l 17.887 45 l h
17.887 46.426 m f
38.039 40.684 m 38.039 41.562 37.949 42.367 37.773 43.094 c 37.598 43.812
 37.332 44.434 36.977 44.957 c 36.617 45.473 36.172 45.875 35.641 46.16 
c 35.113 46.441 34.492 46.582 33.777 46.582 c 33.16 46.582 32.602 46.469
 32.098 46.238 c 31.594 46.004 31.164 45.648 30.805 45.168 c 30.449 44.688
 30.172 44.074 29.98 43.332 c 29.785 42.586 29.688 41.703 29.688 40.684 
c 29.688 39.805 29.777 39.004 29.953 38.277 c 30.137 37.551 30.402 36.93
 30.754 36.414 c 31.109 35.891 31.555 35.492 32.09 35.211 c 32.621 34.922
 33.242 34.777 33.953 34.777 c 34.566 34.777 35.125 34.895 35.629 35.129
 c 36.137 35.359 36.566 35.715 36.922 36.203 c 37.281 36.684 37.555 37.297
 37.75 38.039 c 37.941 38.785 38.039 39.664 38.039 40.684 c h
36.492 40.738 m 36.492 40.539 36.484 40.344 36.465 40.148 c 36.453 39.949
 36.441 39.758 36.422 39.57 c 31.562 43.18 l 31.648 43.484 31.762 43.766
 31.895 44.023 c 32.031 44.281 32.191 44.504 32.379 44.691 c 32.574 44.875
 32.789 45.02 33.031 45.125 c 33.277 45.223 33.555 45.273 33.863 45.273 
c 34.262 45.273 34.625 45.176 34.945 44.984 c 35.273 44.789 35.551 44.504
 35.781 44.121 c 36.008 43.742 36.184 43.27 36.309 42.707 c 36.43 42.137
 36.492 41.48 36.492 40.738 c h
31.238 40.633 m 31.238 40.812 31.238 40.996 31.238 41.176 c 31.242 41.359
 31.254 41.535 31.27 41.703 c 36.133 38.109 l 36.043 37.812 35.934 37.539
 35.797 37.293 c 35.664 37.047 35.504 36.836 35.312 36.66 c 35.125 36.477
 34.914 36.336 34.672 36.238 c 34.434 36.137 34.164 36.09 33.863 36.09 c
 33.465 36.09 33.102 36.184 32.773 36.379 c 32.453 36.57 32.176 36.863 31.949
 37.25 c 31.719 37.629 31.543 38.105 31.422 38.672 c 31.297 39.234 31.238
 39.887 31.238 40.633 c h
31.238 40.633 m f
47.938 40.684 m 47.938 41.562 47.848 42.367 47.672 43.094 c 47.496 43.812
 47.23 44.434 46.871 44.957 c 46.516 45.473 46.07 45.875 45.535 46.16 c 
45.008 46.441 44.387 46.582 43.672 46.582 c 43.059 46.582 42.496 46.469 
41.992 46.238 c 41.488 46.004 41.059 45.648 40.703 45.168 c 40.344 44.688
 40.07 44.074 39.875 43.332 c 39.684 42.586 39.586 41.703 39.586 40.684 
c 39.586 39.805 39.672 39.004 39.852 38.277 c 40.031 37.551 40.297 36.93
 40.648 36.414 c 41.008 35.891 41.453 35.492 41.984 35.211 c 42.52 34.922
 43.141 34.777 43.848 34.777 c 44.465 34.777 45.023 34.895 45.527 35.129
 c 46.031 35.359 46.461 35.715 46.82 36.203 c 47.176 36.684 47.453 37.297
 47.645 38.039 c 47.84 38.785 47.938 39.664 47.938 40.684 c h
46.387 40.738 m 46.387 40.539 46.379 40.344 46.363 40.148 c 46.352 39.949
 46.336 39.758 46.32 39.57 c 41.457 43.18 l 41.547 43.484 41.656 43.766 
41.793 44.023 c 41.926 44.281 42.09 44.504 42.277 44.691 c 42.469 44.875
 42.688 45.02 42.926 45.125 c 43.172 45.223 43.449 45.273 43.762 45.273 
c 44.16 45.273 44.52 45.176 44.844 44.984 c 45.172 44.789 45.449 44.504 
45.676 44.121 c 45.906 43.742 46.082 43.27 46.203 42.707 c 46.328 42.137
 46.391 41.48 46.391 40.738 c h
41.133 40.633 m 41.133 40.812 41.133 40.996 41.133 41.176 c 41.137 41.359
 41.148 41.535 41.168 41.703 c 46.027 38.109 l 45.941 37.812 45.828 37.539
 45.695 37.293 c 45.559 37.047 45.398 36.836 45.211 36.66 c 45.023 36.477
 44.809 36.336 44.57 36.238 c 44.328 36.137 44.059 36.09 43.762 36.09 c 
43.363 36.09 43 36.184 42.672 36.379 c 42.348 36.57 42.074 36.863 41.844
 37.25 c 41.617 37.629 41.441 38.105 41.316 38.672 c 41.195 39.234 41.133
 39.887 41.133 40.633 c h
41.133 40.633 m f
67.73 40.684 m 67.73 41.562 67.641 42.367 67.465 43.094 c 67.289 43.812
 67.023 44.434 66.664 44.957 c 66.309 45.473 65.863 45.875 65.328 46.16 
c 64.801 46.441 64.18 46.582 63.465 46.582 c 62.852 46.582 62.289 46.469
 61.785 46.238 c 61.281 46.004 60.852 45.648 60.496 45.168 c 60.137 44.688
 59.863 44.074 59.668 43.332 c 59.477 42.586 59.379 41.703 59.379 40.684
 c 59.379 39.805 59.465 39.004 59.645 38.277 c 59.824 37.551 60.09 36.93
 60.441 36.414 c 60.801 35.891 61.246 35.492 61.777 35.211 c 62.312 34.922
 62.934 34.777 63.641 34.777 c 64.258 34.777 64.816 34.895 65.32 35.129 
c 65.824 35.359 66.254 35.715 66.613 36.203 c 66.969 36.684 67.246 37.297
 67.438 38.039 c 67.633 38.785 67.73 39.664 67.73 40.684 c h
66.184 40.738 m 66.184 40.539 66.172 40.344 66.156 40.148 c 66.145 39.949
 66.129 39.758 66.113 39.57 c 61.25 43.18 l 61.34 43.484 61.449 43.766 61.586
 44.023 c 61.719 44.281 61.883 44.504 62.07 44.691 c 62.262 44.875 62.48
 45.02 62.719 45.125 c 62.965 45.223 63.242 45.273 63.555 45.273 c 63.953
 45.273 64.312 45.176 64.637 44.984 c 64.965 44.789 65.242 44.504 65.469
 44.121 c 65.699 43.742 65.875 43.27 65.996 42.707 c 66.121 42.137 66.184
 41.48 66.184 40.738 c h
60.926 40.633 m 60.926 40.812 60.926 40.996 60.926 41.176 c 60.93 41.359
 60.941 41.535 60.961 41.703 c 65.82 38.109 l 65.734 37.812 65.621 37.539
 65.488 37.293 c 65.352 37.047 65.191 36.836 65.004 36.66 c 64.816 36.477
 64.602 36.336 64.363 36.238 c 64.121 36.137 63.852 36.09 63.555 36.09 c
 63.156 36.09 62.793 36.184 62.465 36.379 c 62.141 36.57 61.867 36.863 61.637
 37.25 c 61.41 37.629 61.234 38.105 61.109 38.672 c 60.988 39.234 60.926
 39.887 60.926 40.633 c h
60.926 40.633 m f
77.625 40.684 m 77.625 41.562 77.535 42.367 77.359 43.094 c 77.184 43.812
 76.918 44.434 76.562 44.957 c 76.203 45.473 75.758 45.875 75.227 46.16 
c 74.699 46.441 74.078 46.582 73.363 46.582 c 72.746 46.582 72.188 46.469
 71.684 46.238 c 71.18 46.004 70.75 45.648 70.391 45.168 c 70.035 44.688
 69.758 44.074 69.566 43.332 c 69.371 42.586 69.273 41.703 69.273 40.684
 c 69.273 39.805 69.363 39.004 69.539 38.277 c 69.723 37.551 69.988 36.93
 70.34 36.414 c 70.695 35.891 71.141 35.492 71.676 35.211 c 72.207 34.922
 72.828 34.777 73.539 34.777 c 74.152 34.777 74.711 34.895 75.215 35.129
 c 75.719 35.359 76.152 35.715 76.508 36.203 c 76.867 36.684 77.141 37.297
 77.336 38.039 c 77.527 38.785 77.625 39.664 77.625 40.684 c h
76.078 40.738 m 76.078 40.539 76.07 40.344 76.051 40.148 c 76.039 39.949
 76.027 39.758 76.008 39.57 c 71.148 43.18 l 71.234 43.484 71.348 43.766
 71.48 44.023 c 71.617 44.281 71.777 44.504 71.965 44.691 c 72.16 44.875
 72.375 45.02 72.617 45.125 c 72.863 45.223 73.141 45.273 73.449 45.273 
c 73.848 45.273 74.211 45.176 74.531 44.984 c 74.859 44.789 75.137 44.504
 75.367 44.121 c 75.594 43.742 75.77 43.27 75.895 42.707 c 76.016 42.137
 76.078 41.48 76.078 40.738 c h
70.82 40.633 m 70.82 40.812 70.82 40.996 70.82 41.176 c 70.828 41.359 70.84
 41.535 70.855 41.703 c 75.719 38.109 l 75.629 37.812 75.52 37.539 75.383
 37.293 c 75.25 37.047 75.086 36.836 74.898 36.66 c 74.711 36.477 74.5 36.336
 74.258 36.238 c 74.02 36.137 73.75 36.09 73.449 36.09 c 73.051 36.09 72.688
 36.184 72.359 36.379 c 72.039 36.57 71.762 36.863 71.535 37.25 c 71.305
 37.629 71.129 38.105 71.008 38.672 c 70.883 39.234 70.82 39.887 70.82 40.633
 c h
70.82 40.633 m f
97.418 40.684 m 97.418 41.562 97.328 42.367 97.152 43.094 c 96.977 43.812
 96.711 44.434 96.355 44.957 c 95.996 45.473 95.551 45.875 95.02 46.16 c
 94.492 46.441 93.871 46.582 93.156 46.582 c 92.539 46.582 91.98 46.469 
91.477 46.238 c 90.973 46.004 90.543 45.648 90.184 45.168 c 89.828 44.688
 89.551 44.074 89.359 43.332 c 89.164 42.586 89.066 41.703 89.066 40.684
 c 89.066 39.805 89.156 39.004 89.332 38.277 c 89.516 37.551 89.781 36.93
 90.133 36.414 c 90.488 35.891 90.934 35.492 91.469 35.211 c 92 34.922 92.621
 34.777 93.332 34.777 c 93.945 34.777 94.508 34.895 95.012 35.129 c 95.516
 35.359 95.945 35.715 96.301 36.203 c 96.66 36.684 96.934 37.297 97.129 
38.039 c 97.32 38.785 97.418 39.664 97.418 40.684 c h
95.871 40.738 m 95.871 40.539 95.863 40.344 95.844 40.148 c 95.832 39.949
 95.82 39.758 95.801 39.57 c 90.941 43.18 l 91.027 43.484 91.141 43.766 
91.273 44.023 c 91.41 44.281 91.57 44.504 91.758 44.691 c 91.953 44.875 
92.168 45.02 92.41 45.125 c 92.656 45.223 92.934 45.273 93.242 45.273 c 
93.641 45.273 94.004 45.176 94.324 44.984 c 94.652 44.789 94.93 44.504 95.16
 44.121 c 95.387 43.742 95.562 43.27 95.688 42.707 c 95.809 42.137 95.871
 41.48 95.871 40.738 c h
90.617 40.633 m 90.617 40.812 90.617 40.996 90.617 41.176 c 90.621 41.359
 90.633 41.535 90.648 41.703 c 95.512 38.109 l 95.422 37.812 95.312 37.539
 95.176 37.293 c 95.043 37.047 94.883 36.836 94.691 36.66 c 94.504 36.477
 94.293 36.336 94.051 36.238 c 93.812 36.137 93.543 36.09 93.242 36.09 c
 92.844 36.09 92.48 36.184 92.152 36.379 c 91.832 36.57 91.555 36.863 91.328
 37.25 c 91.098 37.629 90.922 38.105 90.801 38.672 c 90.676 39.234 90.617
 39.887 90.617 40.633 c h
90.617 40.633 m f
107.312 40.684 m 107.312 41.562 107.227 42.367 107.051 43.094 c 106.875
 43.812 106.609 44.434 106.25 44.957 c 105.895 45.473 105.449 45.875 104.914
 46.16 c 104.387 46.441 103.766 46.582 103.051 46.582 c 102.438 46.582 101.875
 46.469 101.371 46.238 c 100.867 46.004 100.438 45.648 100.082 45.168 c 
99.723 44.688 99.449 44.074 99.254 43.332 c 99.062 42.586 98.965 41.703 
98.965 40.684 c 98.965 39.805 99.051 39.004 99.227 38.277 c 99.41 37.551
 99.676 36.93 100.027 36.414 c 100.387 35.891 100.832 35.492 101.363 35.211
 c 101.898 34.922 102.52 34.777 103.227 34.777 c 103.844 34.777 104.402 
34.895 104.906 35.129 c 105.41 35.359 105.84 35.715 106.199 36.203 c 106.555
 36.684 106.832 37.297 107.023 38.039 c 107.219 38.785 107.312 39.664 107.312
 40.684 c h
105.766 40.738 m 105.766 40.539 105.758 40.344 105.742 40.148 c 105.73 
39.949 105.715 39.758 105.699 39.57 c 100.836 43.18 l 100.926 43.484 101.035
 43.766 101.172 44.023 c 101.305 44.281 101.469 44.504 101.656 44.691 c 
101.848 44.875 102.066 45.02 102.305 45.125 c 102.551 45.223 102.828 45.273
 103.141 45.273 c 103.539 45.273 103.898 45.176 104.223 44.984 c 104.551
 44.789 104.828 44.504 105.055 44.121 c 105.285 43.742 105.461 43.27 105.582
 42.707 c 105.707 42.137 105.77 41.48 105.77 40.738 c h
100.512 40.633 m 100.512 40.812 100.512 40.996 100.512 41.176 c 100.516
 41.359 100.527 41.535 100.547 41.703 c 105.406 38.109 l 105.32 37.812 105.207
 37.539 105.074 37.293 c 104.938 37.047 104.777 36.836 104.59 36.66 c 104.402
 36.477 104.188 36.336 103.949 36.238 c 103.707 36.137 103.438 36.09 103.141
 36.09 c 102.742 36.09 102.379 36.184 102.051 36.379 c 101.727 36.57 101.453
 36.863 101.223 37.25 c 100.996 37.629 100.82 38.105 100.695 38.672 c 100.574
 39.234 100.512 39.887 100.512 40.633 c h
100.512 40.633 m f
0.184 57.504 m 0.184 56.754 0.285 56.09 0.492 55.508 c 0.695 54.922 0.988
 54.43 1.363 54.031 c 1.742 53.629 2.195 53.324 2.723 53.117 c 3.258 52.906
 3.852 52.801 4.5 52.801 c 4.781 52.801 5.055 52.82 5.324 52.855 c 5.602
 52.891 5.871 52.945 6.137 53.02 c 6.137 49.312 l 7.672 49.312 l 7.672 61.73
 l 6.301 61.73 l 6.25 60.062 l 5.82 60.684 5.359 61.141 4.859 61.441 c 4.363
 61.738 3.824 61.891 3.242 61.891 c 2.738 61.891 2.293 61.785 1.906 61.574
 c 1.527 61.363 1.207 61.066 0.949 60.684 c 0.699 60.297 0.508 59.836 0.379
 59.297 c 0.25 58.758 0.184 58.16 0.184 57.504 c h
1.75 57.406 m 1.75 58.473 1.902 59.27 2.215 59.797 c 2.531 60.32 2.977 
60.578 3.551 60.578 c 3.938 60.578 4.344 60.406 4.773 60.062 c 5.207 59.715
 5.66 59.203 6.137 58.523 c 6.137 54.426 l 5.883 54.309 5.605 54.223 5.301
 54.164 c 4.996 54.098 4.695 54.066 4.395 54.066 c 3.562 54.066 2.91 54.336
 2.445 54.875 c 1.98 55.414 1.75 56.258 1.75 57.406 c h
1.75 57.406 m f
10.082 57.504 m 10.082 56.754 10.184 56.09 10.387 55.508 c 10.594 54.922
 10.883 54.43 11.258 54.031 c 11.641 53.629 12.094 53.324 12.621 53.117 
c 13.152 52.906 13.746 52.801 14.398 52.801 c 14.68 52.801 14.953 52.82 
15.223 52.855 c 15.496 52.891 15.766 52.945 16.031 53.02 c 16.031 49.312
 l 17.57 49.312 l 17.57 61.73 l 16.199 61.73 l 16.145 60.062 l 15.719 60.684
 15.254 61.141 14.758 61.441 c 14.258 61.738 13.719 61.891 13.141 61.891
 c 12.637 61.891 12.191 61.785 11.805 61.574 c 11.422 61.363 11.105 61.066
 10.848 60.684 c 10.594 60.297 10.402 59.836 10.273 59.297 c 10.145 58.758
 10.082 58.16 10.082 57.504 c h
11.645 57.406 m 11.645 58.473 11.801 59.27 12.109 59.797 c 12.426 60.32
 12.871 60.578 13.445 60.578 c 13.832 60.578 14.242 60.406 14.668 60.062
 c 15.102 59.715 15.555 59.203 16.031 58.523 c 16.031 54.426 l 15.777 54.309
 15.5 54.223 15.195 54.164 c 14.891 54.098 14.59 54.066 14.293 54.066 c 
13.457 54.066 12.809 54.336 12.34 54.875 c 11.875 55.414 11.645 56.258 11.645
 57.406 c h
11.645 57.406 m f
37.555 58.242 m 37.555 58.746 37.453 59.219 37.246 59.664 c 37.043 60.105
 36.734 60.492 36.324 60.824 c 35.914 61.152 35.398 61.414 34.777 61.609
 c 34.156 61.797 33.434 61.891 32.609 61.891 c 32.148 61.891 31.738 61.875
 31.379 61.844 c 31.016 61.816 30.676 61.777 30.359 61.73 c 30.359 60.359
 l 30.719 60.426 31.105 60.473 31.508 60.508 c 31.914 60.543 32.324 60.562
 32.746 60.562 c 33.324 60.562 33.812 60.512 34.215 60.414 c 34.625 60.309
 34.961 60.156 35.219 59.965 c 35.477 59.77 35.664 59.535 35.781 59.262 
c 35.898 58.984 35.957 58.676 35.957 58.328 c 35.957 58.012 35.887 57.738
 35.746 57.504 c 35.605 57.27 35.406 57.074 35.148 56.914 c 34.895 56.758
 34.59 56.641 34.234 56.562 c 33.883 56.48 33.496 56.441 33.074 56.441 c
 31.766 56.441 l 31.766 55.184 l 33.09 55.184 l 33.438 55.184 33.75 55.141
 34.031 55.051 c 34.32 54.957 34.562 54.824 34.762 54.656 c 34.965 54.484
 35.121 54.277 35.227 54.031 c 35.34 53.781 35.395 53.496 35.395 53.18 c
 35.395 52.562 35.207 52.117 34.832 51.836 c 34.457 51.555 33.906 51.414
 33.18 51.414 c 32.793 51.414 32.395 51.449 31.984 51.527 c 31.574 51.602
 31.133 51.719 30.664 51.871 c 30.664 50.535 l 30.863 50.465 31.074 50.402
 31.297 50.348 c 31.527 50.289 31.754 50.242 31.977 50.207 c 32.203 50.168
 32.43 50.137 32.652 50.121 c 32.875 50.098 33.09 50.086 33.293 50.086 c
 33.902 50.086 34.438 50.152 34.902 50.289 c 35.363 50.418 35.75 50.605 
36.062 50.852 c 36.371 51.098 36.605 51.395 36.766 51.746 c 36.922 52.098
 37.004 52.492 37.004 52.934 c 37.004 53.59 36.832 54.141 36.492 54.586 
c 36.16 55.031 35.699 55.387 35.113 55.648 c 35.41 55.695 35.703 55.789 
35.992 55.93 c 36.285 56.07 36.547 56.254 36.773 56.477 c 37.008 56.691 
37.195 56.949 37.336 57.25 c 37.484 57.547 37.555 57.879 37.555 58.242 c
 h
37.555 58.242 m f
47.672 61.73 m 40.105 61.73 l 40.105 60.359 l 43.074 57.406 l 43.562 56.926
 43.957 56.512 44.262 56.16 c 44.566 55.809 44.805 55.488 44.973 55.199 
c 45.145 54.906 45.258 54.633 45.316 54.375 c 45.375 54.117 45.406 53.84
 45.406 53.539 c 45.406 53.258 45.367 52.992 45.289 52.738 c 45.215 52.48
 45.098 52.258 44.938 52.062 c 44.781 51.871 44.574 51.719 44.324 51.605
 c 44.07 51.496 43.77 51.438 43.418 51.438 c 42.934 51.438 42.488 51.547
 42.09 51.766 c 41.691 51.98 41.328 52.262 40.992 52.609 c 40.148 51.598
 l 40.582 51.141 41.082 50.773 41.645 50.5 c 42.211 50.223 42.871 50.086
 43.621 50.086 c 44.129 50.086 44.594 50.16 45.008 50.312 c 45.43 50.465
 45.793 50.688 46.098 50.973 c 46.402 51.262 46.637 51.613 46.801 52.027
 c 46.973 52.445 47.059 52.914 47.059 53.434 c 47.059 53.875 47 54.281 46.883
 54.656 c 46.766 55.031 46.586 55.406 46.344 55.781 c 46.109 56.148 45.812
 56.535 45.449 56.934 c 45.09 57.332 44.668 57.766 44.176 58.242 c 42.09
 60.273 l 47.672 60.273 l h
47.672 61.73 m f
67.402 51.668 m 62.586 61.73 l 60.84 61.73 l 65.84 51.668 l 59.633 51.668
 l 59.633 50.242 l 67.402 50.242 l h
67.402 51.668 m f
75.578 61.73 m 75.543 60.543 l 75.062 61.02 74.574 61.363 74.074 61.574
 c 73.582 61.785 73.062 61.891 72.52 61.891 c 72.016 61.891 71.586 61.824
 71.227 61.695 c 70.871 61.566 70.574 61.391 70.34 61.168 c 70.109 60.941
 69.941 60.672 69.828 60.367 c 69.723 60.062 69.672 59.734 69.672 59.375
 c 69.672 58.492 70 57.801 70.656 57.301 c 71.316 56.797 72.293 56.547 73.582
 56.547 c 75.41 56.547 l 75.41 55.773 l 75.41 55.25 75.242 54.836 74.91 
54.523 c 74.574 54.207 74.066 54.051 73.379 54.051 c 72.883 54.051 72.391
 54.105 71.902 54.215 c 71.422 54.328 70.926 54.484 70.41 54.691 c 70.41
 53.312 l 70.602 53.242 70.816 53.172 71.051 53.109 c 71.293 53.039 71.543
 52.977 71.809 52.926 c 72.07 52.871 72.348 52.832 72.633 52.801 c 72.922
 52.766 73.211 52.75 73.504 52.75 c 74.035 52.75 74.516 52.809 74.945 52.926
 c 75.371 53.043 75.734 53.219 76.027 53.461 c 76.324 53.699 76.555 54.004
 76.711 54.367 c 76.871 54.73 76.949 55.156 76.949 55.648 c 76.949 61.73
 l h
75.41 57.715 m 73.469 57.715 l 73.086 57.715 72.758 57.754 72.484 57.828
 c 72.207 57.906 71.984 58.012 71.805 58.152 c 71.629 58.293 71.5 58.465
 71.41 58.664 c 71.328 58.855 71.289 59.078 71.289 59.324 c 71.289 59.492
 71.316 59.656 71.367 59.816 c 71.422 59.969 71.504 60.105 71.621 60.227
 c 71.738 60.344 71.891 60.438 72.078 60.508 c 72.266 60.578 72.496 60.613
 72.766 60.613 c 73.117 60.613 73.52 60.508 73.969 60.297 c 74.426 60.082
 74.906 59.742 75.41 59.277 c h
75.41 57.715 m f
97.418 55.992 m 97.418 56.871 97.328 57.672 97.152 58.398 c 96.977 59.121
 96.711 59.742 96.355 60.262 c 95.996 60.777 95.551 61.18 95.02 61.469 c
 94.492 61.75 93.871 61.891 93.156 61.891 c 92.539 61.891 91.98 61.773 91.477
 61.547 c 90.973 61.312 90.543 60.953 90.184 60.473 c 89.828 59.992 89.551
 59.383 89.359 58.637 c 89.164 57.895 89.066 57.012 89.066 55.992 c 89.066
 55.113 89.156 54.309 89.332 53.582 c 89.516 52.855 89.781 52.234 90.133
 51.719 c 90.488 51.199 90.934 50.797 91.469 50.516 c 92 50.23 92.621 50.086
 93.332 50.086 c 93.945 50.086 94.508 50.203 95.012 50.438 c 95.516 50.664
 95.945 51.023 96.301 51.508 c 96.66 51.988 96.934 52.602 97.129 53.348 
c 97.32 54.09 97.418 54.973 97.418 55.992 c h
95.871 56.043 m 95.871 55.844 95.863 55.648 95.844 55.457 c 95.832 55.258
 95.82 55.062 95.801 54.875 c 90.941 58.488 l 91.027 58.793 91.141 59.074
 91.273 59.332 c 91.41 59.59 91.57 59.812 91.758 60 c 91.953 60.18 92.168
 60.324 92.41 60.43 c 92.656 60.531 92.934 60.578 93.242 60.578 c 93.641
 60.578 94.004 60.484 94.324 60.289 c 94.652 60.098 94.93 59.809 95.16 59.43
 c 95.387 59.047 95.562 58.574 95.688 58.012 c 95.809 57.445 95.871 56.789
 95.871 56.043 c h
90.617 55.938 m 90.617 56.121 90.617 56.301 90.617 56.484 c 90.621 56.664
 90.633 56.84 90.648 57.012 c 95.512 53.418 l 95.422 53.117 95.312 52.844
 95.176 52.598 c 95.043 52.352 94.883 52.141 94.691 51.965 c 94.504 51.785
 94.293 51.645 94.051 51.543 c 93.812 51.445 93.543 51.395 93.242 51.395
 c 92.844 51.395 92.48 51.492 92.152 51.684 c 91.832 51.879 91.555 52.168
 91.328 52.555 c 91.098 52.938 90.922 53.41 90.801 53.98 c 90.676 54.543
 90.617 55.195 90.617 55.938 c h
90.617 55.938 m f
107.312 55.992 m 107.312 56.871 107.227 57.672 107.051 58.398 c 106.875
 59.121 106.609 59.742 106.25 60.262 c 105.895 60.777 105.449 61.18 104.914
 61.469 c 104.387 61.75 103.766 61.891 103.051 61.891 c 102.438 61.891 101.875
 61.773 101.371 61.547 c 100.867 61.312 100.438 60.953 100.082 60.473 c 
99.723 59.992 99.449 59.383 99.254 58.637 c 99.062 57.895 98.965 57.012 
98.965 55.992 c 98.965 55.113 99.051 54.309 99.227 53.582 c 99.41 52.855
 99.676 52.234 100.027 51.719 c 100.387 51.199 100.832 50.797 101.363 50.516
 c 101.898 50.23 102.52 50.086 103.227 50.086 c 103.844 50.086 104.402 50.203
 104.906 50.438 c 105.41 50.664 105.84 51.023 106.199 51.508 c 106.555 51.988
 106.832 52.602 107.023 53.348 c 107.219 54.09 107.312 54.973 107.312 55.992
 c h
105.766 56.043 m 105.766 55.844 105.758 55.648 105.742 55.457 c 105.73 
55.258 105.715 55.062 105.699 54.875 c 100.836 58.488 l 100.926 58.793 101.035
 59.074 101.172 59.332 c 101.305 59.59 101.469 59.812 101.656 60 c 101.848
 60.18 102.066 60.324 102.305 60.43 c 102.551 60.531 102.828 60.578 103.141
 60.578 c 103.539 60.578 103.898 60.484 104.223 60.289 c 104.551 60.098 
104.828 59.809 105.055 59.43 c 105.285 59.047 105.461 58.574 105.582 58.012
 c 105.707 57.445 105.77 56.789 105.77 56.043 c h
100.512 55.938 m 100.512 56.121 100.512 56.301 100.512 56.484 c 100.516
 56.664 100.527 56.84 100.547 57.012 c 105.406 53.418 l 105.32 53.117 105.207
 52.844 105.074 52.598 c 104.938 52.352 104.777 52.141 104.59 51.965 c 104.402
 51.785 104.188 51.645 103.949 51.543 c 103.707 51.445 103.438 51.395 103.141
 51.395 c 102.742 51.395 102.379 51.492 102.051 51.684 c 101.727 51.879 
101.453 52.168 101.223 52.555 c 100.996 52.938 100.82 53.41 100.695 53.98
 c 100.574 54.543 100.512 55.195 100.512 55.938 c h
100.512 55.938 m f
8.348 71.301 m 8.348 72.18 8.262 72.98 8.086 73.707 c 7.91 74.43 7.645 
75.051 7.285 75.57 c 6.93 76.086 6.484 76.488 5.949 76.773 c 5.422 77.055
 4.801 77.195 4.086 77.195 c 3.473 77.195 2.91 77.082 2.406 76.855 c 1.902
 76.621 1.473 76.262 1.117 75.781 c 0.758 75.301 0.484 74.688 0.289 73.945
 c 0.098 73.199 0 72.32 0 71.301 c 0 70.422 0.086 69.617 0.262 68.891 c 
0.445 68.164 0.711 67.543 1.062 67.027 c 1.422 66.508 1.867 66.105 2.398
 65.824 c 2.934 65.535 3.555 65.395 4.262 65.395 c 4.879 65.395 5.438 65.512
 5.941 65.746 c 6.445 65.973 6.875 66.332 7.234 66.816 c 7.59 67.297 7.867
 67.91 8.059 68.652 c 8.254 69.398 8.348 70.281 8.348 71.301 c h
6.801 71.352 m 6.801 71.152 6.793 70.957 6.777 70.762 c 6.766 70.562 6.75
 70.371 6.734 70.184 c 1.871 73.793 l 1.961 74.098 2.07 74.379 2.207 74.637
 c 2.34 74.895 2.504 75.117 2.691 75.305 c 2.883 75.488 3.102 75.633 3.34
 75.738 c 3.586 75.836 3.863 75.887 4.176 75.887 c 4.574 75.887 4.934 75.789
 5.258 75.598 c 5.586 75.402 5.863 75.117 6.09 74.734 c 6.32 74.355 6.496
 73.883 6.617 73.32 c 6.742 72.75 6.805 72.094 6.805 71.352 c h
1.547 71.246 m 1.547 71.426 1.547 71.609 1.547 71.789 c 1.551 71.973 1.562
 72.148 1.582 72.316 c 6.441 68.723 l 6.355 68.426 6.242 68.152 6.109 67.906
 c 5.973 67.66 5.812 67.449 5.625 67.273 c 5.438 67.09 5.223 66.949 4.984
 66.852 c 4.742 66.75 4.473 66.703 4.176 66.703 c 3.777 66.703 3.414 66.797
 3.086 66.992 c 2.762 67.184 2.488 67.477 2.258 67.863 c 2.031 68.242 1.855
 68.719 1.73 69.285 c 1.609 69.848 1.547 70.5 1.547 71.246 c h
1.547 71.246 m f
17.984 77.039 m 10.414 77.039 l 10.414 75.668 l 13.387 72.715 l 13.871 
72.234 14.266 71.816 14.57 71.465 c 14.875 71.113 15.113 70.797 15.285 70.508
 c 15.453 70.215 15.57 69.941 15.629 69.684 c 15.688 69.426 15.715 69.145
 15.715 68.848 c 15.715 68.566 15.676 68.301 15.602 68.047 c 15.523 67.789
 15.406 67.562 15.25 67.371 c 15.09 67.176 14.887 67.023 14.633 66.914 c
 14.383 66.801 14.082 66.746 13.73 66.746 c 13.242 66.746 12.801 66.855 
12.402 67.07 c 12.004 67.289 11.637 67.57 11.305 67.914 c 10.461 66.906 
l 10.895 66.449 11.391 66.082 11.953 65.805 c 12.523 65.531 13.18 65.395
 13.93 65.395 c 14.441 65.395 14.902 65.469 15.32 65.621 c 15.742 65.773
 16.105 65.992 16.41 66.281 c 16.715 66.566 16.949 66.918 17.113 67.336 
c 17.281 67.75 17.367 68.219 17.367 68.742 c 17.367 69.18 17.309 69.586 
17.191 69.961 c 17.074 70.336 16.895 70.711 16.656 71.086 c 16.422 71.457
 16.121 71.84 15.758 72.238 c 15.402 72.637 14.977 73.074 14.484 73.547 
c 12.402 75.578 l 17.984 75.578 l h
17.984 77.039 m f
37.484 73.363 m 37.484 73.934 37.363 74.453 37.117 74.922 c 36.871 75.391
 36.531 75.793 36.098 76.133 c 35.668 76.469 35.164 76.727 34.574 76.914
 c 33.992 77.102 33.359 77.195 32.68 77.195 c 32.508 77.195 32.324 77.191
 32.125 77.18 c 31.93 77.172 31.738 77.16 31.543 77.145 c 31.352 77.133 
31.16 77.117 30.973 77.102 c 30.789 77.082 30.625 77.062 30.48 77.039 c 
30.48 75.648 l 30.797 75.727 31.156 75.781 31.562 75.816 c 31.973 75.852
 32.387 75.871 32.801 75.871 c 33.27 75.871 33.691 75.812 34.066 75.703 
c 34.441 75.59 34.762 75.434 35.023 75.227 c 35.289 75.016 35.488 74.766
 35.629 74.473 c 35.773 74.172 35.844 73.84 35.844 73.469 c 35.844 72.754
 35.586 72.238 35.07 71.914 c 34.559 71.586 33.824 71.422 32.863 71.422 
c 30.684 71.422 l 30.684 65.551 l 36.871 65.551 l 36.871 66.887 l 32.125
 66.887 l 32.125 70.113 l 33.125 70.113 l 33.676 70.113 34.215 70.164 34.734
 70.262 c 35.258 70.363 35.719 70.539 36.125 70.789 c 36.535 71.035 36.863
 71.371 37.109 71.793 c 37.359 72.207 37.484 72.73 37.484 73.363 c h
37.484 73.363 m f
47.672 74.156 m 47.672 74.641 47.57 75.074 47.371 75.457 c 47.172 75.832
 46.895 76.148 46.539 76.406 c 46.18 76.664 45.758 76.859 45.273 76.996 
c 44.785 77.129 44.258 77.195 43.691 77.195 c 43.062 77.195 42.512 77.125
 42.031 76.984 c 41.555 76.844 41.156 76.648 40.832 76.398 c 40.512 76.145
 40.27 75.848 40.105 75.5 c 39.941 75.156 39.859 74.773 39.859 74.355 c 
39.859 73.656 40.055 73.047 40.445 72.539 c 40.84 72.027 41.445 71.566 42.266
 71.148 c 41.516 70.77 40.969 70.348 40.621 69.883 c 40.277 69.414 40.105
 68.879 40.105 68.277 c 40.105 67.906 40.18 67.551 40.332 67.203 c 40.484
 66.859 40.715 66.551 41.02 66.281 c 41.328 66.012 41.715 65.797 42.18 65.641
 c 42.641 65.473 43.188 65.391 43.812 65.391 c 44.406 65.391 44.926 65.457
 45.371 65.586 c 45.82 65.707 46.199 65.887 46.504 66.121 c 46.809 66.355
 47.035 66.641 47.188 66.973 c 47.34 67.309 47.418 67.68 47.418 68.09 c 
47.418 68.758 47.23 69.328 46.855 69.797 c 46.484 70.266 45.957 70.676 45.273
 71.027 c 45.613 71.195 45.93 71.383 46.223 71.59 c 46.516 71.793 46.77 
72.023 46.988 72.273 c 47.203 72.527 47.371 72.809 47.488 73.117 c 47.609
 73.43 47.672 73.773 47.672 74.156 c h
45.852 68.215 m 45.852 67.691 45.668 67.305 45.301 67.055 c 44.934 66.797
 44.422 66.668 43.762 66.668 c 43.105 66.668 42.594 66.793 42.223 67.047
 c 41.859 67.297 41.676 67.676 41.676 68.18 c 41.676 68.406 41.723 68.617
 41.809 68.812 c 41.898 69.004 42.031 69.188 42.215 69.355 c 42.402 69.527
 42.633 69.695 42.91 69.855 c 43.184 70.023 43.512 70.188 43.895 70.359 
c 44.555 70.047 45.047 69.727 45.371 69.391 c 45.691 69.051 45.852 68.66
 45.852 68.215 c h
46.012 74.27 m 46.012 74.055 45.977 73.844 45.906 73.637 c 45.836 73.434
 45.707 73.23 45.527 73.031 c 45.344 72.832 45.102 72.633 44.797 72.434 
c 44.492 72.234 44.105 72.027 43.637 71.816 c 43.238 72.012 42.902 72.203
 42.625 72.398 c 42.355 72.586 42.137 72.777 41.969 72.977 c 41.805 73.172
 41.688 73.375 41.617 73.586 c 41.547 73.797 41.512 74.02 41.512 74.25 c
 41.512 74.516 41.566 74.75 41.676 74.957 c 41.793 75.156 41.953 75.324 
42.152 75.465 c 42.352 75.605 42.59 75.711 42.863 75.781 c 43.141 75.852
 43.438 75.887 43.762 75.887 c 44.07 75.887 44.363 75.855 44.641 75.789 
c 44.914 75.727 45.152 75.629 45.352 75.5 c 45.555 75.367 45.719 75.199 
45.836 75 c 45.953 74.793 46.012 74.551 46.012 74.27 c h
46.012 74.27 m f
67.465 77.039 m 59.898 77.039 l 59.898 75.668 l 62.867 72.715 l 63.355 
72.234 63.75 71.816 64.055 71.465 c 64.359 71.113 64.598 70.797 64.766 70.508
 c 64.938 70.215 65.051 69.941 65.109 69.684 c 65.168 69.426 65.199 69.145
 65.199 68.848 c 65.199 68.566 65.16 68.301 65.082 68.047 c 65.008 67.789
 64.891 67.562 64.73 67.371 c 64.574 67.176 64.367 67.023 64.117 66.914 
c 63.863 66.801 63.562 66.746 63.211 66.746 c 62.727 66.746 62.281 66.855
 61.883 67.07 c 61.484 67.289 61.121 67.57 60.785 67.914 c 59.941 66.906
 l 60.375 66.449 60.875 66.082 61.438 65.805 c 62.004 65.531 62.664 65.395
 63.414 65.395 c 63.922 65.395 64.387 65.469 64.801 65.621 c 65.223 65.773
 65.586 65.992 65.891 66.281 c 66.195 66.566 66.43 66.918 66.594 67.336 
c 66.766 67.75 66.852 68.219 66.852 68.742 c 66.852 69.18 66.793 69.586 
66.676 69.961 c 66.559 70.336 66.379 70.711 66.137 71.086 c 65.902 71.457
 65.605 71.84 65.242 72.238 c 64.883 72.637 64.461 73.074 63.969 73.547 
c 61.883 75.578 l 67.465 75.578 l h
67.465 77.039 m f
77.359 77.039 m 69.793 77.039 l 69.793 75.668 l 72.766 72.715 l 73.25 72.234
 73.645 71.816 73.949 71.465 c 74.254 71.113 74.492 70.797 74.664 70.508
 c 74.832 70.215 74.949 69.941 75.004 69.684 c 75.066 69.426 75.094 69.145
 75.094 68.848 c 75.094 68.566 75.055 68.301 74.98 68.047 c 74.902 67.789
 74.785 67.562 74.629 67.371 c 74.469 67.176 74.266 67.023 74.012 66.914
 c 73.762 66.801 73.461 66.746 73.109 66.746 c 72.621 66.746 72.18 66.855
 71.781 67.07 c 71.383 67.289 71.016 67.57 70.684 67.914 c 69.84 66.906 
l 70.273 66.449 70.77 66.082 71.332 65.805 c 71.902 65.531 72.559 65.395
 73.309 65.395 c 73.82 65.395 74.281 65.469 74.699 65.621 c 75.121 65.773
 75.484 65.992 75.789 66.281 c 76.094 66.566 76.328 66.918 76.492 67.336
 c 76.66 67.75 76.746 68.219 76.746 68.742 c 76.746 69.18 76.688 69.586 
76.57 69.961 c 76.453 70.336 76.273 70.711 76.035 71.086 c 75.801 71.457
 75.5 71.84 75.137 72.238 c 74.781 72.637 74.355 73.074 73.863 73.547 c 
71.781 75.578 l 77.363 75.578 l h
77.359 77.039 m f
97.094 70.648 m 97.094 71.77 96.957 72.73 96.688 73.539 c 96.418 74.344
 96.02 75.004 95.492 75.527 c 94.965 76.043 94.312 76.422 93.535 76.668 
c 92.754 76.914 91.855 77.039 90.836 77.039 c 89.879 77.039 l 89.879 75.703
 l 90.941 75.703 l 91.695 75.703 92.352 75.625 92.902 75.473 c 93.453 75.32
 93.91 75.098 94.273 74.805 c 94.641 74.508 94.922 74.145 95.117 73.723 
c 95.309 73.297 95.43 72.809 95.477 72.266 c 95.512 71.906 l 95.141 72.121
 94.715 72.297 94.234 72.434 c 93.754 72.562 93.234 72.625 92.672 72.625
 c 92.09 72.625 91.582 72.539 91.141 72.371 c 90.703 72.199 90.336 71.965
 90.043 71.66 c 89.758 71.355 89.539 70.992 89.395 70.578 c 89.246 70.156
 89.176 69.699 89.176 69.207 c 89.176 68.672 89.27 68.176 89.465 67.711 
c 89.656 67.25 89.926 66.848 90.273 66.508 c 90.625 66.164 91.043 65.891
 91.531 65.691 c 92.016 65.492 92.551 65.391 93.137 65.391 c 93.707 65.391
 94.23 65.484 94.711 65.672 c 95.199 65.859 95.617 66.164 95.969 66.586 
c 96.32 67.004 96.594 67.547 96.793 68.215 c 96.992 68.883 97.094 69.691
 97.094 70.648 c h
93.066 66.648 m 92.738 66.648 92.434 66.707 92.152 66.816 c 91.879 66.922
 91.637 67.078 91.434 67.289 c 91.234 67.496 91.074 67.75 90.957 68.055 
c 90.84 68.359 90.781 68.707 90.781 69.102 c 90.781 69.457 90.824 69.777
 90.906 70.059 c 90.992 70.34 91.125 70.582 91.301 70.781 c 91.484 70.973
 91.715 71.121 91.996 71.227 c 92.277 71.332 92.609 71.387 92.996 71.387
 c 93.215 71.387 93.438 71.367 93.664 71.324 c 93.898 71.285 94.125 71.23
 94.344 71.16 c 94.566 71.09 94.777 71.008 94.977 70.914 c 95.176 70.82 
95.352 70.719 95.512 70.613 c 95.512 69.859 95.457 69.227 95.344 68.723 
c 95.234 68.215 95.07 67.809 94.859 67.5 c 94.648 67.191 94.391 66.973 94.086
 66.844 c 93.789 66.715 93.449 66.648 93.066 66.648 c h
93.066 66.648 m f
106.832 73.551 m 106.832 74.055 106.727 74.527 106.523 74.973 c 106.316
 75.41 106.012 75.801 105.602 76.133 c 105.191 76.461 104.676 76.723 104.055
 76.914 c 103.434 77.102 102.711 77.195 101.883 77.195 c 101.426 77.195 
101.016 77.184 100.652 77.152 c 100.289 77.125 99.949 77.086 99.633 77.039
 c 99.633 75.668 l 99.996 75.73 100.379 75.781 100.785 75.816 c 101.188 
75.852 101.602 75.867 102.023 75.867 c 102.598 75.867 103.086 75.82 103.492
 75.719 c 103.902 75.613 104.234 75.465 104.492 75.27 c 104.75 75.078 104.938
 74.844 105.055 74.566 c 105.172 74.293 105.23 73.98 105.23 73.637 c 105.23
 73.32 105.16 73.043 105.02 72.809 c 104.879 72.574 104.68 72.379 104.422
 72.223 c 104.172 72.062 103.867 71.945 103.508 71.871 c 103.156 71.789 
102.77 71.746 102.348 71.746 c 101.039 71.746 l 101.039 70.488 l 102.367
 70.488 l 102.711 70.488 103.027 70.445 103.309 70.359 c 103.594 70.266 
103.836 70.133 104.035 69.961 c 104.242 69.793 104.398 69.586 104.504 69.34
 c 104.613 69.086 104.668 68.801 104.668 68.484 c 104.668 67.871 104.48 
67.422 104.105 67.141 c 103.73 66.859 103.18 66.719 102.453 66.719 c 102.066
 66.719 101.668 66.758 101.258 66.832 c 100.848 66.91 100.41 67.023 99.941
 67.176 c 99.941 65.84 l 100.141 65.77 100.352 65.707 100.574 65.656 c 100.801
 65.598 101.027 65.551 101.25 65.516 c 101.48 65.477 101.703 65.445 101.926
 65.426 c 102.148 65.402 102.363 65.391 102.57 65.391 c 103.18 65.391 103.715
 65.461 104.176 65.594 c 104.641 65.723 105.027 65.91 105.336 66.156 c 105.648
 66.402 105.883 66.703 106.039 67.055 c 106.199 67.406 106.277 67.801 106.277
 68.238 c 106.277 68.895 106.109 69.445 105.77 69.891 c 105.434 70.336 104.973
 70.691 104.387 70.957 c 104.688 71.004 104.98 71.098 105.266 71.238 c 105.559
 71.379 105.82 71.559 106.051 71.781 c 106.285 72 106.473 72.258 106.613
 72.555 c 106.758 72.855 106.832 73.184 106.832 73.547 c h
106.832 73.551 m f
226.629 35.434 m 226.828 35.434 227.016 35.477 227.191 35.559 c 227.371
 35.633 227.527 35.738 227.656 35.875 c 227.793 36.004 227.898 36.156 227.973
 36.34 c 228.051 36.52 228.086 36.711 228.086 36.91 c 228.086 37.109 228.051
 37.297 227.973 37.473 c 227.898 37.648 227.793 37.805 227.656 37.938 c 
227.527 38.066 227.371 38.172 227.191 38.254 c 227.016 38.332 226.828 38.371
 226.629 38.371 c 226.422 38.371 226.234 38.332 226.059 38.254 c 225.883
 38.172 225.727 38.066 225.59 37.938 c 225.461 37.805 225.359 37.648 225.285
 37.473 c 225.207 37.297 225.168 37.109 225.168 36.91 c 225.168 36.711 225.207
 36.52 225.285 36.34 c 225.359 36.156 225.461 36.004 225.59 35.875 c 225.727
 35.738 225.883 35.633 226.059 35.559 c 226.234 35.477 226.422 35.434 226.629
 35.434 c h
226.629 35.434 m f
236.523 35.434 m 236.723 35.434 236.91 35.477 237.086 35.559 c 237.27 35.633
 237.426 35.738 237.555 35.875 c 237.688 36.004 237.793 36.156 237.871 36.34
 c 237.945 36.52 237.984 36.711 237.984 36.91 c 237.984 37.109 237.945 37.297
 237.871 37.473 c 237.793 37.648 237.688 37.805 237.555 37.938 c 237.426
 38.066 237.27 38.172 237.086 38.254 c 236.91 38.332 236.723 38.371 236.523
 38.371 c 236.32 38.371 236.129 38.332 235.953 38.254 c 235.777 38.172 235.621
 38.066 235.488 37.938 c 235.359 37.805 235.258 37.648 235.18 37.473 c 235.105
 37.297 235.066 37.109 235.066 36.91 c 235.066 36.711 235.105 36.52 235.18
 36.34 c 235.258 36.156 235.359 36.004 235.488 35.875 c 235.621 35.738 235.777
 35.633 235.953 35.559 c 236.129 35.477 236.32 35.434 236.523 35.434 c h
236.523 35.434 m f
246.422 35.434 m 246.621 35.434 246.809 35.477 246.984 35.559 c 247.164
 35.633 247.32 35.738 247.449 35.875 c 247.586 36.004 247.691 36.156 247.766
 36.34 c 247.844 36.52 247.879 36.711 247.879 36.91 c 247.879 37.109 247.844
 37.297 247.766 37.473 c 247.691 37.648 247.586 37.805 247.449 37.938 c 
247.32 38.066 247.164 38.172 246.984 38.254 c 246.809 38.332 246.621 38.371
 246.422 38.371 c 246.215 38.371 246.027 38.332 245.852 38.254 c 245.676
 38.172 245.52 38.066 245.383 37.938 c 245.254 37.805 245.152 37.648 245.078
 37.473 c 245 37.297 244.961 37.109 244.961 36.91 c 244.961 36.711 245 36.52
 245.078 36.34 c 245.152 36.156 245.254 36.004 245.383 35.875 c 245.52 35.738
 245.676 35.633 245.852 35.559 c 246.027 35.477 246.215 35.434 246.422 35.434
 c h
246.422 35.434 m f
0 0.25098 1 rg
230.18 60.059 m 224.148 74.367 l 222.691 74.367 l 228.719 60.059 l h
230.18 60.059 m f
240.812 61.48 m 240.012 61.312 239.32 61.227 238.738 61.227 c 237.363 61.227
 236.676 61.945 236.676 63.387 c 236.676 64.934 l 240.543 64.934 l 240.543
 66.211 l 236.676 66.211 l 236.676 72.477 l 235.117 72.477 l 235.117 66.211
 l 232.281 66.211 l 232.281 64.934 l 235.117 64.934 l 235.117 63.477 l 235.117
 61.125 236.344 59.953 238.793 59.953 c 239.402 59.953 240.074 60.023 240.812
 60.164 c h
240.812 61.48 m f
250.562 67.992 m 250.562 68.68 250.465 69.309 250.27 69.883 c 250.078 70.453
 249.801 70.941 249.438 71.352 c 249.074 71.754 248.629 72.07 248.109 72.301
 c 247.586 72.523 246.996 72.633 246.332 72.633 c 245.699 72.633 245.133
 72.539 244.629 72.344 c 244.129 72.145 243.707 71.855 243.355 71.473 c 
243.008 71.094 242.742 70.621 242.555 70.059 c 242.371 69.496 242.281 68.848
 242.281 68.117 c 242.281 67.43 242.379 66.809 242.57 66.246 c 242.766 65.676
 243.043 65.191 243.406 64.785 c 243.77 64.375 244.211 64.059 244.734 63.836
 c 245.254 63.609 245.848 63.492 246.508 63.492 c 247.141 63.492 247.707
 63.594 248.207 63.793 c 248.711 63.984 249.133 64.273 249.48 64.652 c 249.832
 65.027 250.098 65.496 250.281 66.059 c 250.469 66.621 250.562 67.266 250.562
 67.992 c h
248.996 68.062 m 248.996 67.52 248.934 67.043 248.812 66.641 c 248.695 
66.23 248.523 65.891 248.301 65.621 c 248.078 65.344 247.809 65.141 247.484
 65.004 c 247.168 64.863 246.812 64.793 246.422 64.793 c 245.965 64.793 
245.57 64.887 245.242 65.066 c 244.922 65.242 244.656 65.48 244.445 65.777
 c 244.238 66.078 244.086 66.426 243.988 66.824 c 243.895 67.219 243.848
 67.629 243.848 68.062 c 243.848 68.609 243.906 69.086 244.023 69.496 c 
244.145 69.906 244.316 70.25 244.539 70.523 c 244.762 70.793 245.031 71 
245.348 71.141 c 245.664 71.273 246.023 71.344 246.422 71.344 c 246.879 
71.344 247.27 71.254 247.59 71.078 c 247.918 70.898 248.184 70.656 248.391
 70.359 c 248.602 70.059 248.754 69.715 248.848 69.32 c 248.945 68.922 248.996
 68.504 248.996 68.062 c h
248.996 68.062 m f
260.457 67.992 m 260.457 68.68 260.359 69.309 260.168 69.883 c 259.973 
70.453 259.695 70.941 259.332 71.352 c 258.969 71.754 258.527 72.07 258.004
 72.301 c 257.484 72.523 256.891 72.633 256.23 72.633 c 255.598 72.633 255.027
 72.539 254.523 72.344 c 254.027 72.145 253.602 71.855 253.25 71.473 c 252.906
 71.094 252.637 70.621 252.449 70.059 c 252.27 69.496 252.18 68.848 252.18
 68.117 c 252.18 67.43 252.273 66.809 252.469 66.246 c 252.66 65.676 252.941
 65.191 253.305 64.785 c 253.668 64.375 254.109 64.059 254.629 63.836 c 
255.152 63.609 255.742 63.492 256.406 63.492 c 257.039 63.492 257.605 63.594
 258.102 63.793 c 258.605 63.984 259.031 64.273 259.375 64.652 c 259.727
 65.027 259.996 65.496 260.176 66.059 c 260.363 66.621 260.457 67.266 260.457
 67.992 c h
258.895 68.062 m 258.895 67.52 258.832 67.043 258.707 66.641 c 258.59 66.23
 258.422 65.891 258.199 65.621 c 257.977 65.344 257.703 65.141 257.383 65.004
 c 257.066 64.863 256.711 64.793 256.316 64.793 c 255.859 64.793 255.469
 64.887 255.141 65.066 c 254.816 65.242 254.551 65.48 254.34 65.777 c 254.137
 66.078 253.984 66.426 253.883 66.824 c 253.789 67.219 253.742 67.629 253.742
 68.062 c 253.742 68.609 253.801 69.086 253.918 69.496 c 254.043 69.906 
254.215 70.25 254.438 70.523 c 254.66 70.793 254.93 71 255.246 71.141 c 
255.562 71.273 255.918 71.344 256.316 71.344 c 256.773 71.344 257.164 71.254
 257.488 71.078 c 257.816 70.898 258.082 70.656 258.285 70.359 c 258.496
 70.059 258.648 69.715 258.742 69.32 c 258.844 68.922 258.895 68.504 258.895
 68.062 c h
258.895 68.062 m f
0.501961 0 0.501961 rg
230.18 90.656 m 224.148 104.965 l 222.691 104.965 l 228.719 90.656 l h
230.18 90.656 m f
240.812 92.082 m 240.012 91.91 239.32 91.824 238.738 91.824 c 237.363 91.824
 236.676 92.547 236.676 93.988 c 236.676 95.535 l 240.543 95.535 l 240.543
 96.809 l 236.676 96.809 l 236.676 103.074 l 235.117 103.074 l 235.117 96.809
 l 232.281 96.809 l 232.281 95.535 l 235.117 95.535 l 235.117 94.074 l 235.117
 91.727 236.344 90.551 238.793 90.551 c 239.402 90.551 240.074 90.621 240.812
 90.762 c h
240.812 92.082 m f
250.562 98.594 m 250.562 99.277 250.465 99.91 250.27 100.484 c 250.078 
101.051 249.801 101.539 249.438 101.949 c 249.074 102.355 248.629 102.672
 248.109 102.898 c 247.586 103.121 246.996 103.234 246.332 103.234 c 245.699
 103.234 245.133 103.137 244.629 102.945 c 244.129 102.746 243.707 102.453
 243.355 102.074 c 243.008 101.691 242.742 101.223 242.555 100.66 c 242.371
 100.098 242.281 99.449 242.281 98.715 c 242.281 98.031 242.379 97.406 242.57
 96.844 c 242.766 96.277 243.043 95.789 243.406 95.387 c 243.77 94.977 244.211
 94.66 244.734 94.438 c 245.254 94.207 245.848 94.094 246.508 94.094 c 247.141
 94.094 247.707 94.191 248.207 94.391 c 248.711 94.586 249.133 94.871 249.48
 95.254 c 249.832 95.629 250.098 96.098 250.281 96.66 c 250.469 97.223 250.562
 97.867 250.562 98.594 c h
248.996 98.664 m 248.996 98.117 248.934 97.645 248.812 97.238 c 248.695
 96.828 248.523 96.488 248.301 96.219 c 248.078 95.945 247.809 95.738 247.484
 95.605 c 247.168 95.465 246.812 95.395 246.422 95.395 c 245.965 95.395 
245.57 95.484 245.242 95.668 c 244.922 95.844 244.656 96.078 244.445 96.379
 c 244.238 96.676 244.086 97.027 243.988 97.426 c 243.895 97.816 243.848
 98.23 243.848 98.664 c 243.848 99.207 243.906 99.688 244.023 100.098 c 
244.145 100.508 244.316 100.848 244.539 101.125 c 244.762 101.395 245.031
 101.598 245.348 101.738 c 245.664 101.875 246.023 101.941 246.422 101.941
 c 246.879 101.941 247.27 101.855 247.59 101.68 c 247.918 101.496 248.184
 101.258 248.391 100.957 c 248.602 100.66 248.754 100.312 248.848 99.922
 c 248.945 99.523 248.996 99.102 248.996 98.664 c h
248.996 98.664 m f
260.457 98.594 m 260.457 99.277 260.359 99.91 260.168 100.484 c 259.973
 101.051 259.695 101.539 259.332 101.949 c 258.969 102.355 258.527 102.672
 258.004 102.898 c 257.484 103.121 256.891 103.234 256.23 103.234 c 255.598
 103.234 255.027 103.137 254.523 102.945 c 254.027 102.746 253.602 102.453
 253.25 102.074 c 252.906 101.691 252.637 101.223 252.449 100.66 c 252.27
 100.098 252.18 99.449 252.18 98.715 c 252.18 98.031 252.273 97.406 252.469
 96.844 c 252.66 96.277 252.941 95.789 253.305 95.387 c 253.668 94.977 254.109
 94.66 254.629 94.438 c 255.152 94.207 255.742 94.094 256.406 94.094 c 257.039
 94.094 257.605 94.191 258.102 94.391 c 258.605 94.586 259.031 94.871 259.375
 95.254 c 259.727 95.629 259.996 96.098 260.176 96.66 c 260.363 97.223 260.457
 97.867 260.457 98.594 c h
258.895 98.664 m 258.895 98.117 258.832 97.645 258.707 97.238 c 258.59 
96.828 258.422 96.488 258.199 96.219 c 257.977 95.945 257.703 95.738 257.383
 95.605 c 257.066 95.465 256.711 95.395 256.316 95.395 c 255.859 95.395 
255.469 95.484 255.141 95.668 c 254.816 95.844 254.551 96.078 254.34 96.379
 c 254.137 96.676 253.984 97.027 253.883 97.426 c 253.789 97.816 253.742
 98.23 253.742 98.664 c 253.742 99.207 253.801 99.688 253.918 100.098 c 
254.043 100.508 254.215 100.848 254.438 101.125 c 254.66 101.395 254.93 
101.598 255.246 101.738 c 255.562 101.875 255.918 101.941 256.316 101.941
 c 256.773 101.941 257.164 101.855 257.488 101.68 c 257.816 101.496 258.082
 101.258 258.285 100.957 c 258.496 100.66 258.648 100.312 258.742 99.922
 c 258.844 99.523 258.895 99.102 258.895 98.664 c h
258.895 98.664 m f
269.766 90.656 m 263.734 104.965 l 262.277 104.965 l 268.305 90.656 l h
269.766 90.656 m f
280.109 98.504 m 280.109 99.238 280.008 99.895 279.801 100.473 c 279.602
 101.047 279.316 101.539 278.941 101.941 c 278.57 102.34 278.121 102.648
 277.586 102.863 c 277.055 103.074 276.453 103.18 275.785 103.18 c 275.266
 103.18 274.73 103.133 274.188 103.031 c 273.641 102.934 273.102 102.773
 272.57 102.559 c 272.57 90.656 l 274.098 90.656 l 274.098 94.074 l 274.027
 95.711 l 274.469 95.117 274.938 94.703 275.434 94.461 c 275.938 94.215 
276.477 94.094 277.051 94.094 c 277.555 94.094 277.996 94.199 278.379 94.41
 c 278.758 94.621 279.078 94.918 279.336 95.305 c 279.594 95.688 279.789
 96.148 279.918 96.695 c 280.047 97.234 280.109 97.836 280.109 98.504 c 
h
278.547 98.574 m 278.547 98.113 278.512 97.688 278.441 97.301 c 278.375
 96.914 278.27 96.582 278.125 96.309 c 277.977 96.031 277.789 95.82 277.562
 95.668 c 277.332 95.508 277.059 95.43 276.742 95.43 c 276.551 95.43 276.355
 95.461 276.156 95.527 c 275.957 95.586 275.746 95.688 275.531 95.832 c 
275.32 95.973 275.094 96.164 274.855 96.406 c 274.621 96.641 274.367 96.934
 274.098 97.285 c 274.098 101.562 l 274.398 101.68 274.703 101.773 275.012
 101.844 c 275.324 101.91 275.617 101.941 275.898 101.941 c 276.25 101.941
 276.586 101.887 276.902 101.773 c 277.223 101.664 277.504 101.48 277.746
 101.223 c 277.992 100.957 278.184 100.613 278.324 100.184 c 278.473 99.75
 278.547 99.215 278.547 98.574 c h
278.547 98.574 m f
288.133 103.074 m 288.098 101.891 l 287.617 102.363 287.129 102.707 286.633
 102.918 c 286.141 103.129 285.621 103.234 285.074 103.234 c 284.57 103.234
 284.141 103.168 283.785 103.039 c 283.426 102.91 283.129 102.734 282.895
 102.512 c 282.668 102.285 282.496 102.02 282.387 101.715 c 282.281 101.41
 282.227 101.078 282.227 100.719 c 282.227 99.836 282.555 99.145 283.211
 98.645 c 283.875 98.141 284.852 97.891 286.141 97.891 c 287.969 97.891 
l 287.969 97.117 l 287.969 96.594 287.801 96.18 287.465 95.867 c 287.133
 95.551 286.621 95.395 285.938 95.395 c 285.438 95.395 284.945 95.449 284.461
 95.562 c 283.98 95.672 283.48 95.832 282.965 96.035 c 282.965 94.656 l 
283.16 94.586 283.375 94.52 283.609 94.453 c 283.848 94.383 284.102 94.32
 284.363 94.27 c 284.629 94.215 284.902 94.176 285.191 94.145 c 285.477 
94.109 285.766 94.094 286.059 94.094 c 286.594 94.094 287.074 94.152 287.5
 94.27 c 287.93 94.387 288.289 94.566 288.582 94.805 c 288.883 95.047 289.109
 95.348 289.27 95.711 c 289.426 96.074 289.504 96.5 289.504 96.992 c 289.504
 103.074 l h
287.969 99.059 m 286.023 99.059 l 285.645 99.059 285.316 99.098 285.039
 99.172 c 284.766 99.25 284.539 99.359 284.363 99.5 c 284.188 99.641 284.055
 99.809 283.969 100.008 c 283.887 100.203 283.844 100.422 283.844 100.668
 c 283.844 100.836 283.871 101 283.926 101.16 c 283.977 101.312 284.062 
101.449 284.18 101.574 c 284.297 101.691 284.449 101.785 284.637 101.855
 c 284.824 101.926 285.051 101.961 285.32 101.961 c 285.672 101.961 286.074
 101.855 286.527 101.645 c 286.984 101.426 287.465 101.086 287.969 100.625
 c h
287.969 99.059 m f
292.723 94.25 m 294.121 94.25 l 294.164 95.879 l 294.684 95.25 295.199 
94.797 295.703 94.516 c 296.211 94.234 296.723 94.094 297.238 94.094 c 298.152
 94.094 298.844 94.391 299.312 94.98 c 299.789 95.574 300.008 96.453 299.973
 97.617 c 298.426 97.617 l 298.445 96.844 298.328 96.285 298.082 95.938 
c 297.844 95.586 297.488 95.41 297.02 95.41 c 296.816 95.41 296.605 95.449
 296.395 95.527 c 296.191 95.598 295.977 95.715 295.754 95.879 c 295.539
 96.035 295.305 96.242 295.059 96.492 c 294.812 96.746 294.551 97.051 294.27
 97.406 c 294.27 103.074 l 292.723 103.074 l h
292.723 94.25 m f
0.752941 0.501961 0 rg
230.18 121.258 m 224.148 135.566 l 222.691 135.566 l 228.719 121.258 l 
h
230.18 121.258 m f
240.094 133.555 m 239.746 133.641 239.391 133.703 239.02 133.738 c 238.652
 133.777 238.277 133.801 237.895 133.801 c 236.789 133.801 235.961 133.551
 235.418 133.051 c 234.871 132.547 234.602 131.777 234.602 130.742 c 234.602
 126.137 l 232.129 126.137 l 232.129 124.852 l 234.602 124.852 l 234.602
 122.426 l 236.129 122.031 l 236.129 124.852 l 240.094 124.852 l 240.094
 126.137 l 236.129 126.137 l 236.129 130.617 l 236.129 131.25 236.297 131.727
 236.629 132.043 c 236.969 132.352 237.469 132.508 238.125 132.508 c 238.406
 132.508 238.715 132.488 239.047 132.445 c 239.383 132.398 239.73 132.328
 240.094 132.234 c h
240.094 133.555 m f
250.332 128.797 m 250.332 129.016 250.328 129.195 250.324 129.344 c 250.316
 129.488 250.309 129.629 250.297 129.758 c 244.102 129.758 l 244.102 130.66
 244.352 131.352 244.855 131.84 c 245.359 132.32 246.086 132.559 247.035
 132.559 c 247.293 132.559 247.551 132.551 247.809 132.535 c 248.066 132.512
 248.316 132.48 248.559 132.445 c 248.797 132.41 249.027 132.375 249.242
 132.332 c 249.465 132.285 249.672 132.234 249.859 132.184 c 249.859 133.441
 l 249.441 133.559 248.969 133.652 248.441 133.723 c 247.922 133.797 247.379
 133.836 246.816 133.836 c 246.062 133.836 245.41 133.734 244.867 133.527
 c 244.32 133.324 243.871 133.027 243.52 132.641 c 243.176 132.246 242.918
 131.77 242.746 131.207 c 242.582 130.641 242.5 129.996 242.5 129.281 c 
242.5 128.66 242.59 128.074 242.766 127.523 c 242.945 126.969 243.207 126.48
 243.547 126.066 c 243.895 125.645 244.316 125.309 244.812 125.062 c 245.312
 124.816 245.875 124.695 246.508 124.695 c 247.125 124.695 247.668 124.793
 248.145 124.984 c 248.617 125.18 249.016 125.453 249.34 125.812 c 249.668
 126.164 249.914 126.594 250.078 127.102 c 250.246 127.605 250.332 128.172
 250.332 128.801 c h
248.742 128.578 m 248.758 128.188 248.723 127.828 248.629 127.508 c 248.535
 127.18 248.387 126.898 248.188 126.664 c 247.996 126.43 247.75 126.246 
247.457 126.117 c 247.164 125.984 246.824 125.914 246.438 125.914 c 246.105
 125.914 245.801 125.98 245.523 126.109 c 245.25 126.238 245.012 126.418
 244.812 126.652 c 244.613 126.887 244.453 127.168 244.328 127.496 c 244.207
 127.824 244.129 128.188 244.102 128.578 c h
248.742 128.578 m f
259.762 131.27 m 259.762 131.578 259.711 131.855 259.605 132.102 c 259.5
 132.348 259.355 132.57 259.176 132.762 c 258.992 132.949 258.781 133.109
 258.543 133.246 c 258.301 133.379 258.043 133.492 257.77 133.578 c 257.5
 133.668 257.219 133.73 256.934 133.773 c 256.645 133.812 256.363 133.836
 256.09 133.836 c 255.492 133.836 254.941 133.809 254.438 133.754 c 253.938
 133.703 253.449 133.617 252.969 133.5 c 252.969 132.094 l 253.484 132.242
 253.996 132.352 254.508 132.43 c 255.016 132.504 255.523 132.543 256.027
 132.543 c 256.762 132.543 257.301 132.441 257.652 132.242 c 258.004 132.043
 258.18 131.762 258.18 131.391 c 258.18 131.234 258.152 131.094 258.094 
130.969 c 258.039 130.84 257.941 130.719 257.793 130.609 c 257.648 130.492
 257.418 130.371 257.109 130.25 c 256.805 130.125 256.387 129.984 255.852
 129.828 c 255.453 129.711 255.086 129.578 254.746 129.43 c 254.41 129.277
 254.121 129.102 253.875 128.895 c 253.629 128.691 253.434 128.449 253.293
 128.176 c 253.152 127.898 253.082 127.574 253.082 127.199 c 253.082 126.953
 253.141 126.684 253.25 126.391 c 253.367 126.098 253.562 125.824 253.84
 125.574 c 254.113 125.32 254.488 125.113 254.957 124.949 c 255.426 124.777
 256.012 124.695 256.715 124.695 c 257.059 124.695 257.441 124.715 257.863
 124.754 c 258.285 124.789 258.727 124.855 259.184 124.949 c 259.184 126.312
 l 258.703 126.195 258.246 126.109 257.812 126.055 c 257.383 125.996 257.012
 125.969 256.695 125.969 c 256.316 125.969 255.992 125.996 255.73 126.055
 c 255.473 126.113 255.262 126.195 255.098 126.301 c 254.938 126.402 254.824
 126.523 254.754 126.664 c 254.684 126.797 254.648 126.945 254.648 127.102
 c 254.648 127.262 254.676 127.402 254.734 127.531 c 254.801 127.66 254.914
 127.789 255.078 127.91 c 255.25 128.027 255.484 128.148 255.781 128.27 
c 256.082 128.387 256.469 128.516 256.949 128.656 c 257.473 128.809 257.91
 128.973 258.27 129.141 c 258.625 129.305 258.918 129.488 259.141 129.695
 c 259.363 129.898 259.52 130.133 259.613 130.391 c 259.715 130.648 259.762
 130.941 259.762 131.27 c h
259.762 131.27 m f
269.781 133.555 m 269.438 133.641 269.078 133.703 268.711 133.738 c 268.34
 133.777 267.965 133.801 267.586 133.801 c 266.477 133.801 265.652 133.551
 265.105 133.051 c 264.562 132.547 264.289 131.777 264.289 130.742 c 264.289
 126.137 l 261.82 126.137 l 261.82 124.852 l 264.289 124.852 l 264.289 122.426
 l 265.82 122.031 l 265.82 124.852 l 269.781 124.852 l 269.781 126.137 l
 265.82 126.137 l 265.82 130.617 l 265.82 131.25 265.984 131.727 266.32 
132.043 c 266.66 132.352 267.156 132.508 267.812 132.508 c 268.094 132.508
 268.402 132.488 268.738 132.445 c 269.07 132.398 269.418 132.328 269.781
 132.234 c h
269.781 133.555 m f
0 g
226.629 157.832 m 226.828 157.832 227.016 157.875 227.191 157.957 c 227.371
 158.031 227.527 158.137 227.656 158.273 c 227.793 158.402 227.898 158.559
 227.973 158.738 c 228.051 158.922 228.086 159.109 228.086 159.309 c 228.086
 159.508 228.051 159.695 227.973 159.871 c 227.898 160.047 227.793 160.203
 227.656 160.34 c 227.527 160.469 227.371 160.574 227.191 160.656 c 227.016
 160.73 226.828 160.77 226.629 160.77 c 226.422 160.77 226.234 160.73 226.059
 160.656 c 225.883 160.574 225.727 160.469 225.59 160.34 c 225.461 160.203
 225.359 160.047 225.285 159.871 c 225.207 159.695 225.168 159.508 225.168
 159.309 c 225.168 159.109 225.207 158.922 225.285 158.738 c 225.359 158.559
 225.461 158.402 225.59 158.273 c 225.727 158.137 225.883 158.031 226.059
 157.957 c 226.234 157.875 226.422 157.832 226.629 157.832 c h
226.629 157.832 m f
236.523 157.832 m 236.723 157.832 236.91 157.875 237.086 157.957 c 237.27
 158.031 237.426 158.137 237.555 158.273 c 237.688 158.402 237.793 158.559
 237.871 158.738 c 237.945 158.922 237.984 159.109 237.984 159.309 c 237.984
 159.508 237.945 159.695 237.871 159.871 c 237.793 160.047 237.688 160.203
 237.555 160.34 c 237.426 160.469 237.27 160.574 237.086 160.656 c 236.91
 160.73 236.723 160.77 236.523 160.77 c 236.32 160.77 236.129 160.73 235.953
 160.656 c 235.777 160.574 235.621 160.469 235.488 160.34 c 235.359 160.203
 235.258 160.047 235.18 159.871 c 235.105 159.695 235.066 159.508 235.066
 159.309 c 235.066 159.109 235.105 158.922 235.18 158.738 c 235.258 158.559
 235.359 158.402 235.488 158.273 c 235.621 158.137 235.777 158.031 235.953
 157.957 c 236.129 157.875 236.32 157.832 236.523 157.832 c h
236.523 157.832 m f
246.422 157.832 m 246.621 157.832 246.809 157.875 246.984 157.957 c 247.164
 158.031 247.32 158.137 247.449 158.273 c 247.586 158.402 247.691 158.559
 247.766 158.738 c 247.844 158.922 247.879 159.109 247.879 159.309 c 247.879
 159.508 247.844 159.695 247.766 159.871 c 247.691 160.047 247.586 160.203
 247.449 160.34 c 247.32 160.469 247.164 160.574 246.984 160.656 c 246.809
 160.73 246.621 160.77 246.422 160.77 c 246.215 160.77 246.027 160.73 245.852
 160.656 c 245.676 160.574 245.52 160.469 245.383 160.34 c 245.254 160.203
 245.152 160.047 245.078 159.871 c 245 159.695 244.961 159.508 244.961 159.309
 c 244.961 159.109 245 158.922 245.078 158.738 c 245.152 158.559 245.254
 158.402 245.383 158.273 c 245.52 158.137 245.676 158.031 245.852 157.957
 c 246.027 157.875 246.215 157.832 246.422 157.832 c h
246.422 157.832 m f
1.500001 w
1 J
0 j
[] 0.0 d
4 M q 1 0 0 1 0 0 cm
201.77 27.68 m 201.77 28.879 201.77 30.066 201.844 38.316 c 201.918 46.566
 202.066 61.875 202.141 73.172 c 202.215 84.469 202.215 91.75 202.516 102.453
 c 202.812 113.156 203.406 127.277 203.852 136.863 c 204.297 146.453 204.594
 151.504 204.742 155.816 c 204.891 160.125 204.891 163.691 204.891 167.254
 c S Q
q 1 0 0 1 0 0 cm
346.695 31.695 m 346.695 33.188 346.695 34.676 346.695 46.121 c 346.695
 57.566 346.695 78.969 346.695 93.906 c 346.695 108.844 346.695 117.316 
346.695 124.824 c 346.695 132.332 346.695 138.871 346.844 144 c 346.992 
149.125 347.289 152.844 347.66 155.594 c 348.035 158.344 348.48 160.125 
348.922 161.902 c S Q
q 1 0 0 1 0 0 cm
212.027 46.855 m 212.777 47.156 213.523 47.453 219.246 48.121 c 224.965
 48.789 235.668 49.828 250.234 50.422 c 264.801 51.016 283.23 51.164 297.797
 50.941 c 312.363 50.719 323.066 50.125 328.566 49.754 c 334.062 49.379 
334.359 49.23 334.652 49.086 c S Q
q 1 0 0 1 0 0 cm
208.906 78.516 m 214.266 79.559 219.617 80.598 239.758 81.266 c 259.895
 81.934 294.824 82.23 314.297 82.305 c 333.77 82.379 337.781 82.23 339.863
 82.156 c 341.945 82.082 342.094 82.082 342.02 82.082 c 341.945 82.082 341.648
 82.082 341.344 82.082 c S Q
q 1 0 0 1 0 0 cm
215.148 116.863 m 216.344 116.863 217.535 116.863 220.508 116.715 c 223.48
 116.566 228.234 116.27 234.328 115.973 c 240.426 115.676 247.855 115.379
 260.414 114.855 c 272.977 114.336 290.664 113.594 304.488 113 c 318.312
 112.406 328.27 111.957 338.223 111.512 c S Q
q 1 0 0 1 0 0 cm
211.582 144.512 m 218.871 145.703 226.156 146.891 246.148 147.559 c 266.141
 148.227 298.84 148.375 316.676 148.301 c 334.512 148.227 337.484 147.93
 338.75 147.781 c 340.012 147.633 339.566 147.633 339.113 147.633 c S Q
218.512 0.617 1.973 14.578 re f
233.426 8.594 m 233.426 15.195 l 231.629 15.195 l 231.629 8.652 l 231.629
 7.617 231.426 6.844 231.023 6.328 c 230.617 5.812 230.012 5.559 229.207
 5.559 c 228.234 5.559 227.469 5.867 226.91 6.484 c 226.352 7.102 226.07
 7.945 226.07 9.016 c 226.07 15.195 l 224.266 15.195 l 224.266 4.258 l 226.07
 4.258 l 226.07 5.957 l 226.5 5.301 227.004 4.809 227.586 4.484 c 228.172
 4.156 228.844 3.996 229.605 3.996 c 230.863 3.996 231.812 4.387 232.457
 5.168 c 233.102 5.941 233.426 7.082 233.426 8.594 c h
233.426 8.594 m f
241.246 5.52 m 240.281 5.52 239.52 5.895 238.961 6.652 c 238.402 7.398 
238.121 8.43 238.121 9.738 c 238.121 11.047 238.398 12.078 238.953 12.832
 c 239.512 13.582 240.277 13.957 241.246 13.957 c 242.203 13.957 242.961
 13.578 243.523 12.824 c 244.082 12.066 244.363 11.039 244.363 9.738 c 244.363
 8.441 244.082 7.414 243.523 6.66 c 242.961 5.898 242.203 5.52 241.246 5.52
 c h
241.246 3.996 m 242.809 3.996 244.035 4.504 244.93 5.52 c 245.82 6.535 
246.266 7.941 246.266 9.738 c 246.266 11.527 245.82 12.934 244.93 13.957
 c 244.035 14.973 242.809 15.48 241.246 15.48 c 239.676 15.48 238.445 14.973
 237.555 13.957 c 236.668 12.934 236.227 11.527 236.227 9.738 c 236.227 
7.941 236.668 6.535 237.555 5.52 c 238.445 4.504 239.676 3.996 241.246 3.996
 c h
241.246 3.996 m f
256.441 5.918 m 256.441 0 l 258.238 0 l 258.238 15.195 l 256.441 15.195
 l 256.441 13.555 l 256.062 14.207 255.586 14.691 255.008 15.012 c 254.434
 15.324 253.742 15.48 252.938 15.48 c 251.613 15.48 250.535 14.953 249.703
 13.898 c 248.875 12.844 248.465 11.457 248.465 9.738 c 248.465 8.02 248.875
 6.633 249.703 5.578 c 250.535 4.523 251.613 3.996 252.938 3.996 c 253.742
 3.996 254.434 4.152 255.008 4.473 c 255.586 4.785 256.062 5.266 256.441
 5.918 c h
250.32 9.738 m 250.32 11.059 250.59 12.098 251.129 12.852 c 251.676 13.602
 252.426 13.977 253.375 13.977 c 254.324 13.977 255.074 13.602 255.621 12.852
 c 256.168 12.098 256.441 11.059 256.441 9.738 c 256.441 8.414 256.168 7.379
 255.621 6.633 c 255.074 5.875 254.324 5.5 253.375 5.5 c 252.426 5.5 251.676
 5.875 251.129 6.633 c 250.59 7.379 250.32 8.414 250.32 9.738 c h
250.32 9.738 m f
271.297 9.277 m 271.297 10.156 l 263.035 10.156 l 263.113 11.395 263.484
 12.336 264.148 12.988 c 264.816 13.633 265.75 13.957 266.941 13.957 c 267.629
 13.957 268.297 13.871 268.941 13.703 c 269.594 13.531 270.238 13.277 270.875
 12.941 c 270.875 14.641 l 270.23 14.914 269.57 15.121 268.895 15.266 c 
268.215 15.406 267.527 15.48 266.832 15.48 c 265.086 15.48 263.703 14.973
 262.684 13.957 c 261.668 12.941 261.16 11.566 261.16 9.836 c 261.16 8.043
 261.641 6.625 262.605 5.578 c 263.574 4.523 264.879 3.996 266.52 3.996 
c 267.992 3.996 269.152 4.469 270.008 5.422 c 270.867 6.363 271.297 7.648
 271.297 9.277 c h
269.5 8.75 m 269.484 7.766 269.207 6.984 268.668 6.398 c 268.133 5.812 
267.426 5.52 266.539 5.52 c 265.535 5.52 264.734 5.801 264.129 6.367 c 263.527
 6.934 263.184 7.73 263.094 8.762 c h
269.5 8.75 m f
282.379 1.152 m 282.379 4.258 l 286.082 4.258 l 286.082 5.656 l 282.379
 5.656 l 282.379 11.594 l 282.379 12.484 282.5 13.059 282.742 13.312 c 282.988
 13.566 283.484 13.691 284.234 13.691 c 286.082 13.691 l 286.082 15.195 
l 284.234 15.195 l 282.848 15.195 281.891 14.938 281.363 14.426 c 280.836
 13.902 280.574 12.961 280.574 11.594 c 280.574 5.656 l 279.254 5.656 l 
279.254 4.258 l 280.574 4.258 l 280.574 1.152 l h
282.379 1.152 m f
293.414 9.699 m 291.961 9.699 290.957 9.863 290.398 10.195 c 289.836 10.527
 289.559 11.094 289.559 11.895 c 289.559 12.531 289.766 13.039 290.184 13.418
 c 290.605 13.789 291.18 13.977 291.902 13.977 c 292.898 13.977 293.695 
13.625 294.293 12.922 c 294.898 12.211 295.203 11.27 295.203 10.098 c 295.203
 9.699 l h
297 8.957 m 297 15.195 l 295.203 15.195 l 295.203 13.535 l 294.793 14.199
 294.281 14.691 293.668 15.012 c 293.055 15.324 292.309 15.48 291.422 15.48
 c 290.301 15.48 289.41 15.168 288.746 14.543 c 288.09 13.91 287.762 13.066
 287.762 12.012 c 287.762 10.781 288.172 9.855 288.992 9.23 c 289.816 8.605
 291.047 8.293 292.684 8.293 c 295.203 8.293 l 295.203 8.117 l 295.203 7.289
 294.93 6.652 294.383 6.203 c 293.84 5.746 293.078 5.52 292.098 5.52 c 291.473
 5.52 290.863 5.594 290.27 5.742 c 289.676 5.891 289.109 6.117 288.562 6.418
 c 288.562 4.758 l 289.219 4.504 289.855 4.312 290.477 4.191 c 291.094 4.059
 291.695 3.996 292.281 3.996 c 293.863 3.996 295.047 4.406 295.828 5.227
 c 296.609 6.047 297 7.289 297 8.957 c h
297 8.957 m f
308.551 9.738 m 308.551 8.414 308.277 7.379 307.73 6.633 c 307.191 5.875
 306.445 5.5 305.496 5.5 c 304.543 5.5 303.797 5.875 303.25 6.633 c 302.707
 7.379 302.438 8.414 302.438 9.738 c 302.438 11.059 302.707 12.098 303.25
 12.852 c 303.797 13.602 304.543 13.977 305.496 13.977 c 306.445 13.977 
307.191 13.602 307.73 12.852 c 308.277 12.098 308.551 11.059 308.551 9.738
 c h
302.438 5.918 m 302.816 5.266 303.289 4.785 303.863 4.473 c 304.441 4.152
 305.133 3.996 305.934 3.996 c 307.262 3.996 308.34 4.523 309.168 5.578 
c 310 6.633 310.418 8.02 310.418 9.738 c 310.418 11.457 310 12.844 309.168
 13.898 c 308.34 14.953 307.262 15.48 305.934 15.48 c 305.133 15.48 304.441
 15.324 303.863 15.012 c 303.289 14.691 302.816 14.207 302.438 13.555 c 
302.438 15.195 l 300.633 15.195 l 300.633 0 l 302.438 0 l h
302.438 5.918 m f
313.395 0 1.797 15.195 re f
328.309 9.277 m 328.309 10.156 l 320.047 10.156 l 320.125 11.395 320.496
 12.336 321.16 12.988 c 321.828 13.633 322.762 13.957 323.953 13.957 c 324.641
 13.957 325.309 13.871 325.953 13.703 c 326.605 13.531 327.25 13.277 327.887
 12.941 c 327.887 14.641 l 327.242 14.914 326.582 15.121 325.906 15.266 
c 325.227 15.406 324.539 15.48 323.844 15.48 c 322.098 15.48 320.715 14.973
 319.695 13.957 c 318.68 12.941 318.172 11.566 318.172 9.836 c 318.172 8.043
 318.652 6.625 319.617 5.578 c 320.586 4.523 321.891 3.996 323.531 3.996
 c 325.004 3.996 326.164 4.469 327.02 5.422 c 327.879 6.363 328.309 7.648
 328.309 9.277 c h
326.512 8.75 m 326.496 7.766 326.219 6.984 325.68 6.398 c 325.145 5.812
 324.438 5.52 323.551 5.52 c 322.547 5.52 321.746 5.801 321.141 6.367 c 
320.539 6.934 320.195 7.73 320.105 8.762 c h
326.512 8.75 m f
q 1 0 0 1 0 0 cm
51.941 89.219 m 49.863 91 47.781 92.785 46.293 95.016 c 44.809 97.25 43.914
 99.926 43.469 103.195 c 43.023 106.469 43.023 110.332 43.25 113.156 c 43.473
 115.98 43.918 117.766 45.258 120.145 c 46.598 122.52 48.828 125.492 50.762
 127.648 c 52.695 129.801 54.328 131.141 57.676 132.477 c 61.02 133.812 
66.074 135.148 70.309 135.816 c 74.543 136.484 77.961 136.484 81.457 136.484
 c 84.949 136.484 88.516 136.484 93.57 136.113 c 98.621 135.742 105.16 134.996
 112.52 132.691 c 119.875 130.391 128.051 126.523 134.59 123.031 c 141.129
 119.539 146.031 116.418 152.203 112.699 c 158.371 108.984 165.801 104.676
 170.559 102.074 c 175.316 99.473 177.398 98.582 180.965 97.836 c 184.535
 97.094 189.59 96.5 193.676 96.203 c 197.766 95.906 200.887 95.906 203.191
 96.055 c 205.496 96.203 206.98 96.504 207.719 96.727 c 208.461 96.953 208.461
 97.102 208.461 97.324 c 208.461 97.547 208.461 97.848 208.461 98.137 c S Q
q 1 0 0 1 0 0 cm
191.516 85.648 m 193.754 87.293 195.98 88.926 198.883 90.559 c 201.781 
92.195 205.348 93.828 207.652 94.871 c 209.953 95.91 210.996 96.355 211.887
 96.652 c 212.777 96.949 213.523 97.098 214.191 97.246 c 214.859 97.395 
215.453 97.543 215.746 97.695 c 216.039 97.848 216.039 97.996 215.969 98.066
 c 215.898 98.137 215.75 98.137 214.855 98.508 c 213.961 98.879 212.328 
99.621 210.32 100.512 c 208.312 101.402 205.938 102.445 203.707 103.484 
c 201.477 104.527 199.395 105.566 197.316 106.605 c 195.234 107.648 193.152
 108.688 191.07 109.73 c S Q
419.781 136.914 m 418.91 138.414 418.262 139.895 417.84 141.359 c 417.414
 142.824 417.203 144.309 417.203 145.812 c 417.203 147.316 417.414 148.809
 417.84 150.285 c 418.27 151.758 418.918 153.238 419.781 154.727 c 418.219
 154.727 l 417.242 153.199 416.512 151.695 416.023 150.215 c 415.539 148.738
 415.301 147.27 415.301 145.812 c 415.301 144.359 415.539 142.898 416.023
 141.426 c 416.504 139.957 417.238 138.453 418.219 136.914 c h
419.781 136.914 m f
430.465 142.812 m 430.465 136.895 l 432.262 136.895 l 432.262 152.09 l 
430.465 152.09 l 430.465 150.449 l 430.09 151.102 429.609 151.586 429.031
 151.906 c 428.457 152.219 427.766 152.375 426.961 152.375 c 425.637 152.375
 424.562 151.848 423.727 150.793 c 422.902 149.738 422.488 148.352 422.488
 146.633 c 422.488 144.914 422.902 143.527 423.727 142.473 c 424.562 141.418
 425.637 140.891 426.961 140.891 c 427.766 140.891 428.457 141.051 429.031
 141.367 c 429.609 141.68 430.09 142.164 430.465 142.812 c h
424.344 146.633 m 424.344 147.953 424.613 148.992 425.152 149.746 c 425.699
 150.496 426.449 150.871 427.398 150.871 c 428.352 150.871 429.098 150.496
 429.645 149.746 c 430.191 148.992 430.465 147.953 430.465 146.633 c 430.465
 145.312 430.191 144.277 429.645 143.527 c 429.098 142.773 428.352 142.395
 427.398 142.395 c 426.449 142.395 425.699 142.773 425.152 143.527 c 424.613
 144.277 424.344 145.312 424.344 146.633 c h
424.344 146.633 m f
440.934 146.594 m 439.484 146.594 438.477 146.758 437.918 147.09 c 437.355
 147.422 437.078 147.988 437.078 148.789 c 437.078 149.43 437.285 149.938
 437.703 150.312 c 438.125 150.684 438.699 150.871 439.422 150.871 c 440.418
 150.871 441.215 150.52 441.812 149.816 c 442.418 149.105 442.723 148.164
 442.723 146.992 c 442.723 146.594 l h
444.52 145.852 m 444.52 152.09 l 442.723 152.09 l 442.723 150.43 l 442.312
 151.094 441.801 151.586 441.188 151.906 c 440.578 152.219 439.828 152.375
 438.941 152.375 c 437.824 152.375 436.93 152.062 436.266 151.438 c 435.609
 150.805 435.281 149.961 435.281 148.906 c 435.281 147.676 435.691 146.75
 436.512 146.125 c 437.336 145.5 438.566 145.188 440.203 145.188 c 442.723
 145.188 l 442.723 145.012 l 442.723 144.184 442.449 143.547 441.902 143.098
 c 441.359 142.641 440.598 142.414 439.617 142.414 c 438.992 142.414 438.383
 142.488 437.789 142.637 c 437.199 142.789 436.629 143.012 436.082 143.312
 c 436.082 141.652 l 436.738 141.398 437.375 141.211 437.996 141.086 c 438.613
 140.957 439.215 140.891 439.801 140.891 c 441.383 140.891 442.566 141.301
 443.348 142.121 c 444.129 142.941 444.52 144.184 444.52 145.852 c h
444.52 145.852 m f
449.996 138.047 m 449.996 141.152 l 453.699 141.152 l 453.699 142.551 l
 449.996 142.551 l 449.996 148.488 l 449.996 149.379 450.117 149.953 450.359
 150.207 c 450.605 150.461 451.105 150.586 451.852 150.586 c 453.699 150.586
 l 453.699 152.09 l 451.852 152.09 l 450.465 152.09 449.508 151.836 448.98
 151.32 c 448.453 150.801 448.191 149.855 448.191 148.488 c 448.191 142.551
 l 446.871 142.551 l 446.871 141.152 l 448.191 141.152 l 448.191 138.047
 l h
449.996 138.047 m f
461.031 146.594 m 459.582 146.594 458.574 146.758 458.016 147.09 c 457.453
 147.422 457.176 147.988 457.176 148.789 c 457.176 149.43 457.383 149.938
 457.801 150.312 c 458.223 150.684 458.797 150.871 459.52 150.871 c 460.516
 150.871 461.312 150.52 461.91 149.816 c 462.516 149.105 462.82 148.164 
462.82 146.992 c 462.82 146.594 l h
464.617 145.852 m 464.617 152.09 l 462.82 152.09 l 462.82 150.43 l 462.41
 151.094 461.898 151.586 461.285 151.906 c 460.676 152.219 459.926 152.375
 459.039 152.375 c 457.922 152.375 457.027 152.062 456.363 151.438 c 455.707
 150.805 455.379 149.961 455.379 148.906 c 455.379 147.676 455.789 146.75
 456.609 146.125 c 457.434 145.5 458.664 145.188 460.301 145.188 c 462.82
 145.188 l 462.82 145.012 l 462.82 144.184 462.547 143.547 462 143.098 c
 461.457 142.641 460.695 142.414 459.715 142.414 c 459.09 142.414 458.48
 142.488 457.887 142.637 c 457.297 142.789 456.727 143.012 456.18 143.312
 c 456.18 141.652 l 456.836 141.398 457.473 141.211 458.094 141.086 c 458.711
 140.957 459.312 140.891 459.898 140.891 c 461.48 140.891 462.664 141.301
 463.445 142.121 c 464.227 142.941 464.617 144.184 464.617 145.852 c h
464.617 145.852 m f
482.527 146.633 m 482.527 145.312 482.254 144.277 481.707 143.527 c 481.164
 142.773 480.422 142.395 479.469 142.395 c 478.52 142.395 477.77 142.773
 477.223 143.527 c 476.684 144.277 476.414 145.312 476.414 146.633 c 476.414
 147.953 476.684 148.992 477.223 149.746 c 477.77 150.496 478.52 150.871
 479.469 150.871 c 480.422 150.871 481.164 150.496 481.707 149.746 c 482.254
 148.992 482.527 147.953 482.527 146.633 c h
476.414 142.812 m 476.789 142.164 477.266 141.68 477.84 141.367 c 478.418
 141.051 479.109 140.891 479.91 140.891 c 481.238 140.891 482.316 141.418
 483.141 142.473 c 483.977 143.527 484.391 144.914 484.391 146.633 c 484.391
 148.352 483.977 149.738 483.141 150.793 c 482.316 151.848 481.238 152.375
 479.91 152.375 c 479.109 152.375 478.418 152.219 477.84 151.906 c 477.266
 151.586 476.789 151.102 476.414 150.449 c 476.414 152.09 l 474.605 152.09
 l 474.605 136.895 l 476.414 136.895 l h
476.414 142.812 m f
487.371 136.895 1.797 15.195 re f
497.164 142.414 m 496.203 142.414 495.441 142.793 494.879 143.547 c 494.32
 144.297 494.039 145.324 494.039 146.633 c 494.039 147.941 494.316 148.973
 494.871 149.727 c 495.43 150.477 496.195 150.852 497.164 150.852 c 498.121
 150.852 498.879 150.473 499.441 149.719 c 500 148.965 500.281 147.934 500.281
 146.633 c 500.281 145.336 500 144.312 499.441 143.555 c 498.879 142.793
 498.121 142.414 497.164 142.414 c h
497.164 140.891 m 498.727 140.891 499.953 141.398 500.848 142.414 c 501.738
 143.43 502.184 144.836 502.184 146.633 c 502.184 148.422 501.738 149.828
 500.848 150.852 c 499.953 151.867 498.727 152.375 497.164 152.375 c 495.598
 152.375 494.367 151.867 493.473 150.852 c 492.59 149.828 492.145 148.422
 492.145 146.633 c 492.145 144.836 492.59 143.43 493.473 142.414 c 494.367
 141.398 495.598 140.891 497.164 140.891 c h
497.164 140.891 m f
513.035 141.574 m 513.035 143.254 l 512.527 142.973 512.016 142.766 511.5
 142.629 c 510.992 142.484 510.48 142.414 509.957 142.414 c 508.793 142.414
 507.887 142.785 507.242 143.527 c 506.598 144.262 506.277 145.297 506.277
 146.633 c 506.277 147.969 506.598 149.004 507.242 149.746 c 507.887 150.484
 508.793 150.852 509.957 150.852 c 510.48 150.852 510.992 150.781 511.5 
150.645 c 512.016 150.504 512.527 150.293 513.035 150.012 c 513.035 151.672
 l 512.531 151.906 512.012 152.082 511.473 152.199 c 510.938 152.316 510.367
 152.375 509.762 152.375 c 508.117 152.375 506.809 151.855 505.836 150.82
 c 504.867 149.785 504.383 148.391 504.383 146.633 c 504.383 144.848 504.871
 143.445 505.848 142.422 c 506.828 141.402 508.176 140.891 509.879 140.891
 c 510.434 140.891 510.973 140.949 511.5 141.066 c 512.027 141.176 512.539
 141.348 513.035 141.574 c h
513.035 141.574 m f
516.09 136.895 m 517.898 136.895 l 517.898 145.871 l 523.258 141.152 l 
525.555 141.152 l 519.754 146.27 l 525.797 152.09 l 523.453 152.09 l 517.898
 146.75 l 517.898 152.09 l 516.09 152.09 l h
516.09 136.895 m f
534.715 141.477 m 534.715 143.176 l 534.207 142.914 533.68 142.719 533.133
 142.59 c 532.586 142.461 532.02 142.395 531.434 142.395 c 530.539 142.395
 529.871 142.531 529.422 142.805 c 528.977 143.078 528.758 143.488 528.758
 144.035 c 528.758 144.453 528.918 144.781 529.234 145.02 c 529.555 145.254
 530.195 145.48 531.16 145.695 c 531.773 145.832 l 533.051 146.105 533.957
 146.492 534.488 146.992 c 535.031 147.488 535.301 148.184 535.301 149.074
 c 535.301 150.09 534.895 150.895 534.09 151.484 c 533.289 152.078 532.184
 152.375 530.777 152.375 c 530.191 152.375 529.582 152.316 528.941 152.199
 c 528.312 152.09 527.645 151.918 526.941 151.691 c 526.941 149.836 l 527.605
 150.18 528.258 150.441 528.902 150.617 c 529.547 150.785 530.188 150.871
 530.816 150.871 c 531.664 150.871 532.316 150.727 532.77 150.441 c 533.227
 150.148 533.453 149.738 533.453 149.211 c 533.453 148.723 533.289 148.348
 532.957 148.086 c 532.629 147.828 531.91 147.578 530.797 147.336 c 530.172
 147.188 l 529.059 146.953 528.254 146.598 527.762 146.113 c 527.266 145.625
 527.02 144.961 527.02 144.113 c 527.02 143.086 527.383 142.289 528.113 
141.73 c 528.84 141.172 529.875 140.891 531.219 140.891 c 531.883 140.891
 532.508 140.938 533.094 141.035 c 533.68 141.133 534.219 141.281 534.715
 141.477 c h
534.715 141.477 m f
537.879 136.914 m 539.441 136.914 l 540.418 138.453 541.145 139.957 541.629
 141.426 c 542.117 142.898 542.359 144.359 542.359 145.812 c 542.359 147.27
 542.117 148.738 541.629 150.215 c 541.145 151.695 540.418 153.199 539.441
 154.727 c 537.879 154.727 l 538.742 153.238 539.387 151.758 539.812 150.285
 c 540.242 148.809 540.457 147.316 540.457 145.812 c 540.457 144.309 540.242
 142.824 539.812 141.359 c 539.387 139.895 538.742 138.414 537.879 136.914
 c h
537.879 136.914 m f
q 1 0 0 1 0 0 cm
330.195 96.797 m 331.691 97.395 333.176 97.992 334.516 98.512 c 335.852
 99.031 337.039 99.477 339.938 99.848 c 342.836 100.219 347.445 100.516 
354.652 99.918 c 361.859 99.324 371.672 97.836 377.691 96.723 c 383.707 
95.609 385.938 94.863 389.727 93.305 c 393.52 91.742 398.867 89.363 405.707
 85.426 c 412.543 81.488 420.867 75.988 427.703 71.602 c 434.543 67.219 
439.891 63.949 444.055 62.238 c 448.223 60.531 451.195 60.383 454.688 60.309
 c 458.18 60.234 462.191 60.234 465.164 61.648 c 468.137 63.066 470.07 65.891
 471.332 68.195 c 472.594 70.496 473.188 72.281 473.855 74.215 c 474.527
 76.145 475.27 78.227 475.789 80.309 c 476.309 82.387 476.605 84.469 476.902
 86.477 c 477.199 88.484 477.496 90.414 477.496 93.609 c 477.496 96.805 
477.199 101.266 476.824 104.461 c 476.453 107.652 476.008 109.586 475.562
 111.816 c 475.117 114.047 474.672 116.574 474.449 117.984 c 474.227 119.398
 474.227 119.695 474.156 119.84 c 474.086 119.984 473.938 119.984 473.781
 119.984 c S Q
q 1 0 0 1 0 0 cm
460.402 109.285 m 464.125 114.348 467.84 119.398 469.848 122.148 c 471.852
 124.898 472.148 125.344 472.449 125.641 c 472.75 125.938 473.047 126.086
 473.344 126.234 c 473.641 126.383 473.938 126.531 474.305 126.305 c 474.672
 126.082 475.117 125.488 475.934 124.223 c 476.75 122.961 477.941 121.027
 479.277 118.797 c 480.617 116.57 482.102 114.043 483.441 111.738 c 484.777
 109.434 485.965 107.355 487.008 105.496 c 488.047 103.637 488.938 102.004
 489.758 100.812 c 490.574 99.621 491.32 98.879 492.062 98.137 c S Q
Q Q
showpage
%%Trailer
end
%%EOF
