<?xml version="1.0" encoding="UTF-8" standalone="no"?>
<!-- Created with Inkscape (http://www.inkscape.org/) -->

<svg
   width="113.77461mm"
   height="203.88812mm"
   viewBox="0 0 113.77461 203.88813"
   version="1.1"
   id="svg5"
   inkscape:version="1.2.2 (b0a8486541, 2022-12-01)"
   sodipodi:docname="internal-state-transfer-through-qemu.svg"
   xmlns:inkscape="http://www.inkscape.org/namespaces/inkscape"
   xmlns:sodipodi="http://sodipodi.sourceforge.net/DTD/sodipodi-0.dtd"
   xmlns:xlink="http://www.w3.org/1999/xlink"
   xmlns="http://www.w3.org/2000/svg"
   xmlns:svg="http://www.w3.org/2000/svg">
  <sodipodi:namedview
     id="namedview7"
     pagecolor="#ffffff"
     bordercolor="#666666"
     borderopacity="1.0"
     inkscape:showpageshadow="2"
     inkscape:pageopacity="0.0"
     inkscape:pagecheckerboard="0"
     inkscape:deskcolor="#d1d1d1"
     inkscape:document-units="mm"
     showgrid="false"
     inkscape:zoom="0.5946522"
     inkscape:cx="-218.61518"
     inkscape:cy="555.78706"
     inkscape:window-width="2560"
     inkscape:window-height="1307"
     inkscape:window-x="0"
     inkscape:window-y="0"
     inkscape:window-maximized="1"
     inkscape:current-layer="layer1" />
  <defs
     id="defs2">
    <inkscape:path-effect
       effect="bspline"
       id="path-effect934"
       is_visible="true"
       lpeversion="1"
       weight="33.333333"
       steps="2"
       helper_size="0"
       apply_no_weight="true"
       apply_with_weight="true"
       only_selected="false" />
    <inkscape:path-effect
       effect="bspline"
       id="path-effect2442"
       is_visible="true"
       lpeversion="1"
       weight="33.333333"
       steps="2"
       helper_size="0"
       apply_no_weight="true"
       apply_with_weight="true"
       only_selected="false" />
    <inkscape:path-effect
       effect="bspline"
       id="path-effect2438"
       is_visible="true"
       lpeversion="1"
       weight="33.333333"
       steps="2"
       helper_size="0"
       apply_no_weight="true"
       apply_with_weight="true"
       only_selected="false" />
    <inkscape:path-effect
       effect="bspline"
       id="path-effect2434"
       is_visible="true"
       lpeversion="1"
       weight="33.333333"
       steps="2"
       helper_size="0"
       apply_no_weight="true"
       apply_with_weight="true"
       only_selected="false" />
    <inkscape:path-effect
       effect="bspline"
       id="path-effect2422"
       is_visible="true"
       lpeversion="1"
       weight="33.333333"
       steps="2"
       helper_size="0"
       apply_no_weight="true"
       apply_with_weight="true"
       only_selected="false" />
    <inkscape:path-effect
       effect="bspline"
       id="path-effect2414"
       is_visible="true"
       lpeversion="1"
       weight="33.333333"
       steps="2"
       helper_size="0"
       apply_no_weight="true"
       apply_with_weight="true"
       only_selected="false" />
    <inkscape:path-effect
       effect="bspline"
       id="path-effect2406"
       is_visible="true"
       lpeversion="1"
       weight="33.333333"
       steps="2"
       helper_size="0"
       apply_no_weight="true"
       apply_with_weight="true"
       only_selected="false" />
    <inkscape:path-effect
       effect="bspline"
       id="path-effect2402"
       is_visible="true"
       lpeversion="1"
       weight="33.333333"
       steps="2"
       helper_size="0"
       apply_no_weight="true"
       apply_with_weight="true"
       only_selected="false" />
    <inkscape:path-effect
       effect="bspline"
       id="path-effect2398"
       is_visible="true"
       lpeversion="1"
       weight="33.333333"
       steps="2"
       helper_size="0"
       apply_no_weight="true"
       apply_with_weight="true"
       only_selected="false" />
    <inkscape:path-effect
       effect="bspline"
       id="path-effect2394"
       is_visible="true"
       lpeversion="1"
       weight="33.333333"
       steps="2"
       helper_size="0"
       apply_no_weight="true"
       apply_with_weight="true"
       only_selected="false" />
    <inkscape:path-effect
       effect="bspline"
       id="path-effect2390"
       is_visible="true"
       lpeversion="1"
       weight="33.333333"
       steps="2"
       helper_size="0"
       apply_no_weight="true"
       apply_with_weight="true"
       only_selected="false" />
    <inkscape:path-effect
       effect="bspline"
       id="path-effect2386"
       is_visible="true"
       lpeversion="1"
       weight="33.333333"
       steps="2"
       helper_size="0"
       apply_no_weight="true"
       apply_with_weight="true"
       only_selected="false" />
    <inkscape:path-effect
       effect="bspline"
       id="path-effect2382"
       is_visible="true"
       lpeversion="1"
       weight="33.333333"
       steps="2"
       helper_size="0"
       apply_no_weight="true"
       apply_with_weight="true"
       only_selected="false" />
    <inkscape:path-effect
       effect="bspline"
       id="path-effect2378"
       is_visible="true"
       lpeversion="1"
       weight="33.333333"
       steps="2"
       helper_size="0"
       apply_no_weight="true"
       apply_with_weight="true"
       only_selected="false" />
    <inkscape:path-effect
       effect="bspline"
       id="path-effect2374"
       is_visible="true"
       lpeversion="1"
       weight="33.333333"
       steps="2"
       helper_size="0"
       apply_no_weight="true"
       apply_with_weight="true"
       only_selected="false" />
    <inkscape:path-effect
       effect="bspline"
       id="path-effect2352"
       is_visible="true"
       lpeversion="1"
       weight="33.333333"
       steps="2"
       helper_size="0"
       apply_no_weight="true"
       apply_with_weight="true"
       only_selected="false" />
    <inkscape:path-effect
       effect="bspline"
       id="path-effect2334"
       is_visible="true"
       lpeversion="1"
       weight="33.333333"
       steps="2"
       helper_size="0"
       apply_no_weight="true"
       apply_with_weight="true"
       only_selected="false" />
    <inkscape:path-effect
       effect="bspline"
       id="path-effect2294"
       is_visible="true"
       lpeversion="1"
       weight="33.333333"
       steps="2"
       helper_size="0"
       apply_no_weight="true"
       apply_with_weight="true"
       only_selected="false" />
    <inkscape:path-effect
       effect="bspline"
       id="path-effect2282"
       is_visible="true"
       lpeversion="1"
       weight="33.333333"
       steps="2"
       helper_size="0"
       apply_no_weight="true"
       apply_with_weight="true"
       only_selected="false" />
    <inkscape:path-effect
       effect="bspline"
       id="path-effect2274"
       is_visible="true"
       lpeversion="1"
       weight="33.333333"
       steps="2"
       helper_size="0"
       apply_no_weight="true"
       apply_with_weight="true"
       only_selected="false" />
    <inkscape:path-effect
       effect="bspline"
       id="path-effect2238"
       is_visible="true"
       lpeversion="1"
       weight="33.333333"
       steps="2"
       helper_size="0"
       apply_no_weight="true"
       apply_with_weight="true"
       only_selected="false" />
    <inkscape:path-effect
       effect="bspline"
       id="path-effect2234"
       is_visible="true"
       lpeversion="1"
       weight="33.333333"
       steps="2"
       helper_size="0"
       apply_no_weight="true"
       apply_with_weight="true"
       only_selected="false" />
    <inkscape:path-effect
       effect="bspline"
       id="path-effect2230"
       is_visible="true"
       lpeversion="1"
       weight="33.333333"
       steps="2"
       helper_size="0"
       apply_no_weight="true"
       apply_with_weight="true"
       only_selected="false" />
    <inkscape:path-effect
       effect="bspline"
       id="path-effect2226"
       is_visible="true"
       lpeversion="1"
       weight="33.333333"
       steps="2"
       helper_size="0"
       apply_no_weight="true"
       apply_with_weight="true"
       only_selected="false" />
    <inkscape:path-effect
       effect="bspline"
       id="path-effect2222"
       is_visible="true"
       lpeversion="1"
       weight="33.333333"
       steps="2"
       helper_size="0"
       apply_no_weight="true"
       apply_with_weight="true"
       only_selected="false" />
    <inkscape:path-effect
       effect="bspline"
       id="path-effect2218"
       is_visible="true"
       lpeversion="1"
       weight="33.333333"
       steps="2"
       helper_size="0"
       apply_no_weight="true"
       apply_with_weight="true"
       only_selected="false" />
    <inkscape:path-effect
       effect="bspline"
       id="path-effect2214"
       is_visible="true"
       lpeversion="1"
       weight="33.333333"
       steps="2"
       helper_size="0"
       apply_no_weight="true"
       apply_with_weight="true"
       only_selected="false" />
    <inkscape:path-effect
       effect="bspline"
       id="path-effect2210"
       is_visible="true"
       lpeversion="1"
       weight="33.333333"
       steps="2"
       helper_size="0"
       apply_no_weight="true"
       apply_with_weight="true"
       only_selected="false" />
    <inkscape:path-effect
       effect="bspline"
       id="path-effect2206"
       is_visible="true"
       lpeversion="1"
       weight="33.333333"
       steps="2"
       helper_size="0"
       apply_no_weight="true"
       apply_with_weight="true"
       only_selected="false" />
    <inkscape:path-effect
       effect="bspline"
       id="path-effect2182"
       is_visible="true"
       lpeversion="1"
       weight="33.333333"
       steps="2"
       helper_size="0"
       apply_no_weight="true"
       apply_with_weight="true"
       only_selected="false" />
    <inkscape:path-effect
       effect="bspline"
       id="path-effect2174"
       is_visible="true"
       lpeversion="1"
       weight="33.333333"
       steps="2"
       helper_size="0"
       apply_no_weight="true"
       apply_with_weight="true"
       only_selected="false" />
    <inkscape:path-effect
       effect="bspline"
       id="path-effect2170"
       is_visible="true"
       lpeversion="1"
       weight="33.333333"
       steps="2"
       helper_size="0"
       apply_no_weight="true"
       apply_with_weight="true"
       only_selected="false" />
    <inkscape:path-effect
       effect="bspline"
       id="path-effect2162"
       is_visible="true"
       lpeversion="1"
       weight="33.333333"
       steps="2"
       helper_size="0"
       apply_no_weight="true"
       apply_with_weight="true"
       only_selected="false" />
    <inkscape:path-effect
       effect="bspline"
       id="path-effect2158"
       is_visible="true"
       lpeversion="1"
       weight="33.333333"
       steps="2"
       helper_size="0"
       apply_no_weight="true"
       apply_with_weight="true"
       only_selected="false" />
    <inkscape:path-effect
       effect="bspline"
       id="path-effect2154"
       is_visible="true"
       lpeversion="1"
       weight="33.333333"
       steps="2"
       helper_size="0"
       apply_no_weight="true"
       apply_with_weight="true"
       only_selected="false" />
    <inkscape:path-effect
       effect="bspline"
       id="path-effect2150"
       is_visible="true"
       lpeversion="1"
       weight="33.333333"
       steps="2"
       helper_size="0"
       apply_no_weight="true"
       apply_with_weight="true"
       only_selected="false" />
    <inkscape:path-effect
       effect="bspline"
       id="path-effect2146"
       is_visible="true"
       lpeversion="1"
       weight="33.333333"
       steps="2"
       helper_size="0"
       apply_no_weight="true"
       apply_with_weight="true"
       only_selected="false" />
    <inkscape:path-effect
       effect="bspline"
       id="path-effect2142"
       is_visible="true"
       lpeversion="1"
       weight="33.333333"
       steps="2"
       helper_size="0"
       apply_no_weight="true"
       apply_with_weight="true"
       only_selected="false" />
    <inkscape:path-effect
       effect="bspline"
       id="path-effect2138"
       is_visible="true"
       lpeversion="1"
       weight="33.333333"
       steps="2"
       helper_size="0"
       apply_no_weight="true"
       apply_with_weight="true"
       only_selected="false" />
    <inkscape:path-effect
       effect="bspline"
       id="path-effect2134"
       is_visible="true"
       lpeversion="1"
       weight="33.333333"
       steps="2"
       helper_size="0"
       apply_no_weight="true"
       apply_with_weight="true"
       only_selected="false" />
    <inkscape:path-effect
       effect="bspline"
       id="path-effect2130"
       is_visible="true"
       lpeversion="1"
       weight="33.333333"
       steps="2"
       helper_size="0"
       apply_no_weight="true"
       apply_with_weight="true"
       only_selected="false" />
    <inkscape:path-effect
       effect="bspline"
       id="path-effect2095"
       is_visible="true"
       lpeversion="1"
       weight="33.333333"
       steps="2"
       helper_size="0"
       apply_no_weight="true"
       apply_with_weight="true"
       only_selected="false" />
    <inkscape:path-effect
       effect="bspline"
       id="path-effect2091"
       is_visible="true"
       lpeversion="1"
       weight="33.333333"
       steps="2"
       helper_size="0"
       apply_no_weight="true"
       apply_with_weight="true"
       only_selected="false" />
    <inkscape:path-effect
       effect="bspline"
       id="path-effect2087"
       is_visible="true"
       lpeversion="1"
       weight="33.333333"
       steps="2"
       helper_size="0"
       apply_no_weight="true"
       apply_with_weight="true"
       only_selected="false" />
    <inkscape:path-effect
       effect="bspline"
       id="path-effect2083"
       is_visible="true"
       lpeversion="1"
       weight="33.333333"
       steps="2"
       helper_size="0"
       apply_no_weight="true"
       apply_with_weight="true"
       only_selected="false" />
    <inkscape:path-effect
       effect="bspline"
       id="path-effect2079"
       is_visible="true"
       lpeversion="1"
       weight="33.333333"
       steps="2"
       helper_size="0"
       apply_no_weight="true"
       apply_with_weight="true"
       only_selected="false" />
    <inkscape:path-effect
       effect="bspline"
       id="path-effect2075"
       is_visible="true"
       lpeversion="1"
       weight="33.333333"
       steps="2"
       helper_size="0"
       apply_no_weight="true"
       apply_with_weight="true"
       only_selected="false" />
    <inkscape:path-effect
       effect="bspline"
       id="path-effect2071"
       is_visible="true"
       lpeversion="1"
       weight="33.333333"
       steps="2"
       helper_size="0"
       apply_no_weight="true"
       apply_with_weight="true"
       only_selected="false" />
    <inkscape:path-effect
       effect="bspline"
       id="path-effect2067"
       is_visible="true"
       lpeversion="1"
       weight="33.333333"
       steps="2"
       helper_size="0"
       apply_no_weight="true"
       apply_with_weight="true"
       only_selected="false" />
    <inkscape:path-effect
       effect="bspline"
       id="path-effect2023"
       is_visible="true"
       lpeversion="1"
       weight="33.333333"
       steps="2"
       helper_size="0"
       apply_no_weight="true"
       apply_with_weight="true"
       only_selected="false" />
    <inkscape:path-effect
       effect="bspline"
       id="path-effect1263"
       is_visible="true"
       lpeversion="1"
       weight="33.333333"
       steps="2"
       helper_size="0"
       apply_no_weight="true"
       apply_with_weight="true"
       only_selected="false" />
    <inkscape:path-effect
       effect="bspline"
       id="path-effect1255"
       is_visible="true"
       lpeversion="1"
       weight="33.333333"
       steps="2"
       helper_size="0"
       apply_no_weight="true"
       apply_with_weight="true"
       only_selected="false" />
    <inkscape:path-effect
       effect="bspline"
       id="path-effect1243"
       is_visible="true"
       lpeversion="1"
       weight="33.333333"
       steps="2"
       helper_size="0"
       apply_no_weight="true"
       apply_with_weight="true"
       only_selected="false" />
    <inkscape:path-effect
       effect="bspline"
       id="path-effect1194"
       is_visible="true"
       lpeversion="1"
       weight="33.333333"
       steps="2"
       helper_size="0"
       apply_no_weight="true"
       apply_with_weight="true"
       only_selected="false" />
    <inkscape:path-effect
       effect="bspline"
       id="path-effect1174"
       is_visible="true"
       lpeversion="1"
       weight="33.333333"
       steps="2"
       helper_size="0"
       apply_no_weight="true"
       apply_with_weight="true"
       only_selected="false" />
    <inkscape:path-effect
       effect="bspline"
       id="path-effect1166"
       is_visible="true"
       lpeversion="1"
       weight="33.333333"
       steps="2"
       helper_size="0"
       apply_no_weight="true"
       apply_with_weight="true"
       only_selected="false" />
    <inkscape:path-effect
       effect="bspline"
       id="path-effect1158"
       is_visible="true"
       lpeversion="1"
       weight="33.333333"
       steps="2"
       helper_size="0"
       apply_no_weight="true"
       apply_with_weight="true"
       only_selected="false" />
    <inkscape:path-effect
       effect="bspline"
       id="path-effect1154"
       is_visible="true"
       lpeversion="1"
       weight="33.333333"
       steps="2"
       helper_size="0"
       apply_no_weight="true"
       apply_with_weight="true"
       only_selected="false" />
    <inkscape:path-effect
       effect="bspline"
       id="path-effect1144"
       is_visible="true"
       lpeversion="1"
       weight="33.333333"
       steps="2"
       helper_size="0"
       apply_no_weight="true"
       apply_with_weight="true"
       only_selected="false" />
    <inkscape:path-effect
       effect="bspline"
       id="path-effect1140"
       is_visible="true"
       lpeversion="1"
       weight="33.333333"
       steps="2"
       helper_size="0"
       apply_no_weight="true"
       apply_with_weight="true"
       only_selected="false" />
    <inkscape:path-effect
       effect="bspline"
       id="path-effect1130"
       is_visible="true"
       lpeversion="1"
       weight="33.333333"
       steps="2"
       helper_size="0"
       apply_no_weight="true"
       apply_with_weight="true"
       only_selected="false" />
    <inkscape:path-effect
       effect="bspline"
       id="path-effect1126"
       is_visible="true"
       lpeversion="1"
       weight="33.333333"
       steps="2"
       helper_size="0"
       apply_no_weight="true"
       apply_with_weight="true"
       only_selected="false" />
    <inkscape:path-effect
       effect="bspline"
       id="path-effect557"
       is_visible="true"
       lpeversion="1"
       weight="33.333333"
       steps="2"
       helper_size="0"
       apply_no_weight="true"
       apply_with_weight="true"
       only_selected="false" />
    <inkscape:path-effect
       effect="bspline"
       id="path-effect545"
       is_visible="true"
       lpeversion="1"
       weight="33.333333"
       steps="2"
       helper_size="0"
       apply_no_weight="true"
       apply_with_weight="true"
       only_selected="false" />
    <radialGradient
       inkscape:collect="always"
       xlink:href="#cvfa"
       id="radialGradient26072"
       gradientUnits="userSpaceOnUse"
       gradientTransform="matrix(0.25770416,0.39952083,-0.22119166,0.142875,67.304414,63.325858)"
       cx="117"
       cy="98.300003"
       r="55.900002" />
    <radialGradient
       id="cvfa"
       cx="117"
       cy="98.300003"
       r="55.900002"
       gradientTransform="matrix(0.25770416,0.39952083,-0.22119166,0.142875,67.304414,63.325858)"
       gradientUnits="userSpaceOnUse"
       inkscape:collect="always">
      <stop
         offset="0"
         id="stop24568" />
      <stop
         style="stop-opacity:.897"
         offset="1"
         id="stop24570" />
    </radialGradient>
    <linearGradient
       inkscape:collect="always"
       xlink:href="#cvfb"
       id="linearGradient26074"
       gradientUnits="userSpaceOnUse"
       gradientTransform="matrix(0.2778125,0,0,0.3413125,37.882745,-171.35956)"
       x1="143"
       y1="832"
       x2="143"
       y2="879" />
    <linearGradient
       id="cvfb"
       x1="143"
       x2="143"
       y1="832"
       y2="879"
       gradientUnits="userSpaceOnUse"
       inkscape:collect="always"
       gradientTransform="matrix(0.2778125,0,0,0.3413125,37.882745,-171.35956)">
      <stop
         style="stop-color:#fff"
         offset="0"
         id="stop24563" />
      <stop
         style="stop-color:#fff;stop-opacity:0"
         offset="1"
         id="stop24565" />
    </linearGradient>
    <radialGradient
       inkscape:collect="always"
       xlink:href="#cvfa"
       id="radialGradient853"
       gradientUnits="userSpaceOnUse"
       gradientTransform="matrix(0.25770416,0.39952083,-0.22119166,0.142875,67.304414,63.325858)"
       cx="117"
       cy="98.300003"
       r="55.900002" />
    <linearGradient
       inkscape:collect="always"
       xlink:href="#cvfb"
       id="linearGradient855"
       gradientUnits="userSpaceOnUse"
       gradientTransform="matrix(0.2778125,0,0,0.3413125,37.882745,-171.35956)"
       x1="143"
       y1="832"
       x2="143"
       y2="879" />
  </defs>
  <g
     inkscape:label="Ebene 1"
     inkscape:groupmode="layer"
     id="layer1"
     transform="translate(-45.978108,-13.424469)">
    <path
       style="opacity:1;vector-effect:none;fill:none;fill-opacity:1;fill-rule:evenodd;stroke:#000000;stroke-width:0.529167;stroke-linecap:round;stroke-linejoin:miter;stroke-miterlimit:4;stroke-dasharray:2.11667, 4.23334;stroke-dashoffset:0;stroke-opacity:1;paint-order:normal"
       d="m 80.360415,111.98897 c 1.418221,-0.10505 2.834005,-0.20992 6.530727,-0.57701 3.696721,-0.36709 9.674475,-0.99633 14.970678,-1.36329 5.2962,-0.36696 9.9106,-0.47183 13.16169,-0.52423 3.25109,-0.0524 5.13881,-0.0524 7.23644,0.13135 2.09762,0.18377 4.40482,0.55082 6.70904,0.9174"
       id="path932"
       inkscape:path-effect="#path-effect934"
       inkscape:original-d="m 80.360415,111.98897 c 1.418431,-0.10222 2.834214,-0.2071 4.247351,-0.31461 5.980401,-0.6266 11.958156,-1.25583 17.933254,-1.88772 4.61706,-0.10222 9.23146,-0.2071 13.84323,-0.31461 1.89035,0.003 3.77807,0.003 5.66313,0 2.30985,0.36969 4.61705,0.73675 6.92161,1.10116" />
    <text
       xml:space="preserve"
       style="font-style:normal;font-variant:normal;font-weight:normal;font-stretch:normal;font-size:6.35px;line-height:5.4px;font-family:Consolas;-inkscape-font-specification:Consolas;letter-spacing:0px;word-spacing:0px;writing-mode:lr-tb;fill:#000000;fill-opacity:1;stroke:none;stroke-width:0.264583px;stroke-linecap:butt;stroke-linejoin:miter;stroke-opacity:1"
       x="47.903786"
       y="76.797638"
       id="text4669"><tspan
         sodipodi:role="line"
         style="font-style:normal;font-variant:normal;font-weight:normal;font-stretch:normal;font-size:6.35px;font-family:Consolas;-inkscape-font-specification:Consolas;fill:#000000;fill-opacity:1;stroke:none;stroke-width:0.264583px"
         x="47.903786"
         y="76.797638"
         id="tspan6177">11000010001011</tspan><tspan
         sodipodi:role="line"
         style="font-style:normal;font-variant:normal;font-weight:normal;font-stretch:normal;font-size:6.35px;font-family:Consolas;-inkscape-font-specification:Consolas;fill:#000000;fill-opacity:1;stroke:none;stroke-width:0.264583px"
         x="47.903786"
         y="82.197639"
         id="tspan6905">00011001100...</tspan></text>
    <g
       id="g1136"
       transform="translate(-72.676907,-24.854873)">
      <path
         style="opacity:1;vector-effect:none;fill:#ffffff;fill-opacity:1;fill-rule:evenodd;stroke:#000000;stroke-width:0.529167;stroke-linecap:round;stroke-linejoin:miter;stroke-miterlimit:4;stroke-dasharray:none;stroke-dashoffset:0;stroke-opacity:1;paint-order:normal"
         d="m 136.12756,65.112076 c 0.28813,-2.488423 0.57653,-4.979155 0.66847,-8.033372 0.0919,-3.054217 -0.0129,-6.672331 -0.23562,-9.674195 -0.22268,-3.001864 -0.56352,-5.387724 -0.79908,-6.750958 -0.23556,-1.363233 -0.36665,-1.70407 -0.30054,-1.88931 0.0661,-0.185239 0.32829,-0.211456 0.80053,-0.17178 0.47224,0.03968 1.15392,0.144549 1.97969,0.223049 0.82577,0.0785 1.79584,0.130937 3.64412,0.117716 1.84828,-0.01322 4.57497,-0.09188 6.08213,-0.170739 1.50717,-0.07886 1.79556,-0.157517 1.95332,-0.196599 0.15775,-0.03908 0.18395,-0.03908 0.32797,0.132807 0.14402,0.17189 0.4062,0.512727 1.0617,1.325463 0.65551,0.812736 1.70424,2.097429 2.72694,3.198418 1.02271,1.100989 2.01901,2.018625 2.59596,2.529631 0.57695,0.511006 0.73426,0.615879 0.79959,0.667299 0.0653,0.05142 0.0391,0.05142 0.0247,0.03964 -0.0145,-0.01179 -0.0145,-0.03801 -0.0145,-0.03801 0,0 0,0.02622 -0.0395,0.235658 -0.0395,0.209439 -0.11818,0.602713 -0.22302,1.218914 -0.10484,0.616201 -0.23594,1.455183 -0.51123,3.251137 -0.27528,1.795954 -0.69477,4.548867 -0.99624,6.790599 -0.30146,2.241732 -0.48499,3.972134 -0.57663,5.296308 -0.0916,1.324174 -0.0916,2.241811 -0.0916,2.792393 0,0.550583 0,0.734111 0,0.865202 0,0.131091 0,0.209746 -0.0118,0.24775 -0.0118,0.038 -0.038,0.038 -0.0642,0.02621 -0.0262,-0.0118 -0.0524,-0.03802 -0.0917,-0.05243 -0.0393,-0.01442 -0.0917,-0.01442 -0.18327,-0.05281 -0.0915,-0.0384 -0.22262,-0.117049 -1.0747,-0.379719 -0.85207,-0.26267 -2.42517,-0.708381 -4.73255,-1.02336 -2.30737,-0.314978 -5.34869,-0.498506 -7.34147,-0.551127 -1.99278,-0.05262 -2.93663,0.02603 -3.40976,0.07989 -0.47313,0.05386 -0.47313,0.08008 -0.49803,0.09186 -0.0249,0.01179 -0.0773,0.01179 -0.13056,0.02463 -0.0532,0.01285 -0.10567,0.03906 -0.15916,0.0658"
         id="path1132"
         inkscape:path-effect="#path-effect1140"
         inkscape:original-d="m 136.12756,65.112076 c 0.29104,-2.488086 0.57944,-4.978818 0.8652,-7.472193 -0.10223,-3.61547 -0.2071,-7.233584 -0.31462,-10.854343 -0.33819,-2.383213 -0.67903,-4.769072 -1.02251,-7.157575 -0.12845,-0.338191 -0.25954,-0.679028 -0.39327,-1.02251 0.26483,-0.02357 0.52701,-0.04979 0.78654,-0.07865 0.68432,0.107519 1.366,0.212392 2.04503,0.314619 0.97272,0.05508 1.94279,0.107519 2.91022,0.157309 2.72934,-0.07601 5.45603,-0.154663 8.18008,-0.235964 0.29105,-0.07601 0.57945,-0.154663 0.8652,-0.235964 0.0289,0.0026 0.0551,0.0026 0.0787,0 0.26483,0.343483 0.52701,0.68432 0.78654,1.022511 1.05138,1.287338 2.10011,2.572031 3.14619,3.854078 0.99894,0.920284 1.99523,1.837921 2.98888,2.752913 0.15995,0.107519 0.31726,0.212392 0.47193,0.314619 -0.0236,0.0026 -0.0498,0.0026 -0.0787,0 0.003,-0.02357 0.003,-0.04979 0,-0.07865 0.003,0.02886 0.003,0.05508 0,0.07865 -0.076,0.395919 -0.15466,0.789192 -0.23596,1.17982 -0.12845,0.841629 -0.25954,1.680612 -0.39328,2.516949 -0.41684,2.755559 -0.83633,5.508472 -1.25847,8.258739 -0.18088,1.733049 -0.36441,3.463451 -0.55058,5.191208 0.003,0.920284 0.003,1.837921 0,2.752913 0.003,0.186173 0.003,0.369701 0,0.550583 0.003,0.0813 0.003,0.159955 0,0.235964 -0.0236,0.0026 -0.0498,0.0026 -0.0787,0 -0.0236,-0.02357 -0.0498,-0.04979 -0.0786,-0.07865 -0.0498,0.0026 -0.10223,0.0026 -0.15731,0 -0.12845,-0.07601 -0.25954,-0.154663 -0.39327,-0.235964 -1.57045,-0.443064 -3.14355,-0.888774 -4.71928,-1.337129 -3.03867,-0.180882 -6.07999,-0.364409 -9.12395,-0.550583 -0.94121,0.0813 -1.88506,0.159955 -2.83156,0.235964 0.003,0.02886 0.003,0.05508 0,0.07865 -0.0498,0.0026 -0.10223,0.0026 -0.15731,0 -0.0498,0.02886 -0.10223,0.05508 -0.15731,0.07865" />
      <path
         style="opacity:1;vector-effect:none;fill:#ffffff;fill-opacity:1;fill-rule:evenodd;stroke:#000000;stroke-width:0.529167;stroke-linecap:round;stroke-linejoin:miter;stroke-miterlimit:4;stroke-dasharray:none;stroke-dashoffset:0;stroke-opacity:1;paint-order:normal"
         d="m 150.06883,39.029438 c 0.0187,0.262369 0.0373,0.521914 0.0651,0.827843 0.0279,0.305929 0.0649,0.658176 0.0555,1.538605 -0.009,0.88043 -0.0651,2.289399 -0.10224,3.077203 -0.0371,0.787804 -0.0557,0.954652 -0.0648,1.103128 -0.009,0.148476 -0.009,0.278249 -0.009,0.398753 0,0.120505 0,0.231738 0,0.315162 0,0.08342 0,0.139046 0,0.176125 0,0.03708 0,0.05562 0.0106,0.06357 0.0106,0.0079 0.0291,0.0079 0.20529,0.01729 0.17619,0.0093 0.5099,0.02789 0.93635,0.06504 0.42646,0.03716 0.94555,0.09277 1.49241,0.139056 0.54686,0.04628 1.12157,0.08336 1.87237,0.120404 0.7508,0.03704 1.67776,0.07412 2.60197,0.11109"
         id="path1134"
         inkscape:path-effect="#path-effect1144"
         inkscape:original-d="m 150.06883,39.029438 c 0.0212,0.262193 0.0397,0.52174 0.0556,0.77864 0.0397,0.354888 0.0768,0.707133 0.11124,1.05673 -0.053,1.411615 -0.10859,2.820585 -0.16685,4.226909 -0.0159,0.169497 -0.0344,0.336349 -0.0556,0.500555 0.003,0.132421 0.003,0.262194 0,0.389321 0.003,0.113882 0.003,0.225115 0,0.333703 0.003,0.05826 0.003,0.113882 0,0.166851 0.003,0.02119 0.003,0.03973 0,0.05562 0.0212,0.0026 0.0397,0.0026 0.0556,0 0.33634,0.02119 0.67005,0.03972 1.00111,0.05562 0.52174,0.05826 1.04083,0.113879 1.55728,0.166851 0.57736,0.03972 1.15207,0.0768 1.72413,0.111234 0.9296,0.03972 1.85656,0.0768 2.78087,0.111236" />
    </g>
    <g
       id="g1150"
       transform="translate(-58.788174,-6.8629997)">
      <path
         style="opacity:1;vector-effect:none;fill:#ffffff;fill-opacity:1;fill-rule:evenodd;stroke:#000000;stroke-width:0.529167;stroke-linecap:round;stroke-linejoin:miter;stroke-miterlimit:4;stroke-dasharray:none;stroke-dashoffset:0;stroke-opacity:1;paint-order:normal"
         d="m 136.12756,65.112076 c 0.28813,-2.488423 0.57653,-4.979155 0.66847,-8.033372 0.0919,-3.054217 -0.0129,-6.672331 -0.23562,-9.674195 -0.22268,-3.001864 -0.56352,-5.387724 -0.79908,-6.750958 -0.23556,-1.363233 -0.36665,-1.70407 -0.30054,-1.88931 0.0661,-0.185239 0.32829,-0.211456 0.80053,-0.17178 0.47224,0.03968 1.15392,0.144549 1.97969,0.223049 0.82577,0.0785 1.79584,0.130937 3.64412,0.117716 1.84828,-0.01322 4.57497,-0.09188 6.08213,-0.170739 1.50717,-0.07886 1.79556,-0.157517 1.95332,-0.196599 0.15775,-0.03908 0.18395,-0.03908 0.32797,0.132807 0.14402,0.17189 0.4062,0.512727 1.0617,1.325463 0.65551,0.812736 1.70424,2.097429 2.72694,3.198418 1.02271,1.100989 2.01901,2.018625 2.59596,2.529631 0.57695,0.511006 0.73426,0.615879 0.79959,0.667299 0.0653,0.05142 0.0391,0.05142 0.0247,0.03964 -0.0145,-0.01179 -0.0145,-0.03801 -0.0145,-0.03801 0,0 0,0.02622 -0.0395,0.235658 -0.0395,0.209439 -0.11818,0.602713 -0.22302,1.218914 -0.10484,0.616201 -0.23594,1.455183 -0.51123,3.251137 -0.27528,1.795954 -0.69477,4.548867 -0.99624,6.790599 -0.30146,2.241732 -0.48499,3.972134 -0.57663,5.296308 -0.0916,1.324174 -0.0916,2.241811 -0.0916,2.792393 0,0.550583 0,0.734111 0,0.865202 0,0.131091 0,0.209746 -0.0118,0.24775 -0.0118,0.038 -0.038,0.038 -0.0642,0.02621 -0.0262,-0.0118 -0.0524,-0.03802 -0.0917,-0.05243 -0.0393,-0.01442 -0.0917,-0.01442 -0.18327,-0.05281 -0.0915,-0.0384 -0.22262,-0.117049 -1.0747,-0.379719 -0.85207,-0.26267 -2.42517,-0.708381 -4.73255,-1.02336 -2.30737,-0.314978 -5.34869,-0.498506 -7.34147,-0.551127 -1.99278,-0.05262 -2.93663,0.02603 -3.40976,0.07989 -0.47313,0.05386 -0.47313,0.08008 -0.49803,0.09186 -0.0249,0.01179 -0.0773,0.01179 -0.13056,0.02463 -0.0532,0.01285 -0.10567,0.03906 -0.15916,0.0658"
         id="path1146"
         inkscape:path-effect="#path-effect1154"
         inkscape:original-d="m 136.12756,65.112076 c 0.29104,-2.488086 0.57944,-4.978818 0.8652,-7.472193 -0.10223,-3.61547 -0.2071,-7.233584 -0.31462,-10.854343 -0.33819,-2.383213 -0.67903,-4.769072 -1.02251,-7.157575 -0.12845,-0.338191 -0.25954,-0.679028 -0.39327,-1.02251 0.26483,-0.02357 0.52701,-0.04979 0.78654,-0.07865 0.68432,0.107519 1.366,0.212392 2.04503,0.314619 0.97272,0.05508 1.94279,0.107519 2.91022,0.157309 2.72934,-0.07601 5.45603,-0.154663 8.18008,-0.235964 0.29105,-0.07601 0.57945,-0.154663 0.8652,-0.235964 0.0289,0.0026 0.0551,0.0026 0.0787,0 0.26483,0.343483 0.52701,0.68432 0.78654,1.022511 1.05138,1.287338 2.10011,2.572031 3.14619,3.854078 0.99894,0.920284 1.99523,1.837921 2.98888,2.752913 0.15995,0.107519 0.31726,0.212392 0.47193,0.314619 -0.0236,0.0026 -0.0498,0.0026 -0.0787,0 0.003,-0.02357 0.003,-0.04979 0,-0.07865 0.003,0.02886 0.003,0.05508 0,0.07865 -0.076,0.395919 -0.15466,0.789192 -0.23596,1.17982 -0.12845,0.841629 -0.25954,1.680612 -0.39328,2.516949 -0.41684,2.755559 -0.83633,5.508472 -1.25847,8.258739 -0.18088,1.733049 -0.36441,3.463451 -0.55058,5.191208 0.003,0.920284 0.003,1.837921 0,2.752913 0.003,0.186173 0.003,0.369701 0,0.550583 0.003,0.0813 0.003,0.159955 0,0.235964 -0.0236,0.0026 -0.0498,0.0026 -0.0787,0 -0.0236,-0.02357 -0.0498,-0.04979 -0.0786,-0.07865 -0.0498,0.0026 -0.10223,0.0026 -0.15731,0 -0.12845,-0.07601 -0.25954,-0.154663 -0.39327,-0.235964 -1.57045,-0.443064 -3.14355,-0.888774 -4.71928,-1.337129 -3.03867,-0.180882 -6.07999,-0.364409 -9.12395,-0.550583 -0.94121,0.0813 -1.88506,0.159955 -2.83156,0.235964 0.003,0.02886 0.003,0.05508 0,0.07865 -0.0498,0.0026 -0.10223,0.0026 -0.15731,0 -0.0498,0.02886 -0.10223,0.05508 -0.15731,0.07865" />
      <path
         style="opacity:1;vector-effect:none;fill:#ffffff;fill-opacity:1;fill-rule:evenodd;stroke:#000000;stroke-width:0.529167;stroke-linecap:round;stroke-linejoin:miter;stroke-miterlimit:4;stroke-dasharray:none;stroke-dashoffset:0;stroke-opacity:1;paint-order:normal"
         d="m 150.06883,39.029438 c 0.0187,0.262369 0.0373,0.521914 0.0651,0.827843 0.0279,0.305929 0.0649,0.658176 0.0555,1.538605 -0.009,0.88043 -0.0651,2.289399 -0.10224,3.077203 -0.0371,0.787804 -0.0557,0.954652 -0.0648,1.103128 -0.009,0.148476 -0.009,0.278249 -0.009,0.398753 0,0.120505 0,0.231738 0,0.315162 0,0.08342 0,0.139046 0,0.176125 0,0.03708 0,0.05562 0.0106,0.06357 0.0106,0.0079 0.0291,0.0079 0.20529,0.01729 0.17619,0.0093 0.5099,0.02789 0.93635,0.06504 0.42646,0.03716 0.94555,0.09277 1.49241,0.139056 0.54686,0.04628 1.12157,0.08336 1.87237,0.120404 0.7508,0.03704 1.67776,0.07412 2.60197,0.11109"
         id="path1148"
         inkscape:path-effect="#path-effect1158"
         inkscape:original-d="m 150.06883,39.029438 c 0.0212,0.262193 0.0397,0.52174 0.0556,0.77864 0.0397,0.354888 0.0768,0.707133 0.11124,1.05673 -0.053,1.411615 -0.10859,2.820585 -0.16685,4.226909 -0.0159,0.169497 -0.0344,0.336349 -0.0556,0.500555 0.003,0.132421 0.003,0.262194 0,0.389321 0.003,0.113882 0.003,0.225115 0,0.333703 0.003,0.05826 0.003,0.113882 0,0.166851 0.003,0.02119 0.003,0.03973 0,0.05562 0.0212,0.0026 0.0397,0.0026 0.0556,0 0.33634,0.02119 0.67005,0.03972 1.00111,0.05562 0.52174,0.05826 1.04083,0.113879 1.55728,0.166851 0.57736,0.03972 1.15207,0.0768 1.72413,0.111234 0.9296,0.03972 1.85656,0.0768 2.78087,0.111236" />
    </g>
    <g
       id="g1122"
       transform="translate(-89.197098,-8.9955395)">
      <path
         style="opacity:1;vector-effect:none;fill:#ffffff;fill-opacity:1;fill-rule:evenodd;stroke:#000000;stroke-width:0.529167;stroke-linecap:round;stroke-linejoin:miter;stroke-miterlimit:4;stroke-dasharray:none;stroke-dashoffset:0;stroke-opacity:1;paint-order:normal"
         d="m 136.12756,65.112076 c 0.28813,-2.488423 0.57653,-4.979155 0.66847,-8.033372 0.0919,-3.054217 -0.0129,-6.672331 -0.23562,-9.674195 -0.22268,-3.001864 -0.56352,-5.387724 -0.79908,-6.750958 -0.23556,-1.363233 -0.36665,-1.70407 -0.30054,-1.88931 0.0661,-0.185239 0.32829,-0.211456 0.80053,-0.17178 0.47224,0.03968 1.15392,0.144549 1.97969,0.223049 0.82577,0.0785 1.79584,0.130937 3.64412,0.117716 1.84828,-0.01322 4.57497,-0.09188 6.08213,-0.170739 1.50717,-0.07886 1.79556,-0.157517 1.95332,-0.196599 0.15775,-0.03908 0.18395,-0.03908 0.32797,0.132807 0.14402,0.17189 0.4062,0.512727 1.0617,1.325463 0.65551,0.812736 1.70424,2.097429 2.72694,3.198418 1.02271,1.100989 2.01901,2.018625 2.59596,2.529631 0.57695,0.511006 0.73426,0.615879 0.79959,0.667299 0.0653,0.05142 0.0391,0.05142 0.0247,0.03964 -0.0145,-0.01179 -0.0145,-0.03801 -0.0145,-0.03801 0,0 0,0.02622 -0.0395,0.235658 -0.0395,0.209439 -0.11818,0.602713 -0.22302,1.218914 -0.10484,0.616201 -0.23594,1.455183 -0.51123,3.251137 -0.27528,1.795954 -0.69477,4.548867 -0.99624,6.790599 -0.30146,2.241732 -0.48499,3.972134 -0.57663,5.296308 -0.0916,1.324174 -0.0916,2.241811 -0.0916,2.792393 0,0.550583 0,0.734111 0,0.865202 0,0.131091 0,0.209746 -0.0118,0.24775 -0.0118,0.038 -0.038,0.038 -0.0642,0.02621 -0.0262,-0.0118 -0.0524,-0.03802 -0.0917,-0.05243 -0.0393,-0.01442 -0.0917,-0.01442 -0.18327,-0.05281 -0.0915,-0.0384 -0.22262,-0.117049 -1.0747,-0.379719 -0.85207,-0.26267 -2.42517,-0.708381 -4.73255,-1.02336 -2.30737,-0.314978 -5.34869,-0.498506 -7.34147,-0.551127 -1.99278,-0.05262 -2.93663,0.02603 -3.40976,0.07989 -0.47313,0.05386 -0.47313,0.08008 -0.49803,0.09186 -0.0249,0.01179 -0.0773,0.01179 -0.13056,0.02463 -0.0532,0.01285 -0.10567,0.03906 -0.15916,0.0658"
         id="path1118"
         inkscape:path-effect="#path-effect1126"
         inkscape:original-d="m 136.12756,65.112076 c 0.29104,-2.488086 0.57944,-4.978818 0.8652,-7.472193 -0.10223,-3.61547 -0.2071,-7.233584 -0.31462,-10.854343 -0.33819,-2.383213 -0.67903,-4.769072 -1.02251,-7.157575 -0.12845,-0.338191 -0.25954,-0.679028 -0.39327,-1.02251 0.26483,-0.02357 0.52701,-0.04979 0.78654,-0.07865 0.68432,0.107519 1.366,0.212392 2.04503,0.314619 0.97272,0.05508 1.94279,0.107519 2.91022,0.157309 2.72934,-0.07601 5.45603,-0.154663 8.18008,-0.235964 0.29105,-0.07601 0.57945,-0.154663 0.8652,-0.235964 0.0289,0.0026 0.0551,0.0026 0.0787,0 0.26483,0.343483 0.52701,0.68432 0.78654,1.022511 1.05138,1.287338 2.10011,2.572031 3.14619,3.854078 0.99894,0.920284 1.99523,1.837921 2.98888,2.752913 0.15995,0.107519 0.31726,0.212392 0.47193,0.314619 -0.0236,0.0026 -0.0498,0.0026 -0.0787,0 0.003,-0.02357 0.003,-0.04979 0,-0.07865 0.003,0.02886 0.003,0.05508 0,0.07865 -0.076,0.395919 -0.15466,0.789192 -0.23596,1.17982 -0.12845,0.841629 -0.25954,1.680612 -0.39328,2.516949 -0.41684,2.755559 -0.83633,5.508472 -1.25847,8.258739 -0.18088,1.733049 -0.36441,3.463451 -0.55058,5.191208 0.003,0.920284 0.003,1.837921 0,2.752913 0.003,0.186173 0.003,0.369701 0,0.550583 0.003,0.0813 0.003,0.159955 0,0.235964 -0.0236,0.0026 -0.0498,0.0026 -0.0787,0 -0.0236,-0.02357 -0.0498,-0.04979 -0.0786,-0.07865 -0.0498,0.0026 -0.10223,0.0026 -0.15731,0 -0.12845,-0.07601 -0.25954,-0.154663 -0.39327,-0.235964 -1.57045,-0.443064 -3.14355,-0.888774 -4.71928,-1.337129 -3.03867,-0.180882 -6.07999,-0.364409 -9.12395,-0.550583 -0.94121,0.0813 -1.88506,0.159955 -2.83156,0.235964 0.003,0.02886 0.003,0.05508 0,0.07865 -0.0498,0.0026 -0.10223,0.0026 -0.15731,0 -0.0498,0.02886 -0.10223,0.05508 -0.15731,0.07865" />
      <path
         style="opacity:1;vector-effect:none;fill:#ffffff;fill-opacity:1;fill-rule:evenodd;stroke:#000000;stroke-width:0.529167;stroke-linecap:round;stroke-linejoin:miter;stroke-miterlimit:4;stroke-dasharray:none;stroke-dashoffset:0;stroke-opacity:1;paint-order:normal"
         d="m 150.06883,39.029438 c 0.0187,0.262369 0.0373,0.521914 0.0651,0.827843 0.0279,0.305929 0.0649,0.658176 0.0555,1.538605 -0.009,0.88043 -0.0651,2.289399 -0.10224,3.077203 -0.0371,0.787804 -0.0557,0.954652 -0.0648,1.103128 -0.009,0.148476 -0.009,0.278249 -0.009,0.398753 0,0.120505 0,0.231738 0,0.315162 0,0.08342 0,0.139046 0,0.176125 0,0.03708 0,0.05562 0.0106,0.06357 0.0106,0.0079 0.0291,0.0079 0.20529,0.01729 0.17619,0.0093 0.5099,0.02789 0.93635,0.06504 0.42646,0.03716 0.94555,0.09277 1.49241,0.139056 0.54686,0.04628 1.12157,0.08336 1.87237,0.120404 0.7508,0.03704 1.67776,0.07412 2.60197,0.11109"
         id="path1120"
         inkscape:path-effect="#path-effect1130"
         inkscape:original-d="m 150.06883,39.029438 c 0.0212,0.262193 0.0397,0.52174 0.0556,0.77864 0.0397,0.354888 0.0768,0.707133 0.11124,1.05673 -0.053,1.411615 -0.10859,2.820585 -0.16685,4.226909 -0.0159,0.169497 -0.0344,0.336349 -0.0556,0.500555 0.003,0.132421 0.003,0.262194 0,0.389321 0.003,0.113882 0.003,0.225115 0,0.333703 0.003,0.05826 0.003,0.113882 0,0.166851 0.003,0.02119 0.003,0.03973 0,0.05562 0.0212,0.0026 0.0397,0.0026 0.0556,0 0.33634,0.02119 0.67005,0.03972 1.00111,0.05562 0.52174,0.05826 1.04083,0.113879 1.55728,0.166851 0.57736,0.03972 1.15207,0.0768 1.72413,0.111234 0.9296,0.03972 1.85656,0.0768 2.78087,0.111236" />
    </g>
    <path
       style="opacity:1;vector-effect:none;fill:none;fill-opacity:1;fill-rule:evenodd;stroke:#000000;stroke-width:0.529167;stroke-linecap:round;stroke-linejoin:miter;stroke-miterlimit:4;stroke-dasharray:none;stroke-dashoffset:0;stroke-opacity:1;paint-order:normal"
       d="m 71.945356,43.953972 c 0,0.631883 0,1.26112 -0.02624,2.912841 -0.02624,1.651721 -0.07868,4.325979 -0.183593,7.183721 -0.104912,2.857741 -0.262221,5.899055 -0.34081,8.232548 -0.07859,2.333493 -0.07859,3.959022 -0.07859,5.581907"
       id="path1164"
       inkscape:path-effect="#path-effect1166"
       inkscape:original-d="m 71.945356,43.953972 c 0.0026,0.631883 0.0026,1.26112 0,1.887712 -0.04979,2.676903 -0.102227,5.351161 -0.157311,8.022775 -0.154662,3.04396 -0.311972,6.085274 -0.471926,9.123939 0.0026,1.628177 0.0026,3.253706 0,4.876591" />
    <path
       style="opacity:1;vector-effect:none;fill:none;fill-opacity:1;fill-rule:evenodd;stroke:#000000;stroke-width:0.529167;stroke-linecap:round;stroke-linejoin:miter;stroke-miterlimit:4;stroke-dasharray:none;stroke-dashoffset:0;stroke-opacity:1;paint-order:normal"
       d="m 67.855313,60.628759 c 0.473176,1.209229 0.945105,2.41527 1.390623,3.778589 0.445517,1.36332 0.865009,2.883976 1.154503,3.696191 0.289495,0.812215 0.446803,0.917087 0.551472,0.996046 0.104669,0.07896 0.157108,0.131397 0.209542,0.156292 0.05244,0.0249 0.104874,0.0249 0.339243,-0.446419 0.234368,-0.471315 0.653859,-1.415172 1.04715,-2.228076 0.39329,-0.812905 0.760346,-1.494579 1.15361,-2.254851 0.393264,-0.760273 0.812755,-1.599255 1.232776,-2.439297"
       id="path1172"
       inkscape:path-effect="#path-effect1174"
       inkscape:original-d="m 67.855313,60.628759 c 0.474573,1.208683 0.946502,2.414723 1.415783,3.618114 0.422137,1.523304 0.841629,3.04396 1.258475,4.561972 0.159956,0.107519 0.317264,0.212392 0.471929,0.314619 0.05508,0.05508 0.107519,0.107518 0.157308,0.157308 0.05508,0.0026 0.107519,0.0026 0.157311,0 0.422137,-0.94121 0.841629,-1.885067 1.258472,-2.831568 0.369702,-0.679027 0.736756,-1.360702 1.101166,-2.045021 0.422138,-0.836337 0.841629,-1.67532 1.258475,-2.516949" />
    <path
       style="opacity:1;vector-effect:none;fill:none;fill-opacity:1;fill-rule:evenodd;stroke:#000000;stroke-width:0.529167;stroke-linecap:round;stroke-linejoin:miter;stroke-miterlimit:4;stroke-dasharray:none;stroke-dashoffset:0;stroke-opacity:1;paint-order:normal"
       d="m 58.574063,58.426428 c 0.474024,0.684701 0.945952,1.366374 1.365452,1.969389 0.4195,0.603015 0.786555,1.127379 1.205827,1.835342 0.419272,0.707964 0.891199,1.599384 1.179557,2.149974 0.288357,0.55059 0.39323,0.760336 0.471619,0.943862 0.07839,0.183527 0.130827,0.340838 0.183527,0.471928 0.0527,0.13109 0.105138,0.235964 0.183638,0.419501 0.0785,0.183537 0.183373,0.445719 0.286969,0.704709"
       id="path1192"
       inkscape:path-effect="#path-effect1194"
       inkscape:original-d="m 58.574063,58.426428 c 0.474573,0.684321 0.946501,1.365994 1.415784,2.045021 0.3697,0.52701 0.736755,1.051374 1.101165,1.573093 0.474573,0.894067 0.946503,1.785485 1.415784,2.67426 0.107518,0.212392 0.212391,0.422138 0.314618,0.629238 0.05508,0.159953 0.107519,0.317264 0.157308,0.471926 0.05508,0.107519 0.107519,0.212392 0.157311,0.314619 0.107519,0.264829 0.212392,0.52701 0.314619,0.786548" />
    <path
       style="opacity:1;vector-effect:none;fill:none;fill-opacity:1;fill-rule:evenodd;stroke:#000000;stroke-width:0.529167;stroke-linecap:round;stroke-linejoin:miter;stroke-miterlimit:4;stroke-dasharray:none;stroke-dashoffset:0;stroke-opacity:1;paint-order:normal"
       d="m 62.978722,60.943378 c 0.21058,0.789674 0.420327,1.576222 0.524782,2.152782 0.104456,0.576559 0.104456,0.943613 0.130925,1.284629 0.02647,0.341016 0.07891,0.655635 0.104873,1.022512 0.02597,0.366876 0.02597,0.786368 0.02597,1.074768 0,0.288399 0,0.44571 0,0.550581 0,0.104871 0,0.15731 -0.0249,0.182206 -0.0249,0.0249 -0.07733,0.0249 -0.129769,0.0249 -0.05244,0 -0.104873,0 -0.31444,-0.130019 -0.209567,-0.13002 -0.576621,-0.392202 -1.28444,-0.8119 -0.707819,-0.419698 -1.756549,-0.996499 -2.333601,-1.285765 -0.577052,-0.289266 -0.681925,-0.289266 -0.789444,-0.289266"
       id="path1241"
       inkscape:path-effect="#path-effect1243"
       inkscape:original-d="m 62.978722,60.943378 c 0.212392,0.789191 0.422138,1.575739 0.629238,2.359639 0.0026,0.369702 0.0026,0.736756 0,1.101166 0.05508,0.317265 0.107518,0.631884 0.15731,0.943857 0.0026,0.422137 0.0026,0.841629 0,1.258474 0.0026,0.159954 0.0026,0.317265 0,0.471927 0.0026,0.05508 0.0026,0.107519 0,0.157311 -0.04979,0.0026 -0.102227,0.0026 -0.15731,0 -0.04979,0.0026 -0.102227,0.0026 -0.157308,0 -0.364411,-0.259538 -0.731465,-0.521719 -1.101164,-0.786548 -1.046084,-0.574154 -2.094814,-1.150956 -3.146188,-1.730402 -0.102227,0.0026 -0.2071,0.0026 -0.314619,0" />
    <path
       style="opacity:1;vector-effect:none;fill:none;fill-opacity:1;fill-rule:evenodd;stroke:#000000;stroke-width:0.529167;stroke-linecap:round;stroke-linejoin:miter;stroke-miterlimit:4;stroke-dasharray:none;stroke-dashoffset:0;stroke-opacity:1;paint-order:normal"
       d="m 84.215482,60.314141 c -0.890901,0.628872 -1.782319,1.258108 -2.674067,2.071134 -0.891749,0.813025 -1.783169,1.809317 -2.543612,2.753355 -0.760443,0.944039 -1.38968,1.835457 -2.018551,2.726359"
       id="path1253"
       inkscape:path-effect="#path-effect1255"
       inkscape:original-d="m 84.215482,60.314141 c -0.888775,0.631883 -1.780193,1.26112 -2.674257,1.887712 -0.888776,0.998937 -1.780194,1.995231 -2.674261,2.988876 -0.626591,0.894067 -1.255828,1.785485 -1.887712,2.67426" />
    <path
       style="opacity:1;vector-effect:none;fill:none;fill-opacity:1;fill-rule:evenodd;stroke:#000000;stroke-width:0.529167;stroke-linecap:round;stroke-linejoin:miter;stroke-miterlimit:4;stroke-dasharray:none;stroke-dashoffset:0;stroke-opacity:1;paint-order:normal"
       d="m 77.7658,61.887234 c -0.262728,0.683091 -0.524911,1.364765 -0.813289,2.25635 -0.288377,0.891584 -0.602995,1.992748 -0.760055,2.622435 -0.15706,0.629686 -0.15706,0.786997 -0.15706,0.970524 0,0.183527 0,0.393273 0,0.629238 0,0.235964 0,0.498145 0,0.707891 0,0.209746 0,0.367056 0.02754,0.444387 0.02754,0.07733 0.07998,0.07733 0.157312,0.0249 0.07733,-0.05244 0.182205,-0.15731 0.497213,-0.367289 0.315007,-0.209979 0.839372,-0.524597 1.259004,-0.760592 0.419631,-0.235995 0.73425,-0.393304 1.232703,-0.576824 0.498453,-0.18352 1.180128,-0.393267 1.651904,-0.550592 0.471775,-0.157326 0.733956,-0.262199 0.994769,-0.366524"
       id="path1261"
       inkscape:path-effect="#path-effect1263"
       inkscape:original-d="m 77.7658,61.887234 c -0.259537,0.684318 -0.521718,1.365993 -0.786548,2.04502 -0.311973,1.103813 -0.626591,2.204977 -0.943856,3.303498 0.0026,0.159953 0.0026,0.317264 0,0.471926 0.0026,0.212392 0.0026,0.422138 0,0.629238 0.0026,0.264829 0.0026,0.52701 0,0.786548 0.0026,0.159954 0.0026,0.317264 0,0.471926 0.05508,0.0026 0.107519,0.0026 0.157311,0 0.107519,-0.102227 0.212392,-0.2071 0.314619,-0.314618 0.52701,-0.311973 1.051374,-0.626592 1.573093,-0.943856 0.317265,-0.154663 0.631883,-0.311973 0.943856,-0.471927 0.684318,-0.2071 1.365994,-0.416846 2.04502,-0.629237 0.26483,-0.102227 0.527011,-0.2071 0.786546,-0.314619" />
    <path
       style="opacity:1;vector-effect:none;fill:none;fill-opacity:1;fill-rule:evenodd;stroke:#000000;stroke-width:0.529167;stroke-linecap:round;stroke-linejoin:miter;stroke-miterlimit:4;stroke-dasharray:none;stroke-dashoffset:0;stroke-opacity:1;paint-order:normal"
       d="m 71.036724,84.913665 c 0,2.1161 0,4.229555 0,6.340363"
       id="path2168"
       inkscape:path-effect="#path-effect2170"
       inkscape:original-d="m 71.036724,84.913665 c 0.0026,2.1161 0.0026,4.229555 0,6.340363" />
    <path
       style="opacity:1;vector-effect:none;fill:none;fill-opacity:1;fill-rule:evenodd;stroke:#000000;stroke-width:0.529167;stroke-linecap:round;stroke-linejoin:miter;stroke-miterlimit:4;stroke-dasharray:none;stroke-dashoffset:0;stroke-opacity:1;paint-order:normal"
       d="m 68.812033,88.695637 c 0.892251,1.078137 1.782127,2.153403 2.225878,2.709462 0.44375,0.556058 0.44375,0.593138 0.46361,0.610355 0.01986,0.01722 0.05694,0.01722 0.129511,-0.09349 0.07257,-0.110706 0.183805,-0.333175 0.406268,-0.796612 0.222464,-0.463438 0.556166,-1.167922 0.927049,-1.79859 0.370883,-0.630669 0.778743,-1.186842 1.186939,-1.743472"
       id="path2172"
       inkscape:path-effect="#path-effect2174"
       inkscape:original-d="m 68.812033,88.695637 c 0.892522,1.077913 1.782398,2.153179 2.669628,3.2258 0.0026,0.03972 0.0026,0.0768 0,0.111234 0.03972,0.0026 0.0768,0.0026 0.111236,0 0.113879,-0.219824 0.225112,-0.442294 0.333703,-0.667407 0.336349,-0.701839 0.670052,-1.406323 1.001109,-2.113457 0.410506,-0.553524 0.818367,-1.109697 1.223579,-1.668515" />
    <path
       style="opacity:1;vector-effect:none;fill:none;fill-opacity:1;fill-rule:evenodd;stroke:#000000;stroke-width:0.529167;stroke-linecap:round;stroke-linejoin:miter;stroke-miterlimit:4;stroke-dasharray:none;stroke-dashoffset:0;stroke-opacity:1;paint-order:normal"
       d="m 132.10446,135.12186 c 0.0565,0.20708 0.11209,0.411 0.2698,0.88377 0.15771,0.47277 0.41726,1.21433 0.6213,1.76124 0.20405,0.54691 0.35236,0.89915 0.43645,1.07367 0.0841,0.17453 0.10258,0.17453 0.11053,0.16658 0.008,-0.008 0.008,-0.0264 0.0726,-0.13867 0.0647,-0.11222 0.19445,-0.31615 0.37993,-0.56662 0.18549,-0.25048 0.4265,-0.5471 0.6954,-0.8531 0.26889,-0.30601 0.56553,-0.62117 0.95478,-1.06603 0.38925,-0.44485 0.87127,-1.01956 1.35349,-1.59452"
       id="path2332"
       inkscape:path-effect="#path-effect2334"
       inkscape:original-d="m 132.10446,135.12186 c 0.0583,0.20658 0.11388,0.41051 0.16685,0.61179 0.26219,0.74421 0.52174,1.48577 0.77864,2.22469 0.15096,0.35489 0.29927,0.70713 0.44494,1.05673 0.0212,0.003 0.0397,0.003 0.0556,0 0.003,-0.0159 0.003,-0.0344 0,-0.0556 0.13242,-0.20128 0.2622,-0.40521 0.38933,-0.61179 0.24365,-0.29398 0.48466,-0.5906 0.72302,-0.88988 0.29927,-0.31251 0.5959,-0.62768 0.88988,-0.94549 0.48466,-0.57206 0.96667,-1.14678 1.44604,-1.72413" />
    <text
       xml:space="preserve"
       style="font-style:normal;font-variant:normal;font-weight:normal;font-stretch:normal;font-size:6.35px;line-height:5.4px;font-family:Consolas;-inkscape-font-specification:Consolas;letter-spacing:0px;word-spacing:0px;writing-mode:lr-tb;fill:#000000;fill-opacity:1;stroke:none;stroke-width:0.264583px;stroke-linecap:butt;stroke-linejoin:miter;stroke-opacity:1"
       x="109.72635"
       y="144.91257"
       id="text2340"><tspan
         sodipodi:role="line"
         style="font-style:normal;font-variant:normal;font-weight:normal;font-stretch:normal;font-size:6.35px;font-family:Consolas;-inkscape-font-specification:Consolas;fill:#000000;fill-opacity:1;stroke:none;stroke-width:0.264583px"
         x="109.72635"
         y="144.91257"
         id="tspan2336">11000010001011</tspan><tspan
         sodipodi:role="line"
         style="font-style:normal;font-variant:normal;font-weight:normal;font-stretch:normal;font-size:6.35px;font-family:Consolas;-inkscape-font-specification:Consolas;fill:#000000;fill-opacity:1;stroke:none;stroke-width:0.264583px"
         x="109.72635"
         y="150.31256"
         id="tspan2338">00011001100...</tspan></text>
    <path
       style="opacity:1;vector-effect:none;fill:none;fill-opacity:1;fill-rule:evenodd;stroke:#000000;stroke-width:0.529167;stroke-linecap:round;stroke-linejoin:miter;stroke-miterlimit:4;stroke-dasharray:none;stroke-dashoffset:0;stroke-opacity:1;paint-order:normal"
       d="m 134.47581,130.4741 c -0.0264,0.31703 -0.0526,0.63165 -0.13127,1.43127 -0.0787,0.79963 -0.20976,2.08432 -0.2884,2.884 -0.0786,0.79969 -0.10488,1.1143 -0.14429,1.42879 -0.0394,0.31449 -0.0918,0.62911 -0.1443,0.9306 -0.0524,0.30148 -0.10489,0.58988 -0.15694,0.87618"
       id="path2350"
       inkscape:path-effect="#path-effect2352"
       inkscape:original-d="m 134.47581,130.4741 c -0.0236,0.31726 -0.0498,0.63188 -0.0786,0.94385 -0.12845,1.28734 -0.25954,2.57203 -0.39328,3.85408 -0.0236,0.31727 -0.0498,0.63188 -0.0787,0.94386 -0.0498,0.31726 -0.10223,0.63188 -0.15731,0.94385 -0.0498,0.29105 -0.10223,0.57945 -0.15731,0.8652" />
    <g
       id="g2358"
       transform="translate(-13.055222,149.89451)">
      <path
         style="opacity:1;vector-effect:none;fill:#ffffff;fill-opacity:1;fill-rule:evenodd;stroke:#000000;stroke-width:0.529167;stroke-linecap:round;stroke-linejoin:miter;stroke-miterlimit:4;stroke-dasharray:none;stroke-dashoffset:0;stroke-opacity:1;paint-order:normal"
         d="m 136.12756,65.112076 c 0.28813,-2.488423 0.57653,-4.979155 0.66847,-8.033372 0.0919,-3.054217 -0.0129,-6.672331 -0.23562,-9.674195 -0.22268,-3.001864 -0.56352,-5.387724 -0.79908,-6.750958 -0.23556,-1.363233 -0.36665,-1.70407 -0.30054,-1.88931 0.0661,-0.185239 0.32829,-0.211456 0.80053,-0.17178 0.47224,0.03968 1.15392,0.144549 1.97969,0.223049 0.82577,0.0785 1.79584,0.130937 3.64412,0.117716 1.84828,-0.01322 4.57497,-0.09188 6.08213,-0.170739 1.50717,-0.07886 1.79556,-0.157517 1.95332,-0.196599 0.15775,-0.03908 0.18395,-0.03908 0.32797,0.132807 0.14402,0.17189 0.4062,0.512727 1.0617,1.325463 0.65551,0.812736 1.70424,2.097429 2.72694,3.198418 1.02271,1.100989 2.01901,2.018625 2.59596,2.529631 0.57695,0.511006 0.73426,0.615879 0.79959,0.667299 0.0653,0.05142 0.0391,0.05142 0.0247,0.03964 -0.0145,-0.01179 -0.0145,-0.03801 -0.0145,-0.03801 0,0 0,0.02622 -0.0395,0.235658 -0.0395,0.209439 -0.11818,0.602713 -0.22302,1.218914 -0.10484,0.616201 -0.23594,1.455183 -0.51123,3.251137 -0.27528,1.795954 -0.69477,4.548867 -0.99624,6.790599 -0.30146,2.241732 -0.48499,3.972134 -0.57663,5.296308 -0.0916,1.324174 -0.0916,2.241811 -0.0916,2.792393 0,0.550583 0,0.734111 0,0.865202 0,0.131091 0,0.209746 -0.0118,0.24775 -0.0118,0.038 -0.038,0.038 -0.0642,0.02621 -0.0262,-0.0118 -0.0524,-0.03802 -0.0917,-0.05243 -0.0393,-0.01442 -0.0917,-0.01442 -0.18327,-0.05281 -0.0915,-0.0384 -0.22262,-0.117049 -1.0747,-0.379719 -0.85207,-0.26267 -2.42517,-0.708381 -4.73255,-1.02336 -2.30737,-0.314978 -5.34869,-0.498506 -7.34147,-0.551127 -1.99278,-0.05262 -2.93663,0.02603 -3.40976,0.07989 -0.47313,0.05386 -0.47313,0.08008 -0.49803,0.09186 -0.0249,0.01179 -0.0773,0.01179 -0.13056,0.02463 -0.0532,0.01285 -0.10567,0.03906 -0.15916,0.0658"
         id="path2354"
         inkscape:path-effect="#path-effect2374"
         inkscape:original-d="m 136.12756,65.112076 c 0.29104,-2.488086 0.57944,-4.978818 0.8652,-7.472193 -0.10223,-3.61547 -0.2071,-7.233584 -0.31462,-10.854343 -0.33819,-2.383213 -0.67903,-4.769072 -1.02251,-7.157575 -0.12845,-0.338191 -0.25954,-0.679028 -0.39327,-1.02251 0.26483,-0.02357 0.52701,-0.04979 0.78654,-0.07865 0.68432,0.107519 1.366,0.212392 2.04503,0.314619 0.97272,0.05508 1.94279,0.107519 2.91022,0.157309 2.72934,-0.07601 5.45603,-0.154663 8.18008,-0.235964 0.29105,-0.07601 0.57945,-0.154663 0.8652,-0.235964 0.0289,0.0026 0.0551,0.0026 0.0787,0 0.26483,0.343483 0.52701,0.68432 0.78654,1.022511 1.05138,1.287338 2.10011,2.572031 3.14619,3.854078 0.99894,0.920284 1.99523,1.837921 2.98888,2.752913 0.15995,0.107519 0.31726,0.212392 0.47193,0.314619 -0.0236,0.0026 -0.0498,0.0026 -0.0787,0 0.003,-0.02357 0.003,-0.04979 0,-0.07865 0.003,0.02886 0.003,0.05508 0,0.07865 -0.076,0.395919 -0.15466,0.789192 -0.23596,1.17982 -0.12845,0.841629 -0.25954,1.680612 -0.39328,2.516949 -0.41684,2.755559 -0.83633,5.508472 -1.25847,8.258739 -0.18088,1.733049 -0.36441,3.463451 -0.55058,5.191208 0.003,0.920284 0.003,1.837921 0,2.752913 0.003,0.186173 0.003,0.369701 0,0.550583 0.003,0.0813 0.003,0.159955 0,0.235964 -0.0236,0.0026 -0.0498,0.0026 -0.0787,0 -0.0236,-0.02357 -0.0498,-0.04979 -0.0786,-0.07865 -0.0498,0.0026 -0.10223,0.0026 -0.15731,0 -0.12845,-0.07601 -0.25954,-0.154663 -0.39327,-0.235964 -1.57045,-0.443064 -3.14355,-0.888774 -4.71928,-1.337129 -3.03867,-0.180882 -6.07999,-0.364409 -9.12395,-0.550583 -0.94121,0.0813 -1.88506,0.159955 -2.83156,0.235964 0.003,0.02886 0.003,0.05508 0,0.07865 -0.0498,0.0026 -0.10223,0.0026 -0.15731,0 -0.0498,0.02886 -0.10223,0.05508 -0.15731,0.07865" />
      <path
         style="opacity:1;vector-effect:none;fill:#ffffff;fill-opacity:1;fill-rule:evenodd;stroke:#000000;stroke-width:0.529167;stroke-linecap:round;stroke-linejoin:miter;stroke-miterlimit:4;stroke-dasharray:none;stroke-dashoffset:0;stroke-opacity:1;paint-order:normal"
         d="m 150.06883,39.029438 c 0.0187,0.262369 0.0373,0.521914 0.0651,0.827843 0.0279,0.305929 0.0649,0.658176 0.0555,1.538605 -0.009,0.88043 -0.0651,2.289399 -0.10224,3.077203 -0.0371,0.787804 -0.0557,0.954652 -0.0648,1.103128 -0.009,0.148476 -0.009,0.278249 -0.009,0.398753 0,0.120505 0,0.231738 0,0.315162 0,0.08342 0,0.139046 0,0.176125 0,0.03708 0,0.05562 0.0106,0.06357 0.0106,0.0079 0.0291,0.0079 0.20529,0.01729 0.17619,0.0093 0.5099,0.02789 0.93635,0.06504 0.42646,0.03716 0.94555,0.09277 1.49241,0.139056 0.54686,0.04628 1.12157,0.08336 1.87237,0.120404 0.7508,0.03704 1.67776,0.07412 2.60197,0.11109"
         id="path2356"
         inkscape:path-effect="#path-effect2378"
         inkscape:original-d="m 150.06883,39.029438 c 0.0212,0.262193 0.0397,0.52174 0.0556,0.77864 0.0397,0.354888 0.0768,0.707133 0.11124,1.05673 -0.053,1.411615 -0.10859,2.820585 -0.16685,4.226909 -0.0159,0.169497 -0.0344,0.336349 -0.0556,0.500555 0.003,0.132421 0.003,0.262194 0,0.389321 0.003,0.113882 0.003,0.225115 0,0.333703 0.003,0.05826 0.003,0.113882 0,0.166851 0.003,0.02119 0.003,0.03973 0,0.05562 0.0212,0.0026 0.0397,0.0026 0.0556,0 0.33634,0.02119 0.67005,0.03972 1.00111,0.05562 0.52174,0.05826 1.04083,0.113879 1.55728,0.166851 0.57736,0.03972 1.15207,0.0768 1.72413,0.111234 0.9296,0.03972 1.85656,0.0768 2.78087,0.111236" />
    </g>
    <g
       id="g2364"
       transform="translate(2.0133315,129.07999)">
      <path
         style="opacity:1;vector-effect:none;fill:#ffffff;fill-opacity:1;fill-rule:evenodd;stroke:#000000;stroke-width:0.529167;stroke-linecap:round;stroke-linejoin:miter;stroke-miterlimit:4;stroke-dasharray:none;stroke-dashoffset:0;stroke-opacity:1;paint-order:normal"
         d="m 136.12756,65.112076 c 0.28813,-2.488423 0.57653,-4.979155 0.66847,-8.033372 0.0919,-3.054217 -0.0129,-6.672331 -0.23562,-9.674195 -0.22268,-3.001864 -0.56352,-5.387724 -0.79908,-6.750958 -0.23556,-1.363233 -0.36665,-1.70407 -0.30054,-1.88931 0.0661,-0.185239 0.32829,-0.211456 0.80053,-0.17178 0.47224,0.03968 1.15392,0.144549 1.97969,0.223049 0.82577,0.0785 1.79584,0.130937 3.64412,0.117716 1.84828,-0.01322 4.57497,-0.09188 6.08213,-0.170739 1.50717,-0.07886 1.79556,-0.157517 1.95332,-0.196599 0.15775,-0.03908 0.18395,-0.03908 0.32797,0.132807 0.14402,0.17189 0.4062,0.512727 1.0617,1.325463 0.65551,0.812736 1.70424,2.097429 2.72694,3.198418 1.02271,1.100989 2.01901,2.018625 2.59596,2.529631 0.57695,0.511006 0.73426,0.615879 0.79959,0.667299 0.0653,0.05142 0.0391,0.05142 0.0247,0.03964 -0.0145,-0.01179 -0.0145,-0.03801 -0.0145,-0.03801 0,0 0,0.02622 -0.0395,0.235658 -0.0395,0.209439 -0.11818,0.602713 -0.22302,1.218914 -0.10484,0.616201 -0.23594,1.455183 -0.51123,3.251137 -0.27528,1.795954 -0.69477,4.548867 -0.99624,6.790599 -0.30146,2.241732 -0.48499,3.972134 -0.57663,5.296308 -0.0916,1.324174 -0.0916,2.241811 -0.0916,2.792393 0,0.550583 0,0.734111 0,0.865202 0,0.131091 0,0.209746 -0.0118,0.24775 -0.0118,0.038 -0.038,0.038 -0.0642,0.02621 -0.0262,-0.0118 -0.0524,-0.03802 -0.0917,-0.05243 -0.0393,-0.01442 -0.0917,-0.01442 -0.18327,-0.05281 -0.0915,-0.0384 -0.22262,-0.117049 -1.0747,-0.379719 -0.85207,-0.26267 -2.42517,-0.708381 -4.73255,-1.02336 -2.30737,-0.314978 -5.34869,-0.498506 -7.34147,-0.551127 -1.99278,-0.05262 -2.93663,0.02603 -3.40976,0.07989 -0.47313,0.05386 -0.47313,0.08008 -0.49803,0.09186 -0.0249,0.01179 -0.0773,0.01179 -0.13056,0.02463 -0.0532,0.01285 -0.10567,0.03906 -0.15916,0.0658"
         id="path2360"
         inkscape:path-effect="#path-effect2382"
         inkscape:original-d="m 136.12756,65.112076 c 0.29104,-2.488086 0.57944,-4.978818 0.8652,-7.472193 -0.10223,-3.61547 -0.2071,-7.233584 -0.31462,-10.854343 -0.33819,-2.383213 -0.67903,-4.769072 -1.02251,-7.157575 -0.12845,-0.338191 -0.25954,-0.679028 -0.39327,-1.02251 0.26483,-0.02357 0.52701,-0.04979 0.78654,-0.07865 0.68432,0.107519 1.366,0.212392 2.04503,0.314619 0.97272,0.05508 1.94279,0.107519 2.91022,0.157309 2.72934,-0.07601 5.45603,-0.154663 8.18008,-0.235964 0.29105,-0.07601 0.57945,-0.154663 0.8652,-0.235964 0.0289,0.0026 0.0551,0.0026 0.0787,0 0.26483,0.343483 0.52701,0.68432 0.78654,1.022511 1.05138,1.287338 2.10011,2.572031 3.14619,3.854078 0.99894,0.920284 1.99523,1.837921 2.98888,2.752913 0.15995,0.107519 0.31726,0.212392 0.47193,0.314619 -0.0236,0.0026 -0.0498,0.0026 -0.0787,0 0.003,-0.02357 0.003,-0.04979 0,-0.07865 0.003,0.02886 0.003,0.05508 0,0.07865 -0.076,0.395919 -0.15466,0.789192 -0.23596,1.17982 -0.12845,0.841629 -0.25954,1.680612 -0.39328,2.516949 -0.41684,2.755559 -0.83633,5.508472 -1.25847,8.258739 -0.18088,1.733049 -0.36441,3.463451 -0.55058,5.191208 0.003,0.920284 0.003,1.837921 0,2.752913 0.003,0.186173 0.003,0.369701 0,0.550583 0.003,0.0813 0.003,0.159955 0,0.235964 -0.0236,0.0026 -0.0498,0.0026 -0.0787,0 -0.0236,-0.02357 -0.0498,-0.04979 -0.0786,-0.07865 -0.0498,0.0026 -0.10223,0.0026 -0.15731,0 -0.12845,-0.07601 -0.25954,-0.154663 -0.39327,-0.235964 -1.57045,-0.443064 -3.14355,-0.888774 -4.71928,-1.337129 -3.03867,-0.180882 -6.07999,-0.364409 -9.12395,-0.550583 -0.94121,0.0813 -1.88506,0.159955 -2.83156,0.235964 0.003,0.02886 0.003,0.05508 0,0.07865 -0.0498,0.0026 -0.10223,0.0026 -0.15731,0 -0.0498,0.02886 -0.10223,0.05508 -0.15731,0.07865" />
      <path
         style="opacity:1;vector-effect:none;fill:#ffffff;fill-opacity:1;fill-rule:evenodd;stroke:#000000;stroke-width:0.529167;stroke-linecap:round;stroke-linejoin:miter;stroke-miterlimit:4;stroke-dasharray:none;stroke-dashoffset:0;stroke-opacity:1;paint-order:normal"
         d="m 150.06883,39.029438 c 0.0187,0.262369 0.0373,0.521914 0.0651,0.827843 0.0279,0.305929 0.0649,0.658176 0.0555,1.538605 -0.009,0.88043 -0.0651,2.289399 -0.10224,3.077203 -0.0371,0.787804 -0.0557,0.954652 -0.0648,1.103128 -0.009,0.148476 -0.009,0.278249 -0.009,0.398753 0,0.120505 0,0.231738 0,0.315162 0,0.08342 0,0.139046 0,0.176125 0,0.03708 0,0.05562 0.0106,0.06357 0.0106,0.0079 0.0291,0.0079 0.20529,0.01729 0.17619,0.0093 0.5099,0.02789 0.93635,0.06504 0.42646,0.03716 0.94555,0.09277 1.49241,0.139056 0.54686,0.04628 1.12157,0.08336 1.87237,0.120404 0.7508,0.03704 1.67776,0.07412 2.60197,0.11109"
         id="path2362"
         inkscape:path-effect="#path-effect2386"
         inkscape:original-d="m 150.06883,39.029438 c 0.0212,0.262193 0.0397,0.52174 0.0556,0.77864 0.0397,0.354888 0.0768,0.707133 0.11124,1.05673 -0.053,1.411615 -0.10859,2.820585 -0.16685,4.226909 -0.0159,0.169497 -0.0344,0.336349 -0.0556,0.500555 0.003,0.132421 0.003,0.262194 0,0.389321 0.003,0.113882 0.003,0.225115 0,0.333703 0.003,0.05826 0.003,0.113882 0,0.166851 0.003,0.02119 0.003,0.03973 0,0.05562 0.0212,0.0026 0.0397,0.0026 0.0556,0 0.33634,0.02119 0.67005,0.03972 1.00111,0.05562 0.52174,0.05826 1.04083,0.113879 1.55728,0.166851 0.57736,0.03972 1.15207,0.0768 1.72413,0.111234 0.9296,0.03972 1.85656,0.0768 2.78087,0.111236" />
    </g>
    <g
       id="g2370"
       transform="translate(-29.575413,126.94745)">
      <path
         style="opacity:1;vector-effect:none;fill:#ffffff;fill-opacity:1;fill-rule:evenodd;stroke:#000000;stroke-width:0.529167;stroke-linecap:round;stroke-linejoin:miter;stroke-miterlimit:4;stroke-dasharray:none;stroke-dashoffset:0;stroke-opacity:1;paint-order:normal"
         d="m 136.12756,65.112076 c 0.28813,-2.488423 0.57653,-4.979155 0.66847,-8.033372 0.0919,-3.054217 -0.0129,-6.672331 -0.23562,-9.674195 -0.22268,-3.001864 -0.56352,-5.387724 -0.79908,-6.750958 -0.23556,-1.363233 -0.36665,-1.70407 -0.30054,-1.88931 0.0661,-0.185239 0.32829,-0.211456 0.80053,-0.17178 0.47224,0.03968 1.15392,0.144549 1.97969,0.223049 0.82577,0.0785 1.79584,0.130937 3.64412,0.117716 1.84828,-0.01322 4.57497,-0.09188 6.08213,-0.170739 1.50717,-0.07886 1.79556,-0.157517 1.95332,-0.196599 0.15775,-0.03908 0.18395,-0.03908 0.32797,0.132807 0.14402,0.17189 0.4062,0.512727 1.0617,1.325463 0.65551,0.812736 1.70424,2.097429 2.72694,3.198418 1.02271,1.100989 2.01901,2.018625 2.59596,2.529631 0.57695,0.511006 0.73426,0.615879 0.79959,0.667299 0.0653,0.05142 0.0391,0.05142 0.0247,0.03964 -0.0145,-0.01179 -0.0145,-0.03801 -0.0145,-0.03801 0,0 0,0.02622 -0.0395,0.235658 -0.0395,0.209439 -0.11818,0.602713 -0.22302,1.218914 -0.10484,0.616201 -0.23594,1.455183 -0.51123,3.251137 -0.27528,1.795954 -0.69477,4.548867 -0.99624,6.790599 -0.30146,2.241732 -0.48499,3.972134 -0.57663,5.296308 -0.0916,1.324174 -0.0916,2.241811 -0.0916,2.792393 0,0.550583 0,0.734111 0,0.865202 0,0.131091 0,0.209746 -0.0118,0.24775 -0.0118,0.038 -0.038,0.038 -0.0642,0.02621 -0.0262,-0.0118 -0.0524,-0.03802 -0.0917,-0.05243 -0.0393,-0.01442 -0.0917,-0.01442 -0.18327,-0.05281 -0.0915,-0.0384 -0.22262,-0.117049 -1.0747,-0.379719 -0.85207,-0.26267 -2.42517,-0.708381 -4.73255,-1.02336 -2.30737,-0.314978 -5.34869,-0.498506 -7.34147,-0.551127 -1.99278,-0.05262 -2.93663,0.02603 -3.40976,0.07989 -0.47313,0.05386 -0.47313,0.08008 -0.49803,0.09186 -0.0249,0.01179 -0.0773,0.01179 -0.13056,0.02463 -0.0532,0.01285 -0.10567,0.03906 -0.15916,0.0658"
         id="path2366"
         inkscape:path-effect="#path-effect2390"
         inkscape:original-d="m 136.12756,65.112076 c 0.29104,-2.488086 0.57944,-4.978818 0.8652,-7.472193 -0.10223,-3.61547 -0.2071,-7.233584 -0.31462,-10.854343 -0.33819,-2.383213 -0.67903,-4.769072 -1.02251,-7.157575 -0.12845,-0.338191 -0.25954,-0.679028 -0.39327,-1.02251 0.26483,-0.02357 0.52701,-0.04979 0.78654,-0.07865 0.68432,0.107519 1.366,0.212392 2.04503,0.314619 0.97272,0.05508 1.94279,0.107519 2.91022,0.157309 2.72934,-0.07601 5.45603,-0.154663 8.18008,-0.235964 0.29105,-0.07601 0.57945,-0.154663 0.8652,-0.235964 0.0289,0.0026 0.0551,0.0026 0.0787,0 0.26483,0.343483 0.52701,0.68432 0.78654,1.022511 1.05138,1.287338 2.10011,2.572031 3.14619,3.854078 0.99894,0.920284 1.99523,1.837921 2.98888,2.752913 0.15995,0.107519 0.31726,0.212392 0.47193,0.314619 -0.0236,0.0026 -0.0498,0.0026 -0.0787,0 0.003,-0.02357 0.003,-0.04979 0,-0.07865 0.003,0.02886 0.003,0.05508 0,0.07865 -0.076,0.395919 -0.15466,0.789192 -0.23596,1.17982 -0.12845,0.841629 -0.25954,1.680612 -0.39328,2.516949 -0.41684,2.755559 -0.83633,5.508472 -1.25847,8.258739 -0.18088,1.733049 -0.36441,3.463451 -0.55058,5.191208 0.003,0.920284 0.003,1.837921 0,2.752913 0.003,0.186173 0.003,0.369701 0,0.550583 0.003,0.0813 0.003,0.159955 0,0.235964 -0.0236,0.0026 -0.0498,0.0026 -0.0787,0 -0.0236,-0.02357 -0.0498,-0.04979 -0.0786,-0.07865 -0.0498,0.0026 -0.10223,0.0026 -0.15731,0 -0.12845,-0.07601 -0.25954,-0.154663 -0.39327,-0.235964 -1.57045,-0.443064 -3.14355,-0.888774 -4.71928,-1.337129 -3.03867,-0.180882 -6.07999,-0.364409 -9.12395,-0.550583 -0.94121,0.0813 -1.88506,0.159955 -2.83156,0.235964 0.003,0.02886 0.003,0.05508 0,0.07865 -0.0498,0.0026 -0.10223,0.0026 -0.15731,0 -0.0498,0.02886 -0.10223,0.05508 -0.15731,0.07865" />
      <path
         style="opacity:1;vector-effect:none;fill:#ffffff;fill-opacity:1;fill-rule:evenodd;stroke:#000000;stroke-width:0.529167;stroke-linecap:round;stroke-linejoin:miter;stroke-miterlimit:4;stroke-dasharray:none;stroke-dashoffset:0;stroke-opacity:1;paint-order:normal"
         d="m 150.06883,39.029438 c 0.0187,0.262369 0.0373,0.521914 0.0651,0.827843 0.0279,0.305929 0.0649,0.658176 0.0555,1.538605 -0.009,0.88043 -0.0651,2.289399 -0.10224,3.077203 -0.0371,0.787804 -0.0557,0.954652 -0.0648,1.103128 -0.009,0.148476 -0.009,0.278249 -0.009,0.398753 0,0.120505 0,0.231738 0,0.315162 0,0.08342 0,0.139046 0,0.176125 0,0.03708 0,0.05562 0.0106,0.06357 0.0106,0.0079 0.0291,0.0079 0.20529,0.01729 0.17619,0.0093 0.5099,0.02789 0.93635,0.06504 0.42646,0.03716 0.94555,0.09277 1.49241,0.139056 0.54686,0.04628 1.12157,0.08336 1.87237,0.120404 0.7508,0.03704 1.67776,0.07412 2.60197,0.11109"
         id="path2368"
         inkscape:path-effect="#path-effect2394"
         inkscape:original-d="m 150.06883,39.029438 c 0.0212,0.262193 0.0397,0.52174 0.0556,0.77864 0.0397,0.354888 0.0768,0.707133 0.11124,1.05673 -0.053,1.411615 -0.10859,2.820585 -0.16685,4.226909 -0.0159,0.169497 -0.0344,0.336349 -0.0556,0.500555 0.003,0.132421 0.003,0.262194 0,0.389321 0.003,0.113882 0.003,0.225115 0,0.333703 0.003,0.05826 0.003,0.113882 0,0.166851 0.003,0.02119 0.003,0.03973 0,0.05562 0.0212,0.0026 0.0397,0.0026 0.0556,0 0.33634,0.02119 0.67005,0.03972 1.00111,0.05562 0.52174,0.05826 1.04083,0.113879 1.55728,0.166851 0.57736,0.03972 1.15207,0.0768 1.72413,0.111234 0.9296,0.03972 1.85656,0.0768 2.78087,0.111236" />
    </g>
    <path
       style="opacity:1;vector-effect:none;fill:none;fill-opacity:1;fill-rule:evenodd;stroke:#000000;stroke-width:0.529167;stroke-linecap:round;stroke-linejoin:miter;stroke-miterlimit:4;stroke-dasharray:none;stroke-dashoffset:0;stroke-opacity:1;paint-order:normal"
       d="m 129.21236,152.65547 c 0.0751,0.26269 0.14921,0.52224 0.18584,0.81861 0.0366,0.29638 0.0366,0.63008 -0.0377,1.27872 -0.0743,0.64864 -0.22263,1.61267 -0.59352,2.83584 -0.37089,1.22317 -0.96414,2.70629 -1.39034,3.59558 -0.42621,0.88928 -0.68576,1.18591 -1.11203,1.61218 -0.42628,0.42626 -1.01952,0.98244 -1.35273,1.27883 -0.33321,0.2964 -0.40739,0.33349 -0.4826,0.37109"
       id="path2396"
       inkscape:path-effect="#path-effect2398"
       inkscape:original-d="m 129.21236,152.65547 c 0.0768,0.26219 0.15096,0.52174 0.22247,0.77864 0.003,0.33635 0.003,0.67005 0,1.00111 -0.14567,0.96668 -0.29398,1.93071 -0.44494,2.89209 -0.5906,1.48578 -1.18385,2.9689 -1.77975,4.44938 -0.2569,0.29927 -0.51645,0.5959 -0.77864,0.88988 -0.59061,0.55882 -1.18386,1.11499 -1.77975,1.66852 -0.0715,0.0397 -0.14567,0.0768 -0.22247,0.11123" />
    <path
       style="opacity:1;vector-effect:none;fill:none;fill-opacity:1;fill-rule:evenodd;stroke:#000000;stroke-width:0.529167;stroke-linecap:round;stroke-linejoin:miter;stroke-miterlimit:4;stroke-dasharray:none;stroke-dashoffset:0;stroke-opacity:1;paint-order:normal"
       d="m 123.76187,161.33176 c 0,0.18803 0,0.37342 -0.0557,1.37444 -0.0557,1.00103 -0.16693,2.81786 -0.1481,3.66926 0.0188,0.85141 0.16714,0.74017 0.50073,0.46215 0.3336,-0.27802 0.8527,-0.72296 1.59448,-1.26071 0.74177,-0.53775 1.7058,-1.16808 2.24295,-1.55698 0.53716,-0.38889 0.64839,-0.5372 0.75995,-0.68594"
       id="path2400"
       inkscape:path-effect="#path-effect2402"
       inkscape:original-d="m 123.76187,161.33176 c 0.003,0.18803 0.003,0.37342 0,0.55617 -0.10859,1.81947 -0.21982,3.6363 -0.3337,5.45049 0.15095,-0.10859 0.29927,-0.21983 0.44493,-0.33371 0.52174,-0.44229 1.04084,-0.88723 1.55729,-1.33481 0.96668,-0.62768 1.93071,-1.25801 2.89209,-1.89099 0.11388,-0.14566 0.22512,-0.29397 0.33371,-0.44493" />
    <path
       style="opacity:1;vector-effect:none;fill:none;fill-opacity:1;fill-rule:evenodd;stroke:#000000;stroke-width:0.529167;stroke-linecap:round;stroke-linejoin:miter;stroke-miterlimit:4;stroke-dasharray:none;stroke-dashoffset:0;stroke-opacity:1;paint-order:normal"
       d="m 137.99988,151.98806 c 0,0.63297 0,1.2633 0.22291,2.37589 0.2229,1.1126 0.66784,2.70696 1.0387,3.96763 0.37085,1.26067 0.66747,2.18762 0.98306,2.92916 0.31559,0.74154 0.6493,1.29771 0.90936,1.64956 0.26007,0.35185 0.44546,0.50016 0.77929,0.70378 0.33383,0.20362 0.81584,0.46316 1.11242,0.63018 0.29657,0.16702 0.40781,0.24118 0.51599,0.3133"
       id="path2420"
       inkscape:path-effect="#path-effect2422"
       inkscape:original-d="m 137.99988,151.98806 c 0.003,0.63297 0.003,1.2633 0,1.89099 0.44759,1.597 0.89253,3.19136 1.33482,4.78308 0.29927,0.9296 0.5959,1.85655 0.88987,2.78086 0.33635,0.55882 0.67006,1.11499 1.00111,1.66852 0.18804,0.15096 0.37343,0.29927 0.55618,0.44494 0.48466,0.26219 0.96668,0.52173 1.44604,0.77864 0.11389,0.0768 0.22512,0.15096 0.33371,0.22247" />
    <path
       style="opacity:1;vector-effect:none;fill:none;fill-opacity:1;fill-rule:evenodd;stroke:#000000;stroke-width:0.529167;stroke-linecap:round;stroke-linejoin:miter;stroke-miterlimit:4;stroke-dasharray:none;stroke-dashoffset:0;stroke-opacity:1;paint-order:normal"
       d="m 143.11667,160.33065 c 0.11229,0.33687 0.22352,0.67058 0.35319,1.11549 0.12966,0.44491 0.27797,1.00109 0.44502,1.52022 0.16705,0.51913 0.35244,1.00114 0.50067,1.40899 0.14823,0.40785 0.25946,0.74156 0.35227,1.00111 0.0928,0.25956 0.16696,0.44495 0.2034,0.5559 0.0364,0.11095 0.0364,0.14805 -0.25859,0.0546 -0.29503,-0.0934 -0.88829,-0.31589 -1.74108,-0.63107 -0.8528,-0.31518 -1.96515,-0.72304 -2.79941,-1.05659 -0.83426,-0.33354 -1.39043,-0.59309 -1.94979,-0.85412"
       id="path2432"
       inkscape:path-effect="#path-effect2434"
       inkscape:original-d="m 143.11667,160.33065 c 0.11388,0.33634 0.22512,0.67005 0.3337,1.00111 0.15096,0.55881 0.29927,1.11499 0.44494,1.66851 0.18804,0.48467 0.37343,0.96668 0.55617,1.44605 0.11389,0.33635 0.22512,0.67006 0.33371,1.00111 0.0768,0.18804 0.15096,0.37343 0.22247,0.55618 0.003,0.0397 0.003,0.0768 0,0.11123 -0.59061,-0.21982 -1.18386,-0.44229 -1.77976,-0.66741 -1.10969,-0.40521 -2.22204,-0.81307 -3.33703,-1.22358 -0.55353,-0.2569 -1.1097,-0.51645 -1.66852,-0.77864" />
    <path
       style="opacity:1;vector-effect:none;fill:none;fill-opacity:1;fill-rule:evenodd;stroke:#000000;stroke-width:0.529167;stroke-linecap:round;stroke-linejoin:miter;stroke-miterlimit:4;stroke-dasharray:none;stroke-dashoffset:0;stroke-opacity:1;paint-order:normal"
       d="m 133.10557,153.54534 c 0.14837,6.306 0.29668,12.60928 0.3151,16.50235 0.0184,3.89308 -0.0928,5.3762 -0.18564,6.28438 -0.0928,0.90817 -0.16698,1.24188 -0.2407,1.57362"
       id="path2436"
       inkscape:path-effect="#path-effect2438"
       inkscape:original-d="m 133.10557,153.54534 c 0.15096,6.30594 0.29927,12.60922 0.44493,18.90987 -0.10858,1.48577 -0.21982,2.96889 -0.3337,4.44937 -0.0715,0.33635 -0.14566,0.67006 -0.22247,1.00111" />
    <path
       style="opacity:1;vector-effect:none;fill:none;fill-opacity:1;fill-rule:evenodd;stroke:#000000;stroke-width:0.529167;stroke-linecap:round;stroke-linejoin:miter;stroke-miterlimit:4;stroke-dasharray:none;stroke-dashoffset:0;stroke-opacity:1;paint-order:normal"
       d="m 130.88088,174.79113 c 0.11282,0.22564 0.22405,0.44811 0.61301,1.7829 0.38895,1.3348 1.05636,3.78196 1.42803,5.00397 0.37168,1.22201 0.44584,1.22201 0.53751,1.18473 0.0917,-0.0373 0.20292,-0.11144 0.36926,-0.31486 0.16635,-0.20343 0.38881,-0.53713 0.79661,-1.57484 0.4078,-1.0377 1.00105,-2.78038 1.31641,-3.96642 0.31535,-1.18604 0.35243,-1.81637 0.38966,-2.44918"
       id="path2440"
       inkscape:path-effect="#path-effect2442"
       inkscape:original-d="m 130.88088,174.79113 c 0.11388,0.22511 0.22511,0.44758 0.3337,0.66741 0.67005,2.4498 1.33746,4.89696 2.00222,7.34147 0.0768,0.003 0.15096,0.003 0.22247,0 0.11388,-0.0715 0.22511,-0.14567 0.3337,-0.22247 0.22512,-0.33106 0.44759,-0.66476 0.66741,-1.00111 0.5959,-1.74002 1.18915,-3.4827 1.77975,-5.22802 0.0397,-0.62768 0.0768,-1.25801 0.11124,-1.89098" />
    <g
       id="g26034"
       transform="matrix(0.92970344,0,0,0.92970344,-0.07599272,-6.4863725)"
       style="stroke-width:1.07561">
      <path
         d="m 77.464414,112.5119 c -8.17563,0 -14.790211,6.58812 -14.790211,14.71083 0,8.12271 6.614581,14.71083 14.790211,14.71083 2.67229,0 5.15937,-0.70114 7.32896,-1.9341 l 0.76993,1.9341 h 5.95313 l -2.33098,-5.76791 c 1.91029,-2.4765 3.04271,-5.58271 3.04271,-8.94292 0,-8.12271 -6.61459,-14.71083 -14.76375,-14.71083 z"
         style="fill:url(#radialGradient26072);stroke-width:0.284589"
         inkscape:connector-curvature="0"
         id="path24577" />
      <ellipse
         cx="77.332108"
         cy="120.80394"
         rx="9.8345633"
         ry="8.3962879"
         style="fill:url(#linearGradient26074);stroke-width:0.331213"
         id="ellipse24579" />
      <circle
         cx="78.964592"
         cy="118.35919"
         r="1.7383125"
         id="circle24581"
         style="stroke-width:0.284589" />
      <rect
         transform="matrix(0.98972836,0.14296077,-0.18995972,0.98179188,0,0)"
         x="97.119492"
         y="107.49033"
         width="9.9510632"
         height="1.4555168"
         id="rect24583"
         style="stroke-width:0.284658" />
      <rect
         x="84.608154"
         y="121.26961"
         width="1.7383125"
         height="0.76729167"
         id="rect24585"
         style="stroke-width:0.284589" />
      <path
         d="m 73.495664,114.91961 c -0.0151,0.57943 -1.02394,0.0749 -1.06627,0.73554 -1.11655,-0.49742 0.087,0.75935 -0.0248,0.87577 h -0.008 l -0.0825,-0.008 c -0.054,-0.0193 -0.13229,-0.0526 -0.24818,-0.12409 -0.78052,0.62178 -0.79904,1.91294 -1.60337,2.62996 -0.52653,1.14036 -0.65617,2.37596 -1.04246,3.57188 -0.18997,1.13771 -0.35719,2.27541 -0.0744,3.41312 0.0849,0.92604 -0.1823,2.18546 0.66146,2.83104 1.25148,1.02659 2.29129,2.32834 3.33375,3.57188 1.64571,2.02406 3.09562,4.20687 4.39208,6.45583 0.0857,-0.56091 0.29369,1.12713 0.6694,1.2409 -0.13018,-0.84402 -0.29898,-2.18546 -0.381,-3.22792 -0.41804,-2.72521 -1.75948,-5.18583 -2.26484,-7.88458 -0.0155,-0.11377 -0.0339,-0.23072 -0.0497,-0.34661 v -0.33866 h -0.0413 c -0.16563,-1.3335 -0.2249,-2.77813 0.74348,-3.81 0.98954,-0.99748 2.46327,-1.24884 3.65125,-1.94204 0.26458,-0.15637 0.54239,-0.28311 0.8255,-0.37307 0.002,-7.9e-4 0.006,8e-4 0.008,0 0.8255,-0.25479 1.70656,-0.24685 2.56381,-0.10742 0.0127,0.002 0.0286,0.006 0.0413,0.008 0.078,0.013 0.16245,0.0262 0.23971,0.0413 0.62706,0.0558 1.88913,0.30163 2.11667,-0.13229 -0.86519,-0.73819 -2.11402,-0.68527 -3.175,-0.97631 -0.16695,-0.0304 -0.37306,-0.0635 -0.57944,-0.0825 l -1.03452,-0.23151 -0.25638,-0.0662 v 0.008 l -3.70417,-0.71967 c -0.0587,-0.0534 -0.12277,-0.10821 -0.18203,-0.1487 l 3.59833,0.44715 v -0.0165 c 0.127,0.0283 0.25294,0.0513 0.381,0.0661 v 0.008 l 2.54529,0.47096 c 0.43921,0.16404 0.90752,0.28575 1.34673,0.31486 0.72496,0.10557 1.64836,1.18798 1.88384,1.24089 -0.11669,-1.14035 -1.25413,-1.651 -2.19869,-1.98437 -1.10331,-0.53711 -2.75167,-0.51594 -2.93688,-2.00025 -0.0466,-0.10345 -0.0923,-0.20664 -0.14869,-0.30692 l -0.42863,-0.5715 0.0165,-0.008 c -0.58738,-0.69321 -1.41288,-1.19592 -2.29129,-1.38907 -0.87048,-0.30162 -1.84944,-0.6006 -2.77813,-0.71966 -0.31221,0.92075 -0.66146,-0.73025 -1.41287,-0.23972 -0.65882,0.0781 -0.56886,0.25215 -1.05834,-0.16536 z m 4.73604,2.69875 c 0.23865,-0.006 0.51064,0.0376 0.78581,0.13229 0.73025,0.25241 1.2065,0.78581 1.06627,1.19062 -0.14023,0.40482 -0.84931,0.52652 -1.57956,0.27252 -0.73025,-0.254 -1.2065,-0.77523 -1.06627,-1.18268 0.0876,-0.25374 0.39687,-0.40217 0.79375,-0.41275 z"
         style="fill:#ff6600;stroke-width:0.284589"
         inkscape:connector-curvature="0"
         id="path24587" />
    </g>
    <g
       id="g851"
       transform="matrix(0.92970344,0,0,0.92970344,63.181536,-6.4863725)"
       style="stroke-width:1.07561">
      <path
         d="m 77.464414,112.5119 c -8.17563,0 -14.790211,6.58812 -14.790211,14.71083 0,8.12271 6.614581,14.71083 14.790211,14.71083 2.67229,0 5.15937,-0.70114 7.32896,-1.9341 l 0.76993,1.9341 h 5.95313 l -2.33098,-5.76791 c 1.91029,-2.4765 3.04271,-5.58271 3.04271,-8.94292 0,-8.12271 -6.61459,-14.71083 -14.76375,-14.71083 z"
         style="fill:url(#radialGradient853);stroke-width:0.284589"
         inkscape:connector-curvature="0"
         id="path839" />
      <ellipse
         cx="77.332108"
         cy="120.80394"
         rx="9.8345633"
         ry="8.3962879"
         style="fill:url(#linearGradient855);stroke-width:0.331213"
         id="ellipse841" />
      <circle
         cx="78.964592"
         cy="118.35919"
         r="1.7383125"
         id="circle843"
         style="stroke-width:0.284589" />
      <rect
         transform="matrix(0.98972836,0.14296077,-0.18995972,0.98179188,0,0)"
         x="97.119492"
         y="107.49033"
         width="9.9510632"
         height="1.4555168"
         id="rect845"
         style="stroke-width:0.284658" />
      <rect
         x="84.608154"
         y="121.26961"
         width="1.7383125"
         height="0.76729167"
         id="rect847"
         style="stroke-width:0.284589" />
      <path
         d="m 73.495664,114.91961 c -0.0151,0.57943 -1.02394,0.0749 -1.06627,0.73554 -1.11655,-0.49742 0.087,0.75935 -0.0248,0.87577 h -0.008 l -0.0825,-0.008 c -0.054,-0.0193 -0.13229,-0.0526 -0.24818,-0.12409 -0.78052,0.62178 -0.79904,1.91294 -1.60337,2.62996 -0.52653,1.14036 -0.65617,2.37596 -1.04246,3.57188 -0.18997,1.13771 -0.35719,2.27541 -0.0744,3.41312 0.0849,0.92604 -0.1823,2.18546 0.66146,2.83104 1.25148,1.02659 2.29129,2.32834 3.33375,3.57188 1.64571,2.02406 3.09562,4.20687 4.39208,6.45583 0.0857,-0.56091 0.29369,1.12713 0.6694,1.2409 -0.13018,-0.84402 -0.29898,-2.18546 -0.381,-3.22792 -0.41804,-2.72521 -1.75948,-5.18583 -2.26484,-7.88458 -0.0155,-0.11377 -0.0339,-0.23072 -0.0497,-0.34661 v -0.33866 h -0.0413 c -0.16563,-1.3335 -0.2249,-2.77813 0.74348,-3.81 0.98954,-0.99748 2.46327,-1.24884 3.65125,-1.94204 0.26458,-0.15637 0.54239,-0.28311 0.8255,-0.37307 0.002,-7.9e-4 0.006,8e-4 0.008,0 0.8255,-0.25479 1.70656,-0.24685 2.56381,-0.10742 0.0127,0.002 0.0286,0.006 0.0413,0.008 0.078,0.013 0.16245,0.0262 0.23971,0.0413 0.62706,0.0558 1.88913,0.30163 2.11667,-0.13229 -0.86519,-0.73819 -2.11402,-0.68527 -3.175,-0.97631 -0.16695,-0.0304 -0.37306,-0.0635 -0.57944,-0.0825 l -1.03452,-0.23151 -0.25638,-0.0662 v 0.008 l -3.70417,-0.71967 c -0.0587,-0.0534 -0.12277,-0.10821 -0.18203,-0.1487 l 3.59833,0.44715 v -0.0165 c 0.127,0.0283 0.25294,0.0513 0.381,0.0661 v 0.008 l 2.54529,0.47096 c 0.43921,0.16404 0.90752,0.28575 1.34673,0.31486 0.72496,0.10557 1.64836,1.18798 1.88384,1.24089 -0.11669,-1.14035 -1.25413,-1.651 -2.19869,-1.98437 -1.10331,-0.53711 -2.75167,-0.51594 -2.93688,-2.00025 -0.0466,-0.10345 -0.0923,-0.20664 -0.14869,-0.30692 l -0.42863,-0.5715 0.0165,-0.008 c -0.58738,-0.69321 -1.41288,-1.19592 -2.29129,-1.38907 -0.87048,-0.30162 -1.84944,-0.6006 -2.77813,-0.71966 -0.31221,0.92075 -0.66146,-0.73025 -1.41287,-0.23972 -0.65882,0.0781 -0.56886,0.25215 -1.05834,-0.16536 z m 4.73604,2.69875 c 0.23865,-0.006 0.51064,0.0376 0.78581,0.13229 0.73025,0.25241 1.2065,0.78581 1.06627,1.19062 -0.14023,0.40482 -0.84931,0.52652 -1.57956,0.27252 -0.73025,-0.254 -1.2065,-0.77523 -1.06627,-1.18268 0.0876,-0.25374 0.39687,-0.40217 0.79375,-0.41275 z"
         style="fill:#ff6600;stroke-width:0.284589"
         inkscape:connector-curvature="0"
         id="path849" />
    </g>
  </g>
</svg>
