<?xml version="1.0" encoding="UTF-8" standalone="no"?>
<!-- Created with Inkscape (http://www.inkscape.org/) -->

<svg
   width="176.73381mm"
   height="31.976711mm"
   viewBox="0 0 176.73381 31.976711"
   version="1.1"
   id="svg5"
   inkscape:version="1.2.2 (b0a8486541, 2022-12-01)"
   sodipodi:docname="relative-addressing.svg"
   xmlns:inkscape="http://www.inkscape.org/namespaces/inkscape"
   xmlns:sodipodi="http://sodipodi.sourceforge.net/DTD/sodipodi-0.dtd"
   xmlns="http://www.w3.org/2000/svg"
   xmlns:svg="http://www.w3.org/2000/svg">
  <sodipodi:namedview
     id="namedview7"
     pagecolor="#ffffff"
     bordercolor="#666666"
     borderopacity="1.0"
     inkscape:showpageshadow="2"
     inkscape:pageopacity="0.0"
     inkscape:pagecheckerboard="0"
     inkscape:deskcolor="#d1d1d1"
     inkscape:document-units="mm"
     showgrid="false"
     inkscape:zoom="1.4142136"
     inkscape:cx="340.82547"
     inkscape:cy="81.670833"
     inkscape:window-width="2560"
     inkscape:window-height="1307"
     inkscape:window-x="0"
     inkscape:window-y="0"
     inkscape:window-maximized="1"
     inkscape:current-layer="layer1" />
  <defs
     id="defs2" />
  <g
     inkscape:label="Ebene 1"
     inkscape:groupmode="layer"
     id="layer1"
     transform="translate(-31.329954,-22.136584)">
    <text
       xml:space="preserve"
       style="font-style:normal;font-variant:normal;font-weight:normal;font-stretch:normal;font-size:7.05556px;line-height:120%;font-family:Consolas;-inkscape-font-specification:Consolas;letter-spacing:0px;word-spacing:0px;writing-mode:lr-tb;fill:#000000;fill-opacity:1;stroke:none;stroke-width:0.264583px;stroke-linecap:butt;stroke-linejoin:miter;stroke-opacity:1"
       x="31.329954"
       y="32.061222"
       id="text8453"><tspan
         sodipodi:role="line"
         style="font-style:normal;font-variant:normal;font-weight:normal;font-stretch:normal;font-family:Consolas;-inkscape-font-specification:Consolas;fill:#000000;fill-opacity:1;stroke:none;stroke-width:0.264583px"
         x="31.329954"
         y="32.061222"
         id="tspan8451">/       = <tspan
   style="fill:#0040ff;fill-opacity:1"
   id="tspan8468">1</tspan></tspan><tspan
         sodipodi:role="line"
         style="font-style:normal;font-variant:normal;font-weight:normal;font-stretch:normal;font-family:Consolas;-inkscape-font-specification:Consolas;fill:#000000;fill-opacity:1;stroke:none;stroke-width:0.264583px"
         x="31.329954"
         y="40.527897"
         id="tspan8462">  foo   = <tspan
   style="fill:#ff0000;fill-opacity:1"
   id="tspan8470">42</tspan></tspan><tspan
         sodipodi:role="line"
         style="font-style:normal;font-variant:normal;font-weight:normal;font-stretch:normal;font-family:Consolas;-inkscape-font-specification:Consolas;fill:#000000;fill-opacity:1;stroke:none;stroke-width:0.264583px"
         x="31.329954"
         y="48.994568"
         id="tspan8464">    bar = <tspan
   style="fill:#800080;fill-opacity:1"
   id="tspan8472">120</tspan></tspan></text>
    <text
       xml:space="preserve"
       style="font-style:normal;font-variant:normal;font-weight:normal;font-stretch:normal;font-size:7.05556px;line-height:120%;font-family:Consolas;-inkscape-font-specification:Consolas;letter-spacing:0px;word-spacing:0px;writing-mode:lr-tb;fill:#000000;fill-opacity:1;stroke:none;stroke-width:0.264583px;stroke-linecap:butt;stroke-linejoin:miter;stroke-opacity:1"
       x="115.26662"
       y="27.266335"
       id="text186"><tspan
         sodipodi:role="line"
         id="tspan184"
         style="font-style:normal;font-variant:normal;font-weight:normal;font-stretch:normal;font-family:Consolas;-inkscape-font-specification:Consolas;fill:#000000;fill-opacity:1;stroke:none;stroke-width:0.264583px"
         x="115.26662"
         y="27.266335"
         dy="0">open(&quot;/foo/bar&quot;):</tspan><tspan
         sodipodi:role="line"
         style="font-style:normal;font-variant:normal;font-weight:normal;font-stretch:normal;font-family:Consolas;-inkscape-font-specification:Consolas;fill:#000000;fill-opacity:1;stroke:none;stroke-width:0.264583px"
         x="115.26662"
         y="35.733009"
         id="tspan6185">  <tspan
   style="fill:#0040ff;fill-opacity:1"
   id="tspan6919">1</tspan>.lookup(&quot;foo&quot;) → <tspan
   style="fill:#ff0000;fill-opacity:1"
   id="tspan6917">42</tspan></tspan><tspan
         sodipodi:role="line"
         style="font-style:normal;font-variant:normal;font-weight:normal;font-stretch:normal;font-family:Consolas;-inkscape-font-specification:Consolas;fill:#000000;fill-opacity:1;stroke:none;stroke-width:0.264583px"
         x="115.26662"
         y="44.19968"
         id="tspan8487">  <tspan
   style="fill:#ff0000;fill-opacity:1"
   id="tspan8489">42</tspan>.lookup(&quot;bar&quot;) → <tspan
   style="fill:#800080;fill-opacity:1"
   id="tspan8495">120</tspan></tspan><tspan
         sodipodi:role="line"
         style="font-style:normal;font-variant:normal;font-weight:normal;font-stretch:normal;font-family:Consolas;-inkscape-font-specification:Consolas;fill:#000000;fill-opacity:1;stroke:none;stroke-width:0.264583px"
         x="115.26662"
         y="52.666355"
         id="tspan6189">  <tspan
   style="fill:#800080;fill-opacity:1"
   id="tspan8497">120</tspan>.open()</tspan></text>
    <path
       style="fill:none;fill-opacity:1;stroke:#848484;stroke-width:0.5;stroke-dasharray:none;stroke-opacity:1"
       d="m 33.248238,35.290001 v 4.181923 h 3.536231"
       id="path1697" />
    <path
       style="fill:none;fill-opacity:1;stroke:#c6c6c6;stroke-width:0.499999;stroke-dasharray:none;stroke-opacity:1"
       d="M 98.361371,26.115271 V 50.134608"
       id="path6987" />
    <path
       style="fill:none;fill-opacity:1;stroke:#848484;stroke-width:0.5;stroke-dasharray:none;stroke-opacity:1"
       d="m 41.247183,43.359793 v 4.181923 h 3.536231"
       id="path8485" />
  </g>
</svg>
