%!PS-Adobe-3.0 EPSF-3.0
%%Creator: cairo 1.17.8 (https://cairographics.org)
%%CreationDate: Tue May 30 12:05:44 2023
%%Pages: 1
%%DocumentData: Clean7Bit
%%LanguageLevel: 2
%%BoundingBox: 1 0 501 91
%%EndComments
%%BeginProlog
50 dict begin
/q { gsave } bind def
/Q { grestore } bind def
/cm { 6 array astore concat } bind def
/w { setlinewidth } bind def
/J { setlinecap } bind def
/j { setlinejoin } bind def
/M { setmiterlimit } bind def
/d { setdash } bind def
/m { moveto } bind def
/l { lineto } bind def
/c { curveto } bind def
/h { closepath } bind def
/re { exch dup neg 3 1 roll 5 3 roll moveto 0 rlineto
      0 exch rlineto 0 rlineto closepath } bind def
/S { stroke } bind def
/f { fill } bind def
/f* { eofill } bind def
/n { newpath } bind def
/W { clip } bind def
/W* { eoclip } bind def
/BT { } bind def
/ET { } bind def
/BDC { mark 3 1 roll /BDC pdfmark } bind def
/EMC { mark /EMC pdfmark } bind def
/cairo_store_point { /cairo_point_y exch def /cairo_point_x exch def } def
/Tj { show currentpoint cairo_store_point } bind def
/TJ {
  {
    dup
    type /stringtype eq
    { show } { -0.001 mul 0 cairo_font_matrix dtransform rmoveto } ifelse
  } forall
  currentpoint cairo_store_point
} bind def
/cairo_selectfont { cairo_font_matrix aload pop pop pop 0 0 6 array astore
    cairo_font exch selectfont cairo_point_x cairo_point_y moveto } bind def
/Tf { pop /cairo_font exch def /cairo_font_matrix where
      { pop cairo_selectfont } if } bind def
/Td { matrix translate cairo_font_matrix matrix concatmatrix dup
      /cairo_font_matrix exch def dup 4 get exch 5 get cairo_store_point
      /cairo_font where { pop cairo_selectfont } if } bind def
/Tm { 2 copy 8 2 roll 6 array astore /cairo_font_matrix exch def
      cairo_store_point /cairo_font where { pop cairo_selectfont } if } bind def
/g { setgray } bind def
/rg { setrgbcolor } bind def
/d1 { setcachedevice } bind def
/cairo_data_source {
  CairoDataIndex CairoData length lt
    { CairoData CairoDataIndex get /CairoDataIndex CairoDataIndex 1 add def }
    { () } ifelse
} def
/cairo_flush_ascii85_file { cairo_ascii85_file status { cairo_ascii85_file flushfile } if } def
/cairo_image { image cairo_flush_ascii85_file } def
/cairo_imagemask { imagemask cairo_flush_ascii85_file } def
%%EndProlog
%%BeginSetup
%%EndSetup
%%Page: 1 1
%%BeginPageSetup
%%PageBoundingBox: 1 0 501 91
%%EndPageSetup
q 1 0 500 91 rectclip
1 0 0 -1 0 91 cm q
0 g
9.445 14.336 m 2.746 30.234 l 1.125 30.234 l 7.824 14.336 l h
9.445 14.336 m f
97.668 21.824 m 89.27 21.824 l 89.27 20.391 l 97.668 20.391 l h
97.668 25.223 m 89.27 25.223 l 89.27 23.789 l 97.668 23.789 l h
97.668 25.223 m f
0 0.25098 1 rg
119.699 28.133 m 111.68 28.133 l 111.68 26.551 l 114.961 26.551 l 114.961
 17.234 l 111.906 18.895 l 111.281 17.449 l 115.344 15.312 l 116.848 15.312
 l 116.848 26.551 l 119.699 26.551 l h
119.699 28.133 m f
0 g
32.258 39.918 m 31.363 39.727 30.598 39.633 29.953 39.633 c 28.422 39.633
 27.656 40.434 27.656 42.035 c 27.656 43.754 l 31.953 43.754 l 31.953 45.172
 l 27.656 45.172 l 27.656 52.133 l 25.93 52.133 l 25.93 45.172 l 22.773 
45.172 l 22.773 43.754 l 25.93 43.754 l 25.93 42.133 l 25.93 39.523 27.289
 38.219 30.012 38.219 c 30.688 38.219 31.438 38.297 32.258 38.453 c h
32.258 39.918 m f
43.086 47.152 m 43.086 47.914 42.98 48.613 42.766 49.254 c 42.551 49.883
 42.238 50.426 41.836 50.883 c 41.434 51.332 40.941 51.684 40.363 51.938
 c 39.781 52.184 39.125 52.309 38.391 52.309 c 37.688 52.309 37.055 52.203
 36.496 51.988 c 35.941 51.766 35.469 51.441 35.078 51.02 c 34.695 50.598
 34.398 50.074 34.191 49.449 c 33.988 48.824 33.887 48.102 33.887 47.289
 c 33.887 46.527 33.996 45.836 34.211 45.211 c 34.426 44.578 34.734 44.039
 35.137 43.59 c 35.539 43.133 36.031 42.781 36.613 42.535 c 37.191 42.281
 37.848 42.152 38.586 42.152 c 39.289 42.152 39.914 42.262 40.469 42.484
 c 41.027 42.699 41.5 43.02 41.887 43.441 c 42.277 43.859 42.57 44.379 42.773
 45.004 c 42.98 45.629 43.086 46.344 43.086 47.152 c h
41.348 47.23 m 41.348 46.625 41.281 46.098 41.145 45.648 c 41.012 45.191
 40.824 44.816 40.578 44.516 c 40.328 44.211 40.027 43.98 39.668 43.832 
c 39.316 43.676 38.922 43.598 38.488 43.598 c 37.98 43.598 37.543 43.699
 37.18 43.902 c 36.82 44.098 36.523 44.359 36.289 44.691 c 36.062 45.023
 35.891 45.41 35.781 45.855 c 35.676 46.289 35.625 46.75 35.625 47.23 c 
35.625 47.836 35.691 48.367 35.82 48.824 c 35.957 49.277 36.148 49.66 36.398
 49.965 c 36.645 50.266 36.945 50.492 37.297 50.648 c 37.648 50.797 38.043
 50.875 38.488 50.875 c 38.996 50.875 39.426 50.777 39.785 50.582 c 40.148
 50.379 40.445 50.113 40.676 49.781 c 40.91 49.449 41.078 49.062 41.184 
48.629 c 41.293 48.184 41.348 47.719 41.348 47.23 c h
41.348 47.23 m f
54.082 47.152 m 54.082 47.914 53.977 48.613 53.762 49.254 c 53.547 49.883
 53.234 50.426 52.832 50.883 c 52.43 51.332 51.938 51.684 51.359 51.938 
c 50.777 52.184 50.121 52.309 49.387 52.309 c 48.684 52.309 48.051 52.203
 47.492 51.988 c 46.938 51.766 46.465 51.441 46.074 51.02 c 45.691 50.598
 45.395 50.074 45.188 49.449 c 44.984 48.824 44.883 48.102 44.883 47.289
 c 44.883 46.527 44.992 45.836 45.207 45.211 c 45.422 44.578 45.73 44.039
 46.133 43.59 c 46.535 43.133 47.027 42.781 47.609 42.535 c 48.188 42.281
 48.844 42.152 49.582 42.152 c 50.285 42.152 50.91 42.262 51.465 42.484 
c 52.023 42.699 52.496 43.02 52.883 43.441 c 53.273 43.859 53.566 44.379
 53.77 45.004 c 53.977 45.629 54.082 46.344 54.082 47.152 c h
52.344 47.23 m 52.344 46.625 52.277 46.098 52.141 45.648 c 52.008 45.191
 51.82 44.816 51.574 44.516 c 51.324 44.211 51.023 43.98 50.664 43.832 c
 50.312 43.676 49.918 43.598 49.484 43.598 c 48.977 43.598 48.539 43.699
 48.176 43.902 c 47.816 44.098 47.52 44.359 47.285 44.691 c 47.059 45.023
 46.887 45.41 46.777 45.855 c 46.672 46.289 46.621 46.75 46.621 47.23 c 
46.621 47.836 46.688 48.367 46.816 48.824 c 46.953 49.277 47.145 49.66 47.395
 49.965 c 47.641 50.266 47.941 50.492 48.293 50.648 c 48.645 50.797 49.039
 50.875 49.484 50.875 c 49.992 50.875 50.422 50.777 50.781 50.582 c 51.145
 50.379 51.441 50.113 51.672 49.781 c 51.906 49.449 52.074 49.062 52.18 
48.629 c 52.289 48.184 52.344 47.719 52.344 47.23 c h
52.344 47.23 m f
97.668 45.824 m 89.27 45.824 l 89.27 44.391 l 97.668 44.391 l h
97.668 49.223 m 89.27 49.223 l 89.27 47.789 l 97.668 47.789 l h
97.668 49.223 m f
1 0 0 rg
120.441 49.312 m 118.262 49.312 l 118.262 52.133 l 116.523 52.133 l 116.523
 49.312 l 110.383 49.312 l 110.383 47.816 l 115.82 39.371 l 118.262 39.371
 l 118.262 47.816 l 120.441 47.816 l h
116.523 41.012 m 112.082 47.816 l 116.523 47.816 l h
116.523 41.012 m f
130.801 52.133 m 122.395 52.133 l 122.395 50.609 l 125.695 47.328 l 126.234
 46.793 126.672 46.332 127.012 45.941 c 127.352 45.551 127.613 45.195 127.805
 44.879 c 127.992 44.551 128.117 44.246 128.184 43.961 c 128.25 43.672 128.281
 43.363 128.281 43.031 c 128.281 42.719 128.238 42.422 128.156 42.145 c 
128.07 41.855 127.941 41.605 127.766 41.391 c 127.59 41.176 127.359 41.008
 127.082 40.883 c 126.801 40.758 126.465 40.699 126.074 40.699 c 125.535
 40.699 125.043 40.816 124.602 41.059 c 124.156 41.301 123.75 41.613 123.379
 41.996 c 122.441 40.875 l 122.922 40.367 123.477 39.957 124.102 39.652 
c 124.734 39.348 125.465 39.195 126.301 39.195 c 126.867 39.195 127.379 
39.277 127.844 39.449 c 128.312 39.617 128.715 39.859 129.055 40.18 c 129.391
 40.5 129.652 40.891 129.836 41.352 c 130.023 41.812 130.117 42.336 130.117
 42.914 c 130.117 43.402 130.051 43.855 129.922 44.273 c 129.793 44.688 
129.594 45.105 129.328 45.523 c 129.066 45.934 128.734 46.359 128.332 46.801
 c 127.934 47.242 127.461 47.73 126.914 48.258 c 124.602 50.512 l 130.801
 50.512 l h
130.801 52.133 m f
0 g
53.926 71.055 m 53.926 71.867 53.812 72.598 53.586 73.242 c 53.363 73.879
 53.043 74.426 52.629 74.875 c 52.219 75.316 51.715 75.656 51.125 75.898
 c 50.531 76.133 49.863 76.25 49.121 76.25 c 48.543 76.25 47.949 76.195 
47.344 76.086 c 46.738 75.973 46.141 75.797 45.547 75.559 c 45.547 62.336
 l 47.246 62.336 l 47.246 66.133 l 47.168 67.949 l 47.656 67.293 48.176 
66.828 48.73 66.562 c 49.289 66.289 49.891 66.152 50.527 66.152 c 51.086
 66.152 51.578 66.27 52.004 66.504 c 52.426 66.738 52.781 67.07 53.066 67.5
 c 53.352 67.922 53.566 68.438 53.711 69.043 c 53.855 69.641 53.926 70.312
 53.926 71.055 c h
52.188 71.133 m 52.188 70.617 52.148 70.148 52.07 69.719 c 52 69.289 51.883
 68.918 51.719 68.613 c 51.555 68.309 51.348 68.07 51.094 67.902 c 50.84
 67.727 50.539 67.637 50.188 67.637 c 49.973 67.637 49.754 67.672 49.531
 67.746 c 49.309 67.809 49.078 67.922 48.84 68.086 c 48.605 68.242 48.352
 68.453 48.086 68.723 c 47.824 68.98 47.547 69.309 47.246 69.699 c 47.246
 74.453 l 47.578 74.582 47.918 74.688 48.262 74.766 c 48.605 74.836 48.938
 74.875 49.25 74.875 c 49.641 74.875 50.012 74.812 50.363 74.688 c 50.719
 74.562 51.031 74.359 51.301 74.074 c 51.574 73.781 51.789 73.395 51.945
 72.922 c 52.105 72.438 52.188 71.844 52.188 71.133 c h
52.188 71.133 m f
62.844 76.133 m 62.805 74.816 l 62.27 75.344 61.727 75.723 61.172 75.957
 c 60.625 76.191 60.051 76.309 59.445 76.309 c 58.883 76.309 58.406 76.238
 58.008 76.094 c 57.609 75.949 57.281 75.754 57.023 75.508 c 56.77 75.254
 56.578 74.957 56.457 74.621 c 56.34 74.281 56.281 73.914 56.281 73.516 
c 56.281 72.531 56.645 71.766 57.375 71.211 c 58.109 70.652 59.191 70.371
 60.625 70.371 c 62.656 70.371 l 62.656 69.512 l 62.656 68.934 62.473 68.469
 62.102 68.125 c 61.73 67.773 61.164 67.598 60.402 67.598 c 59.848 67.598
 59.301 67.66 58.762 67.785 c 58.227 67.906 57.672 68.082 57.102 68.312 
c 57.102 66.777 l 57.316 66.699 57.551 66.625 57.812 66.555 c 58.078 66.477
 58.359 66.406 58.652 66.348 c 58.945 66.289 59.25 66.242 59.57 66.211 c
 59.891 66.172 60.211 66.152 60.539 66.152 c 61.129 66.152 61.664 66.219
 62.141 66.348 c 62.613 66.477 63.016 66.676 63.34 66.945 c 63.672 67.211
 63.926 67.547 64.102 67.949 c 64.277 68.352 64.367 68.828 64.367 69.375
 c 64.367 76.133 l h
62.656 71.672 m 60.5 71.672 l 60.074 71.672 59.711 71.711 59.406 71.797
 c 59.098 71.883 58.848 72.004 58.652 72.16 c 58.457 72.316 58.312 72.504
 58.215 72.727 c 58.121 72.941 58.078 73.184 58.078 73.457 c 58.078 73.645
 58.105 73.828 58.164 74.004 c 58.223 74.172 58.316 74.328 58.449 74.465
 c 58.578 74.594 58.746 74.699 58.957 74.777 c 59.164 74.855 59.418 74.895
 59.719 74.895 c 60.109 74.895 60.555 74.777 61.055 74.543 c 61.562 74.301
 62.098 73.922 62.656 73.41 c h
62.656 71.672 m f
67.941 66.328 m 69.492 66.328 l 69.543 68.137 l 70.121 67.438 70.691 66.934
 71.25 66.621 c 71.816 66.309 72.387 66.152 72.961 66.152 c 73.977 66.152
 74.742 66.48 75.266 67.141 c 75.793 67.797 76.035 68.773 75.996 70.07 c
 74.277 70.07 l 74.297 69.211 74.172 68.586 73.898 68.203 c 73.629 67.812
 73.234 67.617 72.715 67.617 c 72.488 67.617 72.258 67.66 72.023 67.746 
c 71.793 67.824 71.555 67.953 71.309 68.137 c 71.066 68.312 70.812 68.539
 70.539 68.82 c 70.266 69.098 69.973 69.438 69.66 69.836 c 69.66 76.133 
l 67.941 76.133 l h
67.941 66.328 m f
97.668 69.824 m 89.27 69.824 l 89.27 68.391 l 97.668 68.391 l h
97.668 73.223 m 89.27 73.223 l 89.27 71.789 l 97.668 71.789 l h
97.668 73.223 m f
0.501961 0 0.501961 rg
119.699 76.133 m 111.68 76.133 l 111.68 74.551 l 114.961 74.551 l 114.961
 65.234 l 111.906 66.895 l 111.281 65.449 l 115.344 63.312 l 116.848 63.312
 l 116.848 74.551 l 119.699 74.551 l h
119.699 76.133 m f
130.801 76.133 m 122.395 76.133 l 122.395 74.609 l 125.695 71.328 l 126.234
 70.793 126.672 70.332 127.012 69.941 c 127.352 69.551 127.613 69.195 127.805
 68.879 c 127.992 68.551 128.117 68.246 128.184 67.961 c 128.25 67.672 128.281
 67.363 128.281 67.031 c 128.281 66.719 128.238 66.422 128.156 66.145 c 
128.07 65.855 127.941 65.605 127.766 65.391 c 127.59 65.176 127.359 65.008
 127.082 64.883 c 126.801 64.758 126.465 64.699 126.074 64.699 c 125.535
 64.699 125.043 64.816 124.602 65.059 c 124.156 65.301 123.75 65.613 123.379
 65.996 c 122.441 64.875 l 122.922 64.367 123.477 63.957 124.102 63.652 
c 124.734 63.348 125.465 63.195 126.301 63.195 c 126.867 63.195 127.379 
63.277 127.844 63.449 c 128.312 63.617 128.715 63.859 129.055 64.18 c 129.391
 64.5 129.652 64.891 129.836 65.352 c 130.023 65.812 130.117 66.336 130.117
 66.914 c 130.117 67.402 130.051 67.855 129.922 68.273 c 129.793 68.688 
129.594 69.105 129.328 69.523 c 129.066 69.934 128.734 70.359 128.332 70.801
 c 127.934 71.242 127.461 71.73 126.914 72.258 c 124.602 74.512 l 130.801
 74.512 l h
130.801 76.133 m f
142.09 69.758 m 142.09 70.734 141.992 71.625 141.797 72.434 c 141.602 73.234
 141.305 73.922 140.91 74.504 c 140.512 75.074 140.016 75.52 139.426 75.84
 c 138.84 76.152 138.148 76.309 137.355 76.309 c 136.672 76.309 136.047 
76.184 135.488 75.93 c 134.93 75.668 134.449 75.27 134.055 74.738 c 133.656
 74.203 133.352 73.523 133.137 72.695 c 132.922 71.867 132.812 70.891 132.812
 69.758 c 132.812 68.781 132.91 67.887 133.105 67.082 c 133.309 66.273 133.605
 65.582 133.996 65.012 c 134.391 64.43 134.887 63.984 135.48 63.672 c 136.07
 63.352 136.762 63.195 137.551 63.195 c 138.234 63.195 138.855 63.324 139.414
 63.586 c 139.973 63.84 140.453 64.234 140.852 64.777 c 141.246 65.309 141.555
 65.988 141.77 66.816 c 141.984 67.645 142.09 68.625 142.09 69.758 c h
140.371 69.816 m 140.371 69.594 140.363 69.375 140.344 69.16 c 140.328 
68.938 140.312 68.723 140.293 68.516 c 134.895 72.531 l 134.992 72.867 135.113
 73.18 135.266 73.469 c 135.414 73.754 135.594 74 135.801 74.211 c 136.016
 74.41 136.258 74.57 136.523 74.688 c 136.797 74.797 137.105 74.855 137.453
 74.855 c 137.895 74.855 138.293 74.746 138.652 74.531 c 139.016 74.316 
139.328 73.996 139.582 73.574 c 139.836 73.152 140.031 72.629 140.168 72.004
 c 140.305 71.371 140.371 70.641 140.371 69.816 c h
134.531 69.699 m 134.531 69.898 134.531 70.102 134.531 70.305 c 134.539
 70.504 134.551 70.699 134.57 70.891 c 139.973 66.895 l 139.875 66.562 139.75
 66.262 139.602 65.988 c 139.449 65.715 139.27 65.48 139.062 65.285 c 138.855
 65.082 138.617 64.926 138.352 64.816 c 138.082 64.703 137.785 64.648 137.453
 64.648 c 137.008 64.648 136.605 64.758 136.242 64.973 c 135.883 65.188 
135.578 65.508 135.324 65.938 c 135.07 66.359 134.875 66.887 134.738 67.52
 c 134.602 68.145 134.531 68.871 134.531 69.699 c h
134.531 69.699 m f
0 g
248.027 9.562 m 248.027 10.324 247.922 11.023 247.707 11.66 c 247.492 12.293
 247.184 12.836 246.777 13.293 c 246.375 13.742 245.883 14.094 245.305 14.348
 c 244.723 14.594 244.066 14.719 243.332 14.719 c 242.629 14.719 241.996
 14.609 241.438 14.395 c 240.883 14.172 240.41 13.852 240.02 13.43 c 239.637
 13.004 239.34 12.48 239.133 11.855 c 238.93 11.23 238.828 10.512 238.828
 9.699 c 238.828 8.938 238.938 8.242 239.152 7.617 c 239.367 6.984 239.676
 6.445 240.078 5.996 c 240.484 5.539 240.973 5.188 241.555 4.941 c 242.133
 4.688 242.789 4.562 243.527 4.562 c 244.23 4.562 244.859 4.672 245.41 4.895
 c 245.973 5.109 246.441 5.426 246.828 5.852 c 247.219 6.266 247.516 6.789
 247.715 7.414 c 247.926 8.039 248.027 8.754 248.027 9.562 c h
246.289 9.641 m 246.289 9.035 246.223 8.508 246.086 8.059 c 245.953 7.602
 245.766 7.223 245.52 6.926 c 245.27 6.617 244.969 6.391 244.609 6.242 c
 244.258 6.086 243.863 6.008 243.43 6.008 c 242.922 6.008 242.484 6.105 
242.121 6.309 c 241.762 6.504 241.465 6.77 241.23 7.102 c 241.004 7.434 
240.836 7.82 240.723 8.262 c 240.621 8.699 240.566 9.156 240.566 9.641 c
 240.566 10.246 240.633 10.773 240.762 11.23 c 240.898 11.688 241.09 12.066
 241.34 12.375 c 241.586 12.672 241.887 12.902 242.238 13.059 c 242.59 13.207
 242.984 13.281 243.43 13.281 c 243.938 13.281 244.371 13.184 244.727 12.988
 c 245.094 12.785 245.387 12.52 245.617 12.188 c 245.852 11.855 246.02 11.473
 246.125 11.035 c 246.234 10.594 246.289 10.129 246.289 9.641 c h
246.289 9.641 m f
258.867 9.465 m 258.867 10.336 258.746 11.098 258.496 11.75 c 258.258 12.398
 257.922 12.941 257.492 13.371 c 257.062 13.801 256.555 14.121 255.969 14.336
 c 255.383 14.551 254.746 14.66 254.062 14.66 c 253.75 14.66 253.438 14.641
 253.125 14.609 c 252.82 14.578 252.508 14.523 252.188 14.441 c 252.188 
18.543 l 250.488 18.543 l 250.488 4.734 l 252.004 4.734 l 252.109 6.375 
l 252.598 5.707 253.121 5.238 253.672 4.969 c 254.227 4.695 254.824 4.559
 255.469 4.559 c 256.031 4.559 256.52 4.676 256.945 4.91 c 257.367 5.145
 257.723 5.477 258.008 5.906 c 258.297 6.332 258.512 6.844 258.652 7.449
 c 258.797 8.051 258.867 8.719 258.867 9.461 c h
257.129 9.543 m 257.129 9.027 257.09 8.555 257.012 8.125 c 256.941 7.695
 256.824 7.328 256.66 7.023 c 256.5 6.715 256.289 6.477 256.035 6.309 c 
255.781 6.133 255.48 6.043 255.129 6.043 c 254.914 6.043 254.695 6.082 254.473
 6.152 c 254.254 6.219 254.02 6.332 253.781 6.496 c 253.547 6.648 253.297
 6.863 253.027 7.129 c 252.77 7.391 252.488 7.715 252.188 8.105 c 252.188
 12.863 l 252.5 12.992 252.828 13.098 253.176 13.176 c 253.52 13.246 253.859
 13.281 254.191 13.281 c 255.109 13.281 255.828 12.973 256.348 12.355 c 
256.871 11.73 257.129 10.793 257.129 9.543 c h
257.129 9.543 m f
269.766 9.121 m 269.766 9.363 269.766 9.562 269.758 9.727 c 269.754 9.891
 269.742 10.043 269.73 10.188 c 262.844 10.188 l 262.844 11.188 263.125 
11.961 263.684 12.5 c 264.242 13.035 265.051 13.301 266.105 13.301 c 266.391
 13.301 266.68 13.293 266.965 13.27 c 267.25 13.246 267.527 13.211 267.797
 13.172 c 268.062 13.133 268.316 13.094 268.559 13.047 c 268.805 12.996 
269.031 12.938 269.242 12.879 c 269.242 14.277 l 268.777 14.406 268.254 
14.512 267.668 14.59 c 267.09 14.676 266.488 14.715 265.863 14.715 c 265.023
 14.715 264.301 14.602 263.695 14.375 c 263.09 14.148 262.59 13.816 262.199
 13.387 c 261.816 12.953 261.527 12.422 261.34 11.797 c 261.156 11.164 261.066
 10.453 261.066 9.656 c 261.066 8.969 261.164 8.316 261.359 7.703 c 261.562
 7.086 261.852 6.547 262.23 6.082 c 262.613 5.613 263.082 5.242 263.637 
4.969 c 264.188 4.695 264.816 4.559 265.52 4.559 c 266.203 4.559 266.809
 4.668 267.336 4.883 c 267.863 5.098 268.305 5.402 268.664 5.801 c 269.027
 6.191 269.301 6.668 269.484 7.234 c 269.672 7.797 269.77 8.426 269.77 9.121
 c h
268 8.875 m 268.02 8.441 267.977 8.043 267.871 7.684 c 267.77 7.32 267.605
 7.008 267.383 6.746 c 267.168 6.488 266.898 6.285 266.574 6.141 c 266.246
 5.992 265.871 5.918 265.441 5.918 c 265.07 5.918 264.73 5.988 264.426 6.133
 c 264.117 6.277 263.855 6.477 263.633 6.738 c 263.414 7 263.234 7.312 263.098
 7.676 c 262.961 8.039 262.875 8.441 262.844 8.875 c h
268 8.875 m f
272.48 4.738 m 273.996 4.738 l 274.062 6.32 l 274.352 5.98 274.625 5.699
 274.895 5.48 c 275.16 5.25 275.422 5.07 275.676 4.934 c 275.934 4.793 276.199
 4.699 276.465 4.648 c 276.734 4.59 277.008 4.559 277.297 4.559 c 278.305
 4.559 279.066 4.859 279.582 5.457 c 280.102 6.051 280.363 6.945 280.363
 8.145 c 280.363 14.539 l 278.664 14.539 l 278.664 8.281 l 278.664 7.512
 278.52 6.945 278.234 6.582 c 277.945 6.211 277.52 6.023 276.953 6.023 c
 276.746 6.023 276.539 6.059 276.34 6.121 c 276.145 6.18 275.938 6.289 275.723
 6.445 c 275.508 6.594 275.273 6.801 275.02 7.059 c 274.773 7.32 274.492
 7.645 274.18 8.035 c 274.18 14.539 l 272.48 14.539 l h
272.48 4.738 m f
289.348 18.645 m 286.344 15.863 284.844 12.789 284.844 9.426 c 284.844 
8.637 284.922 7.852 285.078 7.07 c 285.242 6.281 285.5 5.496 285.852 4.707
 c 286.207 3.918 286.676 3.133 287.258 2.344 c 287.844 1.555 288.551 0.773
 289.387 0 c 290.371 1.008 l 287.848 3.5 286.582 6.262 286.582 9.297 c 286.582
 10.809 286.902 12.258 287.539 13.652 c 288.18 15.047 289.121 16.359 290.371
 17.598 c h
289.348 18.645 m f
297.59 0.742 m 297.316 5.324 l 295.715 5.324 l 295.43 0.742 l h
301.387 0.742 m 301.113 5.324 l 299.512 5.324 l 299.23 0.742 l h
301.387 0.742 m f
313.352 0.742 m 306.652 16.641 l 305.031 16.641 l 311.73 0.742 l h
313.352 0.742 m f
325.168 2.324 m 324.273 2.137 323.508 2.039 322.863 2.039 c 321.332 2.039
 320.566 2.84 320.566 4.441 c 320.566 6.16 l 324.863 6.16 l 324.863 7.578
 l 320.566 7.578 l 320.566 14.543 l 318.84 14.543 l 318.84 7.578 l 315.684
 7.578 l 315.684 6.164 l 318.84 6.164 l 318.84 4.543 l 318.84 1.93 320.199
 0.625 322.922 0.625 c 323.598 0.625 324.348 0.703 325.168 0.859 c h
325.168 2.324 m f
335.996 9.562 m 335.996 10.324 335.891 11.023 335.676 11.66 c 335.461 12.293
 335.152 12.836 334.746 13.293 c 334.344 13.742 333.852 14.094 333.273 14.348
 c 332.691 14.594 332.035 14.719 331.301 14.719 c 330.598 14.719 329.965
 14.609 329.406 14.395 c 328.852 14.172 328.379 13.852 327.988 13.43 c 327.605
 13.004 327.309 12.48 327.102 11.855 c 326.898 11.23 326.797 10.512 326.797
 9.699 c 326.797 8.938 326.906 8.242 327.121 7.617 c 327.336 6.984 327.645
 6.445 328.047 5.996 c 328.453 5.539 328.941 5.188 329.523 4.941 c 330.102
 4.688 330.758 4.562 331.496 4.562 c 332.199 4.562 332.828 4.672 333.379
 4.895 c 333.941 5.109 334.41 5.426 334.797 5.852 c 335.188 6.266 335.484
 6.789 335.684 7.414 c 335.895 8.039 335.996 8.754 335.996 9.562 c h
334.258 9.641 m 334.258 9.035 334.191 8.508 334.055 8.059 c 333.922 7.602
 333.734 7.223 333.488 6.926 c 333.238 6.617 332.938 6.391 332.578 6.242
 c 332.227 6.086 331.832 6.008 331.398 6.008 c 330.891 6.008 330.453 6.105
 330.09 6.309 c 329.73 6.504 329.434 6.77 329.199 7.102 c 328.973 7.434 
328.805 7.82 328.691 8.262 c 328.59 8.699 328.535 9.156 328.535 9.641 c 
328.535 10.246 328.602 10.773 328.73 11.23 c 328.867 11.688 329.062 12.066
 329.309 12.375 c 329.555 12.672 329.855 12.902 330.207 13.059 c 330.559
 13.207 330.953 13.281 331.398 13.281 c 331.906 13.281 332.34 13.184 332.695
 12.988 c 333.062 12.785 333.355 12.52 333.586 12.188 c 333.82 11.855 333.988
 11.473 334.094 11.035 c 334.203 10.594 334.258 10.129 334.258 9.641 c h
334.258 9.641 m f
346.992 9.562 m 346.992 10.324 346.887 11.023 346.672 11.66 c 346.457 12.293
 346.148 12.836 345.742 13.293 c 345.34 13.742 344.848 14.094 344.27 14.348
 c 343.688 14.594 343.031 14.719 342.297 14.719 c 341.594 14.719 340.961
 14.609 340.402 14.395 c 339.848 14.172 339.375 13.852 338.984 13.43 c 338.602
 13.004 338.305 12.48 338.098 11.855 c 337.895 11.23 337.793 10.512 337.793
 9.699 c 337.793 8.938 337.902 8.242 338.117 7.617 c 338.332 6.984 338.641
 6.445 339.043 5.996 c 339.449 5.539 339.938 5.188 340.52 4.941 c 341.098
 4.688 341.754 4.562 342.492 4.562 c 343.195 4.562 343.824 4.672 344.375
 4.895 c 344.938 5.109 345.406 5.426 345.793 5.852 c 346.184 6.266 346.48
 6.789 346.68 7.414 c 346.891 8.039 346.992 8.754 346.992 9.562 c h
345.254 9.641 m 345.254 9.035 345.188 8.508 345.051 8.059 c 344.918 7.602
 344.73 7.223 344.484 6.926 c 344.234 6.617 343.934 6.391 343.574 6.242 
c 343.223 6.086 342.828 6.008 342.395 6.008 c 341.887 6.008 341.449 6.105
 341.086 6.309 c 340.727 6.504 340.43 6.77 340.195 7.102 c 339.969 7.434
 339.801 7.82 339.688 8.262 c 339.586 8.699 339.531 9.156 339.531 9.641 
c 339.531 10.246 339.598 10.773 339.727 11.23 c 339.863 11.688 340.055 12.066
 340.305 12.375 c 340.551 12.672 340.852 12.902 341.203 13.059 c 341.555
 13.207 341.949 13.281 342.395 13.281 c 342.902 13.281 343.336 13.184 343.691
 12.988 c 344.059 12.785 344.352 12.52 344.582 12.188 c 344.816 11.855 344.984
 11.473 345.09 11.035 c 345.199 10.594 345.254 10.129 345.254 9.641 c h
345.254 9.641 m f
357.336 0.742 m 350.637 16.641 l 349.016 16.641 l 355.715 0.742 l h
357.336 0.742 m f
368.828 9.465 m 368.828 10.277 368.715 11.008 368.488 11.652 c 368.266 
12.289 367.945 12.832 367.531 13.281 c 367.121 13.723 366.617 14.066 366.027
 14.309 c 365.434 14.543 364.766 14.66 364.023 14.66 c 363.445 14.66 362.852
 14.602 362.246 14.492 c 361.641 14.383 361.043 14.207 360.449 13.965 c 
360.449 0.742 l 362.148 0.742 l 362.148 4.539 l 362.07 6.355 l 362.559 5.699
 363.082 5.238 363.633 4.969 c 364.195 4.695 364.793 4.559 365.43 4.559 
c 365.992 4.559 366.48 4.676 366.906 4.91 c 367.328 5.145 367.684 5.477 
367.969 5.906 c 368.258 6.332 368.473 6.844 368.613 7.449 c 368.758 8.051
 368.828 8.719 368.828 9.461 c h
367.09 9.543 m 367.09 9.027 367.051 8.555 366.973 8.125 c 366.902 7.695
 366.785 7.328 366.621 7.023 c 366.461 6.715 366.25 6.477 365.996 6.309 
c 365.742 6.133 365.441 6.043 365.09 6.043 c 364.875 6.043 364.656 6.082
 364.434 6.152 c 364.215 6.219 363.98 6.332 363.742 6.496 c 363.508 6.648
 363.258 6.863 362.988 7.129 c 362.73 7.391 362.449 7.715 362.148 8.105 
c 362.148 12.863 l 362.48 12.992 362.82 13.098 363.164 13.176 c 363.512 
13.246 363.84 13.281 364.152 13.281 c 364.543 13.281 364.914 13.219 365.266
 13.098 c 365.621 12.973 365.934 12.766 366.203 12.48 c 366.477 12.188 366.691
 11.805 366.848 11.328 c 367.008 10.848 367.09 10.25 367.09 9.543 c h
367.09 9.543 m f
377.746 14.543 m 377.707 13.223 l 377.172 13.75 376.629 14.133 376.074 
14.367 c 375.527 14.602 374.953 14.719 374.348 14.719 c 373.785 14.719 373.309
 14.645 372.91 14.504 c 372.516 14.359 372.184 14.164 371.926 13.918 c 371.672
 13.664 371.48 13.367 371.359 13.027 c 371.242 12.688 371.184 12.32 371.184
 11.926 c 371.184 10.941 371.547 10.172 372.277 9.621 c 373.012 9.059 374.098
 8.781 375.527 8.781 c 377.559 8.781 l 377.559 7.922 l 377.559 7.34 377.375
 6.879 377.004 6.535 c 376.633 6.184 376.066 6.008 375.305 6.008 c 374.75
 6.008 374.203 6.066 373.664 6.191 c 373.129 6.316 372.574 6.492 372.004
 6.719 c 372.004 5.188 l 372.219 5.109 372.457 5.031 372.715 4.961 c 372.984
 4.883 373.262 4.816 373.555 4.758 c 373.848 4.695 374.156 4.652 374.473
 4.621 c 374.793 4.582 375.113 4.562 375.441 4.562 c 376.031 4.562 376.566
 4.625 377.043 4.758 c 377.516 4.887 377.918 5.086 378.242 5.352 c 378.574
 5.617 378.828 5.953 379.004 6.359 c 379.18 6.762 379.27 7.238 379.27 7.785
 c 379.27 14.543 l h
377.559 10.078 m 375.402 10.078 l 374.977 10.078 374.613 10.121 374.309
 10.207 c 374 10.289 373.75 10.41 373.555 10.566 c 373.359 10.723 373.215
 10.91 373.117 11.133 c 373.023 11.348 372.98 11.594 372.98 11.867 c 372.98
 12.055 373.008 12.238 373.066 12.414 c 373.125 12.582 373.219 12.734 373.352
 12.871 c 373.48 13 373.648 13.105 373.859 13.184 c 374.066 13.262 374.32
 13.301 374.621 13.301 c 375.012 13.301 375.457 13.184 375.957 12.949 c 
376.465 12.707 377 12.332 377.559 11.816 c h
377.559 10.078 m f
382.844 4.738 m 384.395 4.738 l 384.445 6.543 l 385.023 5.848 385.594 5.344
 386.152 5.031 c 386.719 4.719 387.289 4.562 387.863 4.562 c 388.879 4.562
 389.645 4.891 390.168 5.547 c 390.695 6.203 390.938 7.18 390.898 8.477 
c 389.18 8.477 l 389.199 7.617 389.074 6.996 388.801 6.613 c 388.531 6.223
 388.141 6.027 387.617 6.027 c 387.391 6.027 387.16 6.066 386.926 6.152 
c 386.695 6.23 386.461 6.359 386.211 6.543 c 385.973 6.719 385.715 6.945
 385.441 7.227 c 385.168 7.508 384.875 7.844 384.562 8.242 c 384.562 14.543
 l 382.844 14.543 l h
382.844 4.738 m f
396.555 0.742 m 396.281 5.324 l 394.68 5.324 l 394.395 0.742 l h
400.352 0.742 m 400.078 5.324 l 398.477 5.324 l 398.195 0.742 l h
400.352 0.742 m f
406.438 0 m 409.438 2.781 410.938 5.871 410.938 9.277 c 410.938 9.98 410.867
 10.711 410.723 11.465 c 410.582 12.219 410.336 12.996 409.992 13.789 c 
409.645 14.578 409.18 15.379 408.594 16.191 c 408.016 17.004 407.281 17.824
 406.398 18.645 c 405.41 17.637 l 406.68 16.379 407.629 15.07 408.254 13.703
 c 408.879 12.336 409.191 10.902 409.191 9.406 c 409.191 6.305 407.93 3.52
 405.41 1.043 c h
406.438 0 m f
419.367 4.562 m 419.566 4.562 419.762 4.602 419.941 4.688 c 420.125 4.766
 420.285 4.875 420.422 5.012 c 420.559 5.148 420.664 5.305 420.742 5.488
 c 420.828 5.672 420.871 5.863 420.871 6.066 c 420.871 6.273 420.828 6.469
 420.742 6.652 c 420.664 6.828 420.559 6.984 420.422 7.121 c 420.285 7.258
 420.125 7.363 419.941 7.441 c 419.762 7.52 419.566 7.559 419.367 7.559 
c 419.156 7.559 418.961 7.52 418.781 7.441 c 418.605 7.363 418.449 7.258
 418.312 7.121 c 418.176 6.984 418.066 6.828 417.988 6.652 c 417.91 6.469
 417.871 6.273 417.871 6.066 c 417.871 5.863 417.91 5.672 417.988 5.488 
c 418.066 5.305 418.176 5.148 418.312 5.012 c 418.449 4.875 418.605 4.766
 418.781 4.688 c 418.961 4.602 419.156 4.562 419.367 4.562 c h
419.367 11.719 m 419.566 11.719 419.762 11.762 419.941 11.848 c 420.125
 11.926 420.285 12.031 420.422 12.168 c 420.559 12.305 420.664 12.465 420.742
 12.648 c 420.828 12.828 420.871 13.02 420.871 13.223 c 420.871 13.43 420.828
 13.625 420.742 13.809 c 420.664 13.984 420.559 14.141 420.422 14.277 c 
420.285 14.414 420.125 14.523 419.941 14.602 c 419.762 14.68 419.566 14.719
 419.367 14.719 c 419.156 14.719 418.961 14.68 418.781 14.602 c 418.605 
14.523 418.449 14.414 418.312 14.277 c 418.176 14.141 418.066 13.984 417.988
 13.809 c 417.91 13.625 417.871 13.43 417.871 13.223 c 417.871 13.02 417.91
 12.828 417.988 12.648 c 418.066 12.465 418.176 12.305 418.312 12.168 c 
418.449 12.031 418.605 11.926 418.781 11.848 c 418.961 11.762 419.156 11.719
 419.367 11.719 c h
419.367 11.719 m f
0 0.25098 1 rg
269.66 38.543 m 261.641 38.543 l 261.641 36.961 l 264.922 36.961 l 264.922
 27.645 l 261.867 29.305 l 261.242 27.859 l 265.305 25.719 l 266.809 25.719
 l 266.809 36.961 l 269.66 36.961 l h
269.66 38.543 m f
0 g
276.34 35.465 m 276.559 35.465 276.77 35.508 276.965 35.594 c 277.164 35.676
 277.34 35.793 277.48 35.945 c 277.633 36.094 277.75 36.27 277.832 36.473
 c 277.918 36.668 277.961 36.879 277.961 37.105 c 277.961 37.328 277.918
 37.535 277.832 37.73 c 277.75 37.926 277.633 38.098 277.48 38.25 c 277.34
 38.391 277.164 38.504 276.965 38.59 c 276.77 38.676 276.559 38.719 276.34
 38.719 c 276.109 38.719 275.898 38.676 275.703 38.59 c 275.508 38.504 275.336
 38.391 275.188 38.25 c 275.043 38.098 274.93 37.926 274.844 37.73 c 274.762
 37.535 274.719 37.328 274.719 37.105 c 274.719 36.879 274.762 36.668 274.844
 36.473 c 274.93 36.27 275.043 36.094 275.188 35.945 c 275.336 35.793 275.508
 35.676 275.703 35.594 c 275.898 35.508 276.109 35.465 276.34 35.465 c h
276.34 35.465 m f
286.816 26.141 m 283.918 26.141 l 283.918 24.742 l 288.535 24.742 l 288.535
 37.125 l 291.457 37.125 l 291.457 38.543 l 283.594 38.543 l 283.594 37.125
 l 286.816 37.125 l h
286.816 26.141 m f
303.008 33.562 m 303.008 34.324 302.902 35.023 302.688 35.66 c 302.473 
36.293 302.164 36.836 301.758 37.293 c 301.355 37.742 300.863 38.094 300.285
 38.348 c 299.703 38.594 299.047 38.719 298.312 38.719 c 297.609 38.719 
296.977 38.609 296.418 38.395 c 295.863 38.172 295.391 37.852 295 37.43 
c 294.617 37.004 294.32 36.48 294.113 35.855 c 293.91 35.23 293.809 34.512
 293.809 33.699 c 293.809 32.938 293.918 32.242 294.133 31.617 c 294.348
 30.984 294.656 30.445 295.059 29.996 c 295.465 29.539 295.953 29.188 296.535
 28.941 c 297.113 28.688 297.77 28.562 298.508 28.562 c 299.211 28.562 299.84
 28.672 300.391 28.895 c 300.953 29.109 301.422 29.426 301.809 29.852 c 
302.199 30.266 302.496 30.789 302.695 31.414 c 302.906 32.039 303.008 32.754
 303.008 33.562 c h
301.27 33.641 m 301.27 33.035 301.203 32.508 301.066 32.059 c 300.934 31.602
 300.746 31.223 300.5 30.926 c 300.25 30.617 299.949 30.391 299.59 30.242
 c 299.238 30.086 298.844 30.008 298.41 30.008 c 297.902 30.008 297.465 
30.105 297.102 30.309 c 296.742 30.504 296.445 30.77 296.211 31.102 c 295.984
 31.434 295.816 31.82 295.703 32.262 c 295.602 32.699 295.547 33.156 295.547
 33.641 c 295.547 34.246 295.613 34.773 295.742 35.23 c 295.879 35.688 296.07
 36.066 296.32 36.375 c 296.566 36.672 296.867 36.902 297.219 37.059 c 297.57
 37.207 297.965 37.281 298.41 37.281 c 298.918 37.281 299.352 37.184 299.707
 36.988 c 300.074 36.785 300.367 36.52 300.598 36.188 c 300.832 35.855 301
 35.473 301.105 35.035 c 301.215 34.594 301.27 34.129 301.27 33.641 c h
301.27 33.641 m f
314.004 33.562 m 314.004 34.324 313.898 35.023 313.684 35.66 c 313.469 
36.293 313.16 36.836 312.754 37.293 c 312.352 37.742 311.859 38.094 311.281
 38.348 c 310.699 38.594 310.043 38.719 309.309 38.719 c 308.605 38.719 
307.973 38.609 307.414 38.395 c 306.859 38.172 306.387 37.852 305.996 37.43
 c 305.613 37.004 305.316 36.48 305.109 35.855 c 304.906 35.23 304.805 34.512
 304.805 33.699 c 304.805 32.938 304.914 32.242 305.129 31.617 c 305.344
 30.984 305.652 30.445 306.055 29.996 c 306.461 29.539 306.949 29.188 307.531
 28.941 c 308.109 28.688 308.766 28.562 309.504 28.562 c 310.207 28.562 
310.836 28.672 311.387 28.895 c 311.949 29.109 312.418 29.426 312.805 29.852
 c 313.195 30.266 313.492 30.789 313.691 31.414 c 313.902 32.039 314.004
 32.754 314.004 33.562 c h
312.266 33.641 m 312.266 33.035 312.199 32.508 312.062 32.059 c 311.93 
31.602 311.742 31.223 311.496 30.926 c 311.246 30.617 310.945 30.391 310.586
 30.242 c 310.234 30.086 309.84 30.008 309.406 30.008 c 308.898 30.008 308.461
 30.105 308.098 30.309 c 307.738 30.504 307.441 30.77 307.207 31.102 c 306.98
 31.434 306.812 31.82 306.699 32.262 c 306.598 32.699 306.543 33.156 306.543
 33.641 c 306.543 34.246 306.609 34.773 306.738 35.23 c 306.875 35.688 307.066
 36.066 307.316 36.375 c 307.562 36.672 307.863 36.902 308.215 37.059 c 
308.566 37.207 308.961 37.281 309.406 37.281 c 309.914 37.281 310.348 37.184
 310.703 36.988 c 311.07 36.785 311.363 36.52 311.594 36.188 c 311.828 35.855
 311.996 35.473 312.102 35.035 c 312.211 34.594 312.266 34.129 312.266 33.641
 c h
312.266 33.641 m f
325.285 38.543 m 322.949 38.543 l 318.379 33.289 l 318.379 38.543 l 316.68
 38.543 l 316.68 24.742 l 318.379 24.742 l 318.379 33.219 l 322.785 28.738
 l 325.031 28.738 l 320.43 33.258 l h
325.285 38.543 m f
335.344 38.543 m 333.82 38.543 l 333.762 36.961 l 333.469 37.297 333.188
 37.582 332.922 37.809 c 332.66 38.031 332.398 38.211 332.141 38.348 c 331.879
 38.484 331.617 38.578 331.348 38.629 c 331.09 38.688 330.812 38.719 330.52
 38.719 c 329.508 38.719 328.746 38.422 328.234 37.828 c 327.719 37.234 
327.461 36.34 327.461 35.145 c 327.461 28.738 l 329.16 28.738 l 329.16 35.008
 l 329.16 36.512 329.727 37.262 330.859 37.262 c 331.07 37.262 331.27 37.234
 331.465 37.176 c 331.668 37.109 331.875 37 332.09 36.852 c 332.312 36.695
 332.547 36.488 332.793 36.227 c 333.047 35.965 333.332 35.637 333.645 35.242
 c 333.645 28.738 l 335.344 28.738 l h
335.344 38.543 m f
346.836 33.465 m 346.836 34.336 346.715 35.098 346.465 35.75 c 346.227 
36.398 345.891 36.941 345.461 37.371 c 345.031 37.801 344.523 38.121 343.938
 38.336 c 343.352 38.551 342.715 38.66 342.031 38.66 c 341.719 38.66 341.406
 38.641 341.094 38.609 c 340.789 38.578 340.477 38.523 340.156 38.445 c 
340.156 42.547 l 338.457 42.547 l 338.457 28.738 l 339.973 28.738 l 340.078
 30.379 l 340.566 29.707 341.09 29.238 341.641 28.973 c 342.195 28.699 342.793
 28.562 343.438 28.562 c 344 28.562 344.488 28.68 344.914 28.914 c 345.336
 29.148 345.691 29.48 345.977 29.91 c 346.266 30.332 346.48 30.848 346.621
 31.453 c 346.766 32.051 346.836 32.723 346.836 33.465 c h
345.098 33.543 m 345.098 33.027 345.059 32.555 344.98 32.125 c 344.91 31.695
 344.793 31.328 344.629 31.023 c 344.469 30.715 344.258 30.477 344.004 30.309
 c 343.75 30.133 343.449 30.047 343.098 30.047 c 342.883 30.047 342.664 
30.082 342.441 30.152 c 342.223 30.219 341.988 30.332 341.75 30.496 c 341.516
 30.652 341.266 30.863 340.996 31.129 c 340.738 31.391 340.457 31.715 340.156
 32.105 c 340.156 36.863 l 340.469 36.992 340.797 37.098 341.145 37.176 
c 341.488 37.246 341.828 37.281 342.16 37.281 c 343.078 37.281 343.797 36.973
 344.316 36.355 c 344.84 35.73 345.098 34.793 345.098 33.543 c h
345.098 33.543 m f
355.324 42.645 m 352.32 39.863 350.82 36.789 350.82 33.426 c 350.82 32.637
 350.898 31.852 351.055 31.07 c 351.219 30.281 351.477 29.496 351.828 28.707
 c 352.184 27.918 352.652 27.133 353.234 26.344 c 353.82 25.555 354.527 
24.773 355.363 24 c 356.348 25.008 l 353.824 27.5 352.559 30.262 352.559
 33.297 c 352.559 34.809 352.879 36.258 353.516 37.652 c 354.156 39.047 
355.098 40.359 356.348 41.598 c h
355.324 42.645 m f
363.566 24.742 m 363.293 29.324 l 361.691 29.324 l 361.406 24.742 l h
367.363 24.742 m 367.09 29.324 l 365.488 29.324 l 365.207 24.742 l h
367.363 24.742 m f
380.148 26.324 m 379.254 26.137 378.488 26.043 377.844 26.043 c 376.312
 26.043 375.547 26.844 375.547 28.445 c 375.547 30.164 l 379.844 30.164 
l 379.844 31.578 l 375.547 31.578 l 375.547 38.543 l 373.82 38.543 l 373.82
 31.578 l 370.664 31.578 l 370.664 30.164 l 373.82 30.164 l 373.82 28.543
 l 373.82 25.93 375.18 24.625 377.902 24.625 c 378.578 24.625 379.328 24.703
 380.148 24.859 c h
380.148 26.324 m f
390.977 33.562 m 390.977 34.324 390.871 35.023 390.656 35.66 c 390.441 
36.293 390.133 36.836 389.727 37.293 c 389.324 37.742 388.832 38.094 388.254
 38.348 c 387.672 38.594 387.016 38.719 386.281 38.719 c 385.578 38.719 
384.945 38.609 384.387 38.395 c 383.832 38.172 383.359 37.852 382.969 37.43
 c 382.586 37.004 382.289 36.48 382.082 35.855 c 381.879 35.23 381.777 34.512
 381.777 33.699 c 381.777 32.938 381.887 32.242 382.102 31.617 c 382.316
 30.984 382.625 30.445 383.027 29.996 c 383.434 29.539 383.922 29.188 384.504
 28.941 c 385.082 28.688 385.738 28.562 386.477 28.562 c 387.18 28.562 387.809
 28.672 388.359 28.895 c 388.922 29.109 389.391 29.426 389.777 29.852 c 
390.168 30.266 390.465 30.789 390.664 31.414 c 390.875 32.039 390.977 32.754
 390.977 33.562 c h
389.238 33.641 m 389.238 33.035 389.172 32.508 389.035 32.059 c 388.902
 31.602 388.715 31.223 388.469 30.926 c 388.219 30.617 387.918 30.391 387.559
 30.242 c 387.207 30.086 386.812 30.008 386.379 30.008 c 385.871 30.008 
385.434 30.105 385.07 30.309 c 384.711 30.504 384.414 30.77 384.18 31.102
 c 383.953 31.434 383.785 31.82 383.672 32.262 c 383.57 32.699 383.516 33.156
 383.516 33.641 c 383.516 34.246 383.582 34.773 383.711 35.23 c 383.848 
35.688 384.039 36.066 384.289 36.375 c 384.535 36.672 384.836 36.902 385.188
 37.059 c 385.539 37.207 385.934 37.281 386.379 37.281 c 386.887 37.281 
387.32 37.184 387.676 36.988 c 388.043 36.785 388.336 36.52 388.566 36.188
 c 388.801 35.855 388.969 35.473 389.074 35.035 c 389.184 34.594 389.238
 34.129 389.238 33.641 c h
389.238 33.641 m f
401.973 33.562 m 401.973 34.324 401.867 35.023 401.652 35.66 c 401.438 
36.293 401.129 36.836 400.723 37.293 c 400.32 37.742 399.828 38.094 399.25
 38.348 c 398.668 38.594 398.012 38.719 397.277 38.719 c 396.574 38.719 
395.941 38.609 395.383 38.395 c 394.828 38.172 394.355 37.852 393.965 37.43
 c 393.582 37.004 393.285 36.48 393.078 35.855 c 392.875 35.23 392.773 34.512
 392.773 33.699 c 392.773 32.938 392.883 32.242 393.098 31.617 c 393.312
 30.984 393.621 30.445 394.023 29.996 c 394.43 29.539 394.918 29.188 395.5
 28.941 c 396.078 28.688 396.734 28.562 397.473 28.562 c 398.176 28.562 
398.805 28.672 399.355 28.895 c 399.918 29.109 400.387 29.426 400.773 29.852
 c 401.164 30.266 401.461 30.789 401.66 31.414 c 401.871 32.039 401.973 
32.754 401.973 33.562 c h
400.234 33.641 m 400.234 33.035 400.168 32.508 400.031 32.059 c 399.898
 31.602 399.711 31.223 399.465 30.926 c 399.215 30.617 398.914 30.391 398.555
 30.242 c 398.203 30.086 397.809 30.008 397.375 30.008 c 396.867 30.008 
396.43 30.105 396.066 30.309 c 395.707 30.504 395.41 30.77 395.176 31.102
 c 394.949 31.434 394.781 31.82 394.668 32.262 c 394.566 32.699 394.512 
33.156 394.512 33.641 c 394.512 34.246 394.578 34.773 394.707 35.23 c 394.844
 35.688 395.035 36.066 395.285 36.375 c 395.531 36.672 395.832 36.902 396.184
 37.059 c 396.535 37.207 396.93 37.281 397.375 37.281 c 397.883 37.281 398.316
 37.184 398.672 36.988 c 399.039 36.785 399.332 36.52 399.562 36.188 c 399.797
 35.855 399.965 35.473 400.07 35.035 c 400.18 34.594 400.234 34.129 400.234
 33.641 c h
400.234 33.641 m f
407.551 24.742 m 407.277 29.324 l 405.676 29.324 l 405.391 24.742 l h
411.348 24.742 m 411.074 29.324 l 409.473 29.324 l 409.191 24.742 l h
411.348 24.742 m f
417.434 24 m 420.434 26.781 421.934 29.871 421.934 33.277 c 421.934 33.98
 421.863 34.711 421.719 35.465 c 421.578 36.219 421.332 36.996 420.988 37.789
 c 420.641 38.578 420.176 39.379 419.59 40.191 c 419.012 41.004 418.277 
41.824 417.395 42.645 c 416.406 41.637 l 417.676 40.379 418.625 39.07 419.25
 37.703 c 419.875 36.336 420.188 34.902 420.188 33.406 c 420.188 30.305 
418.926 27.52 416.406 25.047 c h
417.434 24 m f
441.262 30.25 m 442.207 29.168 l 446.66 33.023 l 442.207 36.883 l 441.262
 35.797 l 443.887 33.699 l 442.082 33.766 l 436.055 33.766 l 436.055 32.281
 l 442.082 32.281 l 443.887 32.34 l h
441.262 30.25 m f
1 0 0 rg
468.332 35.719 m 466.152 35.719 l 466.152 38.543 l 464.414 38.543 l 464.414
 35.719 l 458.273 35.719 l 458.273 34.227 l 463.711 25.777 l 466.152 25.777
 l 466.152 34.227 l 468.332 34.227 l h
464.414 27.418 m 459.973 34.227 l 464.414 34.227 l h
464.414 27.418 m f
478.691 38.543 m 470.285 38.543 l 470.285 37.02 l 473.586 33.738 l 474.125
 33.203 474.566 32.742 474.902 32.352 c 475.242 31.961 475.504 31.605 475.695
 31.285 c 475.883 30.961 476.012 30.652 476.074 30.367 c 476.141 30.082 
476.172 29.773 476.172 29.441 c 476.172 29.129 476.129 28.832 476.047 28.551
 c 475.961 28.266 475.832 28.016 475.656 27.801 c 475.48 27.586 475.25 27.414
 474.973 27.293 c 474.691 27.168 474.355 27.105 473.965 27.105 c 473.426
 27.105 472.934 27.227 472.492 27.469 c 472.047 27.707 471.641 28.02 471.27
 28.406 c 470.332 27.281 l 470.816 26.773 471.367 26.367 471.992 26.062 
c 472.625 25.754 473.355 25.602 474.191 25.602 c 474.758 25.602 475.27 25.688
 475.734 25.855 c 476.203 26.023 476.605 26.27 476.945 26.59 c 477.281 26.906
 477.543 27.297 477.727 27.762 c 477.914 28.223 478.008 28.742 478.008 29.324
 c 478.008 29.812 477.945 30.262 477.812 30.68 c 477.684 31.098 477.484 
31.512 477.219 31.93 c 476.957 32.34 476.625 32.766 476.223 33.211 c 475.824
 33.652 475.352 34.137 474.805 34.664 c 472.492 36.922 l 478.691 36.922 
l h
478.691 38.543 m f
270.402 59.719 m 268.223 59.719 l 268.223 62.543 l 266.484 62.543 l 266.484
 59.719 l 260.344 59.719 l 260.344 58.227 l 265.781 49.777 l 268.223 49.777
 l 268.223 58.227 l 270.402 58.227 l h
266.484 51.418 m 262.043 58.227 l 266.484 58.227 l h
266.484 51.418 m f
280.762 62.543 m 272.355 62.543 l 272.355 61.02 l 275.656 57.738 l 276.195
 57.203 276.637 56.742 276.973 56.352 c 277.312 55.961 277.574 55.605 277.766
 55.285 c 277.953 54.961 278.082 54.652 278.145 54.367 c 278.211 54.082 
278.242 53.773 278.242 53.441 c 278.242 53.129 278.199 52.832 278.117 52.551
 c 278.031 52.266 277.902 52.016 277.727 51.801 c 277.551 51.586 277.32 
51.414 277.043 51.293 c 276.762 51.168 276.426 51.105 276.035 51.105 c 275.496
 51.105 275.004 51.227 274.562 51.469 c 274.117 51.707 273.711 52.02 273.34
 52.406 c 272.402 51.281 l 272.887 50.773 273.438 50.367 274.062 50.062 
c 274.695 49.754 275.426 49.602 276.262 49.602 c 276.828 49.602 277.34 49.688
 277.805 49.855 c 278.273 50.023 278.676 50.27 279.016 50.59 c 279.352 50.906
 279.613 51.297 279.797 51.762 c 279.984 52.223 280.078 52.742 280.078 53.324
 c 280.078 53.812 280.016 54.262 279.883 54.68 c 279.754 55.098 279.555 
55.512 279.289 55.93 c 279.027 56.34 278.695 56.766 278.293 57.211 c 277.895
 57.652 277.422 58.137 276.875 58.664 c 274.562 60.922 l 280.762 60.922 
l h
280.762 62.543 m f
0 g
287.336 59.465 m 287.555 59.465 287.766 59.508 287.961 59.594 c 288.16 
59.676 288.336 59.793 288.477 59.945 c 288.629 60.094 288.746 60.27 288.828
 60.473 c 288.914 60.668 288.957 60.879 288.957 61.105 c 288.957 61.328 
288.914 61.535 288.828 61.73 c 288.746 61.926 288.629 62.098 288.477 62.25
 c 288.336 62.391 288.16 62.504 287.961 62.59 c 287.766 62.676 287.555 62.719
 287.336 62.719 c 287.105 62.719 286.895 62.676 286.699 62.59 c 286.504 
62.504 286.332 62.391 286.184 62.25 c 286.039 62.098 285.926 61.926 285.84
 61.73 c 285.758 61.535 285.715 61.328 285.715 61.105 c 285.715 60.879 285.758
 60.668 285.84 60.473 c 285.926 60.27 286.039 60.094 286.184 59.945 c 286.332
 59.793 286.504 59.676 286.699 59.594 c 286.895 59.508 287.105 59.465 287.336
 59.465 c h
287.336 59.465 m f
297.812 50.141 m 294.914 50.141 l 294.914 48.742 l 299.531 48.742 l 299.531
 61.125 l 302.453 61.125 l 302.453 62.543 l 294.59 62.543 l 294.59 61.125
 l 297.812 61.125 l h
297.812 50.141 m f
314.004 57.562 m 314.004 58.324 313.898 59.023 313.684 59.66 c 313.469 
60.293 313.16 60.836 312.754 61.293 c 312.352 61.742 311.859 62.094 311.281
 62.348 c 310.699 62.594 310.043 62.719 309.309 62.719 c 308.605 62.719 
307.973 62.609 307.414 62.395 c 306.859 62.172 306.387 61.852 305.996 61.43
 c 305.613 61.004 305.316 60.48 305.109 59.855 c 304.906 59.23 304.805 58.512
 304.805 57.699 c 304.805 56.938 304.914 56.242 305.129 55.617 c 305.344
 54.984 305.652 54.445 306.055 53.996 c 306.461 53.539 306.949 53.188 307.531
 52.941 c 308.109 52.688 308.766 52.562 309.504 52.562 c 310.207 52.562 
310.836 52.672 311.387 52.895 c 311.949 53.109 312.418 53.426 312.805 53.852
 c 313.195 54.266 313.492 54.789 313.691 55.414 c 313.902 56.039 314.004
 56.754 314.004 57.562 c h
312.266 57.641 m 312.266 57.035 312.199 56.508 312.062 56.059 c 311.93 
55.602 311.742 55.223 311.496 54.926 c 311.246 54.617 310.945 54.391 310.586
 54.242 c 310.234 54.086 309.84 54.008 309.406 54.008 c 308.898 54.008 308.461
 54.105 308.098 54.309 c 307.738 54.504 307.441 54.77 307.207 55.102 c 306.98
 55.434 306.812 55.82 306.699 56.262 c 306.598 56.699 306.543 57.156 306.543
 57.641 c 306.543 58.246 306.609 58.773 306.738 59.23 c 306.875 59.688 307.066
 60.066 307.316 60.375 c 307.562 60.672 307.863 60.902 308.215 61.059 c 
308.566 61.207 308.961 61.281 309.406 61.281 c 309.914 61.281 310.348 61.184
 310.703 60.988 c 311.07 60.785 311.363 60.52 311.594 60.188 c 311.828 59.855
 311.996 59.473 312.102 59.035 c 312.211 58.594 312.266 58.129 312.266 57.641
 c h
312.266 57.641 m f
325 57.562 m 325 58.324 324.895 59.023 324.68 59.66 c 324.465 60.293 324.156
 60.836 323.75 61.293 c 323.348 61.742 322.855 62.094 322.277 62.348 c 321.695
 62.594 321.039 62.719 320.305 62.719 c 319.602 62.719 318.969 62.609 318.41
 62.395 c 317.855 62.172 317.383 61.852 316.992 61.43 c 316.609 61.004 316.312
 60.48 316.105 59.855 c 315.902 59.23 315.801 58.512 315.801 57.699 c 315.801
 56.938 315.91 56.242 316.125 55.617 c 316.34 54.984 316.648 54.445 317.051
 53.996 c 317.457 53.539 317.945 53.188 318.527 52.941 c 319.105 52.688 
319.762 52.562 320.5 52.562 c 321.203 52.562 321.832 52.672 322.383 52.895
 c 322.945 53.109 323.414 53.426 323.801 53.852 c 324.191 54.266 324.488
 54.789 324.688 55.414 c 324.898 56.039 325 56.754 325 57.562 c h
323.262 57.641 m 323.262 57.035 323.195 56.508 323.059 56.059 c 322.926
 55.602 322.738 55.223 322.492 54.926 c 322.242 54.617 321.941 54.391 321.582
 54.242 c 321.23 54.086 320.836 54.008 320.402 54.008 c 319.895 54.008 319.457
 54.105 319.094 54.309 c 318.734 54.504 318.438 54.77 318.203 55.102 c 317.977
 55.434 317.809 55.82 317.695 56.262 c 317.594 56.699 317.539 57.156 317.539
 57.641 c 317.539 58.246 317.605 58.773 317.734 59.23 c 317.871 59.688 318.062
 60.066 318.312 60.375 c 318.559 60.672 318.859 60.902 319.211 61.059 c 
319.562 61.207 319.957 61.281 320.402 61.281 c 320.91 61.281 321.344 61.184
 321.699 60.988 c 322.066 60.785 322.359 60.52 322.59 60.188 c 322.824 59.855
 322.992 59.473 323.098 59.035 c 323.207 58.594 323.262 58.129 323.262 57.641
 c h
323.262 57.641 m f
336.281 62.543 m 333.945 62.543 l 329.375 57.289 l 329.375 62.543 l 327.676
 62.543 l 327.676 48.742 l 329.375 48.742 l 329.375 57.219 l 333.781 52.738
 l 336.027 52.738 l 331.426 57.258 l h
336.281 62.543 m f
346.34 62.543 m 344.816 62.543 l 344.758 60.961 l 344.465 61.297 344.184
 61.582 343.918 61.809 c 343.656 62.031 343.395 62.211 343.137 62.348 c 
342.875 62.484 342.613 62.578 342.344 62.629 c 342.086 62.688 341.809 62.719
 341.516 62.719 c 340.504 62.719 339.742 62.422 339.23 61.828 c 338.715 
61.234 338.457 60.34 338.457 59.145 c 338.457 52.738 l 340.156 52.738 l 
340.156 59.008 l 340.156 60.512 340.723 61.262 341.855 61.262 c 342.066 
61.262 342.266 61.234 342.461 61.176 c 342.664 61.109 342.871 61 343.086
 60.852 c 343.309 60.695 343.543 60.488 343.789 60.227 c 344.043 59.965 
344.328 59.637 344.641 59.242 c 344.641 52.738 l 346.34 52.738 l h
346.34 62.543 m f
357.832 57.465 m 357.832 58.336 357.711 59.098 357.461 59.75 c 357.223 
60.398 356.887 60.941 356.457 61.371 c 356.027 61.801 355.52 62.121 354.934
 62.336 c 354.348 62.551 353.711 62.66 353.027 62.66 c 352.715 62.66 352.402
 62.641 352.09 62.609 c 351.785 62.578 351.473 62.523 351.152 62.445 c 351.152
 66.547 l 349.453 66.547 l 349.453 52.738 l 350.969 52.738 l 351.074 54.379
 l 351.562 53.707 352.086 53.238 352.637 52.973 c 353.191 52.699 353.789
 52.562 354.434 52.562 c 354.996 52.562 355.484 52.68 355.91 52.914 c 356.332
 53.148 356.688 53.48 356.973 53.91 c 357.262 54.332 357.477 54.848 357.617
 55.453 c 357.762 56.051 357.832 56.723 357.832 57.465 c h
356.094 57.543 m 356.094 57.027 356.055 56.555 355.977 56.125 c 355.906
 55.695 355.789 55.328 355.625 55.023 c 355.465 54.715 355.254 54.477 355
 54.309 c 354.746 54.133 354.445 54.047 354.094 54.047 c 353.879 54.047 
353.66 54.082 353.438 54.152 c 353.219 54.219 352.984 54.332 352.746 54.496
 c 352.512 54.652 352.262 54.863 351.992 55.129 c 351.734 55.391 351.453
 55.715 351.152 56.105 c 351.152 60.863 l 351.465 60.992 351.793 61.098 
352.141 61.176 c 352.484 61.246 352.824 61.281 353.156 61.281 c 354.074 
61.281 354.793 60.973 355.312 60.355 c 355.836 59.73 356.094 58.793 356.094
 57.543 c h
356.094 57.543 m f
366.32 66.645 m 363.316 63.863 361.816 60.789 361.816 57.426 c 361.816 
56.637 361.895 55.852 362.051 55.07 c 362.215 54.281 362.473 53.496 362.824
 52.707 c 363.18 51.918 363.648 51.133 364.23 50.344 c 364.816 49.555 365.523
 48.773 366.359 48 c 367.344 49.008 l 364.82 51.5 363.555 54.262 363.555
 57.297 c 363.555 58.809 363.875 60.258 364.512 61.652 c 365.152 63.047 
366.094 64.359 367.344 65.598 c h
366.32 66.645 m f
374.562 48.742 m 374.289 53.324 l 372.688 53.324 l 372.402 48.742 l h
378.359 48.742 m 378.086 53.324 l 376.484 53.324 l 376.203 48.742 l h
378.359 48.742 m f
390.82 57.465 m 390.82 58.277 390.707 59.008 390.48 59.652 c 390.258 60.289
 389.938 60.832 389.523 61.281 c 389.113 61.723 388.609 62.066 388.02 62.309
 c 387.426 62.543 386.758 62.66 386.016 62.66 c 385.438 62.66 384.844 62.602
 384.238 62.492 c 383.633 62.383 383.035 62.207 382.441 61.965 c 382.441
 48.742 l 384.141 48.742 l 384.141 52.543 l 384.062 54.359 l 384.551 53.699
 385.074 53.238 385.625 52.973 c 386.188 52.699 386.785 52.562 387.422 52.562
 c 387.984 52.562 388.473 52.68 388.898 52.914 c 389.32 53.148 389.676 53.48
 389.961 53.91 c 390.25 54.332 390.465 54.848 390.605 55.453 c 390.75 56.051
 390.82 56.723 390.82 57.465 c h
389.082 57.543 m 389.082 57.027 389.043 56.555 388.965 56.125 c 388.895
 55.695 388.777 55.328 388.613 55.023 c 388.453 54.715 388.242 54.477 387.988
 54.309 c 387.734 54.133 387.434 54.047 387.082 54.047 c 386.867 54.047 
386.648 54.082 386.426 54.152 c 386.207 54.219 385.973 54.332 385.734 54.496
 c 385.5 54.652 385.25 54.863 384.98 55.129 c 384.723 55.391 384.441 55.715
 384.141 56.105 c 384.141 60.863 l 384.473 60.992 384.812 61.098 385.156
 61.176 c 385.504 61.246 385.832 61.281 386.145 61.281 c 386.535 61.281 
386.906 61.219 387.258 61.098 c 387.613 60.973 387.926 60.766 388.195 60.48
 c 388.469 60.188 388.684 59.805 388.84 59.328 c 389 58.848 389.082 58.25
 389.082 57.543 c h
389.082 57.543 m f
399.738 62.543 m 399.699 61.223 l 399.164 61.75 398.621 62.133 398.066 
62.367 c 397.52 62.602 396.945 62.719 396.34 62.719 c 395.777 62.719 395.301
 62.645 394.902 62.504 c 394.508 62.359 394.176 62.164 393.918 61.918 c 
393.664 61.664 393.473 61.367 393.352 61.027 c 393.234 60.688 393.176 60.32
 393.176 59.926 c 393.176 58.941 393.539 58.172 394.27 57.621 c 395.004 
57.059 396.09 56.781 397.52 56.781 c 399.551 56.781 l 399.551 55.922 l 399.551
 55.34 399.367 54.879 398.996 54.535 c 398.625 54.184 398.059 54.008 397.297
 54.008 c 396.742 54.008 396.195 54.066 395.656 54.191 c 395.121 54.316 
394.566 54.492 393.996 54.719 c 393.996 53.188 l 394.211 53.109 394.449 
53.031 394.707 52.961 c 394.977 52.883 395.254 52.816 395.547 52.758 c 395.84
 52.699 396.148 52.652 396.465 52.621 c 396.785 52.582 397.105 52.562 397.434
 52.562 c 398.023 52.562 398.559 52.625 399.035 52.758 c 399.508 52.887 
399.91 53.086 400.234 53.352 c 400.566 53.617 400.82 53.953 400.996 54.359
 c 401.172 54.762 401.262 55.238 401.262 55.785 c 401.262 62.543 l h
399.551 58.078 m 397.395 58.078 l 396.969 58.078 396.605 58.121 396.301
 58.207 c 395.992 58.289 395.742 58.41 395.547 58.566 c 395.352 58.723 395.207
 58.91 395.109 59.133 c 395.016 59.348 394.973 59.594 394.973 59.867 c 394.973
 60.055 395 60.238 395.059 60.414 c 395.117 60.582 395.211 60.734 395.344
 60.871 c 395.473 61 395.641 61.105 395.852 61.184 c 396.059 61.262 396.312
 61.301 396.613 61.301 c 397.004 61.301 397.449 61.184 397.949 60.949 c 
398.457 60.707 398.992 60.332 399.551 59.816 c h
399.551 58.078 m f
404.836 52.738 m 406.387 52.738 l 406.438 54.543 l 407.016 53.848 407.586
 53.344 408.145 53.031 c 408.711 52.719 409.281 52.562 409.855 52.562 c 
410.871 52.562 411.637 52.891 412.16 53.547 c 412.688 54.203 412.93 55.18
 412.891 56.477 c 411.172 56.477 l 411.191 55.617 411.066 54.996 410.793
 54.613 c 410.523 54.223 410.133 54.027 409.609 54.027 c 409.383 54.027 
409.152 54.066 408.918 54.152 c 408.688 54.23 408.453 54.359 408.203 54.543
 c 407.965 54.719 407.707 54.945 407.434 55.227 c 407.16 55.508 406.867 
55.844 406.555 56.242 c 406.555 62.543 l 404.836 62.543 l h
404.836 52.738 m f
418.547 48.742 m 418.273 53.324 l 416.672 53.324 l 416.387 48.742 l h
422.344 48.742 m 422.07 53.324 l 420.469 53.324 l 420.188 48.742 l h
422.344 48.742 m f
428.43 48 m 431.43 50.781 432.93 53.871 432.93 57.277 c 432.93 57.98 432.859
 58.711 432.715 59.465 c 432.574 60.219 432.328 60.996 431.984 61.789 c 
431.637 62.578 431.172 63.379 430.586 64.191 c 430.008 65.004 429.273 65.824
 428.391 66.645 c 427.402 65.637 l 428.672 64.379 429.621 63.07 430.246 
61.703 c 430.871 60.336 431.184 58.902 431.184 57.406 c 431.184 54.305 429.922
 51.52 427.402 49.047 c h
428.43 48 m f
452.258 54.25 m 453.203 53.168 l 457.656 57.023 l 453.203 60.883 l 452.258
 59.797 l 454.883 57.699 l 453.078 57.766 l 447.051 57.766 l 447.051 56.281
 l 453.078 56.281 l 454.883 56.34 l h
452.258 54.25 m f
0.501961 0 0.501961 rg
478.586 62.543 m 470.566 62.543 l 470.566 60.961 l 473.848 60.961 l 473.848
 51.645 l 470.793 53.305 l 470.168 51.859 l 474.23 49.719 l 475.734 49.719
 l 475.734 60.961 l 478.586 60.961 l h
478.586 62.543 m f
489.688 62.543 m 481.281 62.543 l 481.281 61.02 l 484.582 57.738 l 485.121
 57.203 485.562 56.742 485.898 56.352 c 486.238 55.961 486.5 55.605 486.691
 55.285 c 486.879 54.961 487.008 54.652 487.07 54.367 c 487.137 54.082 487.168
 53.773 487.168 53.441 c 487.168 53.129 487.125 52.832 487.043 52.551 c 
486.957 52.266 486.828 52.016 486.652 51.801 c 486.477 51.586 486.246 51.414
 485.969 51.293 c 485.688 51.168 485.352 51.105 484.961 51.105 c 484.422
 51.105 483.93 51.227 483.488 51.469 c 483.043 51.707 482.637 52.02 482.266
 52.406 c 481.328 51.281 l 481.812 50.773 482.363 50.367 482.988 50.062 
c 483.621 49.754 484.352 49.602 485.188 49.602 c 485.754 49.602 486.266 
49.688 486.73 49.855 c 487.199 50.023 487.602 50.27 487.941 50.59 c 488.277
 50.906 488.539 51.297 488.723 51.762 c 488.91 52.223 489.004 52.742 489.004
 53.324 c 489.004 53.812 488.941 54.262 488.809 54.68 c 488.68 55.098 488.48
 55.512 488.215 55.93 c 487.953 56.34 487.621 56.766 487.219 57.211 c 486.82
 57.652 486.348 58.137 485.801 58.664 c 483.488 60.922 l 489.688 60.922 
l h
489.688 62.543 m f
500.977 56.164 m 500.977 57.141 500.879 58.031 500.684 58.84 c 500.488 
59.641 500.191 60.332 499.797 60.91 c 499.398 61.484 498.902 61.93 498.312
 62.25 c 497.727 62.562 497.035 62.719 496.242 62.719 c 495.559 62.719 494.938
 62.59 494.375 62.336 c 493.816 62.074 493.336 61.68 492.941 61.145 c 492.543
 60.609 492.238 59.93 492.023 59.105 c 491.809 58.277 491.699 57.297 491.699
 56.164 c 491.699 55.188 491.797 54.297 491.992 53.488 c 492.195 52.68 492.492
 51.992 492.883 51.418 c 493.277 50.84 493.773 50.395 494.367 50.082 c 494.957
 49.762 495.648 49.602 496.438 49.602 c 497.121 49.602 497.742 49.73 498.301
 49.992 c 498.863 50.246 499.34 50.645 499.738 51.184 c 500.133 51.719 500.441
 52.398 500.656 53.227 c 500.871 54.051 500.977 55.031 500.977 56.164 c 
h
499.258 56.223 m 499.258 56 499.25 55.785 499.23 55.57 c 499.215 55.348
 499.199 55.133 499.18 54.926 c 493.781 58.938 l 493.879 59.277 494.004 
59.59 494.152 59.875 c 494.301 60.16 494.48 60.41 494.688 60.617 c 494.902
 60.82 495.145 60.98 495.41 61.098 c 495.684 61.207 495.996 61.262 496.34
 61.262 c 496.781 61.262 497.184 61.156 497.539 60.941 c 497.906 60.727 
498.215 60.406 498.469 59.984 c 498.723 59.559 498.918 59.035 499.055 58.41
 c 499.191 57.777 499.258 57.051 499.258 56.223 c h
493.418 56.105 m 493.418 56.309 493.418 56.508 493.418 56.711 c 493.426
 56.914 493.438 57.109 493.457 57.297 c 498.859 53.305 l 498.762 52.973 
498.637 52.668 498.488 52.395 c 498.34 52.121 498.16 51.887 497.949 51.691
 c 497.742 51.488 497.504 51.332 497.238 51.223 c 496.969 51.113 496.672
 51.059 496.34 51.059 c 495.895 51.059 495.492 51.164 495.129 51.379 c 494.77
 51.594 494.465 51.918 494.211 52.348 c 493.957 52.77 493.762 53.297 493.625
 53.93 c 493.488 54.555 493.418 55.277 493.418 56.105 c h
493.418 56.105 m f
269.66 86.543 m 261.641 86.543 l 261.641 84.961 l 264.922 84.961 l 264.922
 75.645 l 261.867 77.305 l 261.242 75.859 l 265.305 73.719 l 266.809 73.719
 l 266.809 84.961 l 269.66 84.961 l h
269.66 86.543 m f
280.762 86.543 m 272.355 86.543 l 272.355 85.02 l 275.656 81.738 l 276.195
 81.203 276.637 80.742 276.973 80.352 c 277.312 79.961 277.574 79.605 277.766
 79.285 c 277.953 78.961 278.082 78.652 278.145 78.367 c 278.211 78.082 
278.242 77.773 278.242 77.441 c 278.242 77.129 278.199 76.832 278.117 76.551
 c 278.031 76.266 277.902 76.016 277.727 75.801 c 277.551 75.586 277.32 
75.414 277.043 75.293 c 276.762 75.168 276.426 75.105 276.035 75.105 c 275.496
 75.105 275.004 75.227 274.562 75.469 c 274.117 75.707 273.711 76.02 273.34
 76.406 c 272.402 75.281 l 272.887 74.773 273.438 74.367 274.062 74.062 
c 274.695 73.754 275.426 73.602 276.262 73.602 c 276.828 73.602 277.34 73.688
 277.805 73.855 c 278.273 74.023 278.676 74.27 279.016 74.59 c 279.352 74.906
 279.613 75.297 279.797 75.762 c 279.984 76.223 280.078 76.742 280.078 77.324
 c 280.078 77.812 280.016 78.262 279.883 78.68 c 279.754 79.098 279.555 
79.512 279.289 79.93 c 279.027 80.34 278.695 80.766 278.293 81.211 c 277.895
 81.652 277.422 82.137 276.875 82.664 c 274.562 84.922 l 280.762 84.922 
l h
280.762 86.543 m f
292.051 80.164 m 292.051 81.141 291.953 82.031 291.758 82.84 c 291.562 
83.641 291.266 84.332 290.871 84.91 c 290.473 85.484 289.977 85.93 289.387
 86.25 c 288.801 86.562 288.109 86.719 287.316 86.719 c 286.633 86.719 286.012
 86.59 285.449 86.336 c 284.891 86.074 284.41 85.68 284.016 85.145 c 283.617
 84.609 283.312 83.93 283.098 83.105 c 282.883 82.277 282.773 81.297 282.773
 80.164 c 282.773 79.188 282.871 78.297 283.066 77.488 c 283.27 76.68 283.566
 75.992 283.957 75.418 c 284.352 74.84 284.848 74.395 285.441 74.082 c 286.031
 73.762 286.723 73.602 287.512 73.602 c 288.195 73.602 288.816 73.73 289.375
 73.992 c 289.938 74.246 290.414 74.645 290.812 75.184 c 291.207 75.719 
291.516 76.398 291.73 77.227 c 291.945 78.051 292.051 79.031 292.051 80.164
 c h
290.332 80.223 m 290.332 80 290.324 79.785 290.305 79.57 c 290.289 79.348
 290.273 79.133 290.254 78.926 c 284.855 82.938 l 284.953 83.277 285.074
 83.59 285.227 83.875 c 285.375 84.16 285.555 84.41 285.762 84.617 c 285.977
 84.82 286.219 84.98 286.484 85.098 c 286.758 85.207 287.066 85.262 287.414
 85.262 c 287.855 85.262 288.258 85.156 288.613 84.941 c 288.98 84.727 289.289
 84.406 289.543 83.984 c 289.797 83.559 289.992 83.035 290.129 82.41 c 290.266
 81.777 290.332 81.051 290.332 80.223 c h
284.492 80.105 m 284.492 80.309 284.492 80.508 284.492 80.711 c 284.5 80.914
 284.512 81.109 284.531 81.297 c 289.934 77.305 l 289.836 76.973 289.711
 76.668 289.562 76.395 c 289.41 76.121 289.234 75.887 289.023 75.691 c 288.816
 75.488 288.578 75.332 288.312 75.223 c 288.043 75.113 287.746 75.059 287.414
 75.059 c 286.969 75.059 286.566 75.164 286.203 75.379 c 285.844 75.594 
285.539 75.918 285.285 76.348 c 285.031 76.77 284.836 77.297 284.699 77.93
 c 284.562 78.555 284.492 79.277 284.492 80.105 c h
284.492 80.105 m f
0 g
298.332 83.465 m 298.551 83.465 298.762 83.508 298.957 83.594 c 299.156
 83.676 299.332 83.793 299.473 83.945 c 299.625 84.094 299.742 84.27 299.824
 84.473 c 299.91 84.668 299.953 84.879 299.953 85.105 c 299.953 85.328 299.91
 85.535 299.824 85.73 c 299.742 85.926 299.625 86.098 299.473 86.25 c 299.332
 86.391 299.156 86.504 298.957 86.59 c 298.762 86.676 298.551 86.719 298.332
 86.719 c 298.102 86.719 297.891 86.676 297.695 86.59 c 297.5 86.504 297.328
 86.391 297.18 86.25 c 297.035 86.098 296.922 85.926 296.836 85.73 c 296.754
 85.535 296.711 85.328 296.711 85.105 c 296.711 84.879 296.754 84.668 296.836
 84.473 c 296.922 84.27 297.035 84.094 297.18 83.945 c 297.328 83.793 297.5
 83.676 297.695 83.594 c 297.891 83.508 298.102 83.465 298.332 83.465 c 
h
298.332 83.465 m f
314.004 81.562 m 314.004 82.324 313.898 83.023 313.684 83.66 c 313.469 
84.293 313.16 84.836 312.754 85.293 c 312.352 85.742 311.859 86.094 311.281
 86.348 c 310.699 86.594 310.043 86.719 309.309 86.719 c 308.605 86.719 
307.973 86.609 307.414 86.395 c 306.859 86.172 306.387 85.852 305.996 85.43
 c 305.613 85.004 305.316 84.48 305.109 83.855 c 304.906 83.23 304.805 82.512
 304.805 81.699 c 304.805 80.938 304.914 80.242 305.129 79.617 c 305.344
 78.984 305.652 78.445 306.055 77.996 c 306.461 77.539 306.949 77.188 307.531
 76.941 c 308.109 76.688 308.766 76.562 309.504 76.562 c 310.207 76.562 
310.836 76.672 311.387 76.895 c 311.949 77.109 312.418 77.426 312.805 77.852
 c 313.195 78.266 313.492 78.789 313.691 79.414 c 313.902 80.039 314.004
 80.754 314.004 81.562 c h
312.266 81.641 m 312.266 81.035 312.199 80.508 312.062 80.059 c 311.93 
79.602 311.742 79.223 311.496 78.926 c 311.246 78.617 310.945 78.391 310.586
 78.242 c 310.234 78.086 309.84 78.008 309.406 78.008 c 308.898 78.008 308.461
 78.105 308.098 78.309 c 307.738 78.504 307.441 78.77 307.207 79.102 c 306.98
 79.434 306.812 79.82 306.699 80.262 c 306.598 80.699 306.543 81.156 306.543
 81.641 c 306.543 82.246 306.609 82.773 306.738 83.23 c 306.875 83.688 307.066
 84.066 307.316 84.375 c 307.562 84.672 307.863 84.902 308.215 85.059 c 
308.566 85.207 308.961 85.281 309.406 85.281 c 309.914 85.281 310.348 85.184
 310.703 84.988 c 311.07 84.785 311.363 84.52 311.594 84.188 c 311.828 83.855
 311.996 83.473 312.102 83.035 c 312.211 82.594 312.266 82.129 312.266 81.641
 c h
312.266 81.641 m f
324.844 81.465 m 324.844 82.336 324.723 83.098 324.473 83.75 c 324.234 
84.398 323.898 84.941 323.469 85.371 c 323.039 85.801 322.531 86.121 321.945
 86.336 c 321.359 86.551 320.723 86.66 320.039 86.66 c 319.727 86.66 319.414
 86.641 319.102 86.609 c 318.797 86.578 318.484 86.523 318.164 86.445 c 
318.164 90.547 l 316.465 90.547 l 316.465 76.738 l 317.98 76.738 l 318.086
 78.379 l 318.574 77.707 319.098 77.238 319.648 76.973 c 320.203 76.699 
320.801 76.562 321.445 76.562 c 322.008 76.562 322.496 76.68 322.922 76.914
 c 323.344 77.148 323.699 77.48 323.984 77.91 c 324.273 78.332 324.488 78.848
 324.629 79.453 c 324.773 80.051 324.844 80.723 324.844 81.465 c h
323.105 81.543 m 323.105 81.027 323.066 80.555 322.988 80.125 c 322.918
 79.695 322.801 79.328 322.637 79.023 c 322.477 78.715 322.266 78.477 322.012
 78.309 c 321.758 78.133 321.457 78.047 321.105 78.047 c 320.891 78.047 
320.672 78.082 320.449 78.152 c 320.23 78.219 319.996 78.332 319.758 78.496
 c 319.523 78.652 319.273 78.863 319.004 79.129 c 318.746 79.391 318.465
 79.715 318.164 80.105 c 318.164 84.863 l 318.477 84.992 318.805 85.098 
319.152 85.176 c 319.496 85.246 319.836 85.281 320.168 85.281 c 321.086 
85.281 321.805 84.973 322.324 84.355 c 322.848 83.73 323.105 82.793 323.105
 81.543 c h
323.105 81.543 m f
335.742 81.121 m 335.742 81.363 335.742 81.562 335.734 81.727 c 335.73 
81.891 335.719 82.043 335.707 82.188 c 328.82 82.188 l 328.82 83.188 329.102
 83.961 329.66 84.5 c 330.219 85.035 331.027 85.301 332.082 85.301 c 332.367
 85.301 332.656 85.293 332.941 85.273 c 333.227 85.246 333.504 85.215 333.773
 85.176 c 334.039 85.137 334.293 85.094 334.535 85.047 c 334.781 84.996 
335.008 84.941 335.219 84.883 c 335.219 86.277 l 334.754 86.406 334.23 86.512
 333.645 86.59 c 333.066 86.676 332.465 86.719 331.84 86.719 c 331 86.719
 330.277 86.602 329.672 86.375 c 329.066 86.148 328.566 85.82 328.176 85.391
 c 327.793 84.953 327.504 84.422 327.316 83.797 c 327.133 83.164 327.043
 82.453 327.043 81.66 c 327.043 80.969 327.141 80.316 327.336 79.707 c 327.539
 79.086 327.828 78.547 328.207 78.086 c 328.59 77.617 329.059 77.246 329.613
 76.973 c 330.164 76.699 330.793 76.562 331.496 76.562 c 332.18 76.562 332.785
 76.668 333.312 76.883 c 333.84 77.098 334.281 77.402 334.641 77.801 c 335.004
 78.191 335.277 78.672 335.461 79.238 c 335.648 79.797 335.746 80.426 335.746
 81.121 c h
333.977 80.879 m 333.996 80.441 333.953 80.043 333.848 79.688 c 333.746
 79.32 333.582 79.008 333.359 78.75 c 333.145 78.488 332.875 78.285 332.551
 78.145 c 332.223 77.992 331.848 77.918 331.418 77.918 c 331.047 77.918 
330.707 77.988 330.402 78.133 c 330.094 78.277 329.832 78.477 329.609 78.738
 c 329.391 79 329.211 79.312 329.074 79.676 c 328.938 80.039 328.852 80.441
 328.82 80.879 c h
333.977 80.879 m f
338.457 76.738 m 339.973 76.738 l 340.039 78.32 l 340.328 77.98 340.602
 77.699 340.871 77.48 c 341.137 77.25 341.398 77.07 341.652 76.934 c 341.91
 76.797 342.176 76.699 342.441 76.648 c 342.711 76.59 342.984 76.562 343.273
 76.562 c 344.281 76.562 345.043 76.859 345.559 77.461 c 346.078 78.051 
346.34 78.945 346.34 80.145 c 346.34 86.543 l 344.641 86.543 l 344.641 80.281
 l 344.641 79.512 344.496 78.945 344.211 78.582 c 343.922 78.211 343.496
 78.027 342.93 78.027 c 342.723 78.027 342.516 78.059 342.316 78.125 c 342.121
 78.184 341.914 78.289 341.699 78.445 c 341.484 78.594 341.25 78.801 340.996
 79.062 c 340.75 79.32 340.469 79.648 340.156 80.039 c 340.156 86.543 l 
338.457 86.543 l h
338.457 76.738 m f
355.324 90.645 m 352.32 87.863 350.82 84.789 350.82 81.426 c 350.82 80.637
 350.898 79.852 351.055 79.07 c 351.219 78.281 351.477 77.496 351.828 76.707
 c 352.184 75.918 352.652 75.133 353.234 74.344 c 353.82 73.555 354.527 
72.773 355.363 72 c 356.348 73.008 l 353.824 75.5 352.559 78.262 352.559
 81.297 c 352.559 82.809 352.879 84.258 353.516 85.652 c 354.156 87.047 
355.098 88.359 356.348 89.598 c h
355.324 90.645 m f
362.453 72 m 365.453 74.781 366.953 77.871 366.953 81.277 c 366.953 81.98
 366.883 82.711 366.738 83.465 c 366.598 84.219 366.352 84.996 366.008 85.789
 c 365.66 86.578 365.195 87.379 364.609 88.191 c 364.031 89.004 363.297 
89.824 362.414 90.645 c 361.426 89.637 l 362.695 88.379 363.645 87.07 364.27
 85.703 c 364.895 84.336 365.207 82.902 365.207 81.406 c 365.207 78.305 
363.945 75.52 361.426 73.047 c h
362.453 72 m f
0.517647 g
1.417323 w
0 J
0 j
[] 0.0 d
4 M q 1 0 0 1 0 0 cm
5.438 37.285 m 5.438 49.141 l 15.461 49.141 l S Q
0.776471 g
1.41732 w
q 1 0 0 1 0 0 cm
190.012 11.277 m 190.012 79.363 l S Q
0.517647 g
1.417323 w
q 1 0 0 1 0 0 cm
28.113 60.16 m 28.113 72.016 l 38.137 72.016 l S Q
Q Q
showpage
%%Trailer
end
%%EOF
