<?xml version="1.0" encoding="UTF-8" standalone="no"?>
<!-- Created with Inkscape (http://www.inkscape.org/) -->

<svg
   width="316.32059mm"
   height="98.096809mm"
   viewBox="0 0 316.32059 98.096809"
   version="1.1"
   id="svg5"
   inkscape:version="1.2.2 (b0a8486541, 2022-12-01)"
   sodipodi:docname="virtiofsd.svg"
   xmlns:inkscape="http://www.inkscape.org/namespaces/inkscape"
   xmlns:sodipodi="http://sodipodi.sourceforge.net/DTD/sodipodi-0.dtd"
   xmlns="http://www.w3.org/2000/svg"
   xmlns:svg="http://www.w3.org/2000/svg">
  <sodipodi:namedview
     id="namedview7"
     pagecolor="#ffffff"
     bordercolor="#666666"
     borderopacity="1.0"
     inkscape:showpageshadow="2"
     inkscape:pageopacity="0.0"
     inkscape:pagecheckerboard="0"
     inkscape:deskcolor="#d1d1d1"
     inkscape:document-units="mm"
     showgrid="false"
     inkscape:zoom="1.1291921"
     inkscape:cx="670.8336"
     inkscape:cy="150.10732"
     inkscape:window-width="2560"
     inkscape:window-height="1307"
     inkscape:window-x="0"
     inkscape:window-y="0"
     inkscape:window-maximized="1"
     inkscape:current-layer="layer1" />
  <defs
     id="defs2">
    <inkscape:path-effect
       effect="bspline"
       id="path-effect32659"
       is_visible="true"
       lpeversion="1"
       weight="33.333333"
       steps="2"
       helper_size="0"
       apply_no_weight="true"
       apply_with_weight="true"
       only_selected="false" />
    <inkscape:path-effect
       effect="bspline"
       id="path-effect32647"
       is_visible="true"
       lpeversion="1"
       weight="33.333333"
       steps="2"
       helper_size="0"
       apply_no_weight="true"
       apply_with_weight="true"
       only_selected="false" />
    <inkscape:path-effect
       effect="bspline"
       id="path-effect32639"
       is_visible="true"
       lpeversion="1"
       weight="33.333333"
       steps="2"
       helper_size="0"
       apply_no_weight="true"
       apply_with_weight="true"
       only_selected="false" />
    <inkscape:path-effect
       effect="bspline"
       id="path-effect32635"
       is_visible="true"
       lpeversion="1"
       weight="33.333333"
       steps="2"
       helper_size="0"
       apply_no_weight="true"
       apply_with_weight="true"
       only_selected="false" />
    <inkscape:path-effect
       effect="bspline"
       id="path-effect32613"
       is_visible="true"
       lpeversion="1"
       weight="33.333333"
       steps="2"
       helper_size="0"
       apply_no_weight="true"
       apply_with_weight="true"
       only_selected="false" />
    <inkscape:path-effect
       effect="bspline"
       id="path-effect32609"
       is_visible="true"
       lpeversion="1"
       weight="33.333333"
       steps="2"
       helper_size="0"
       apply_no_weight="true"
       apply_with_weight="true"
       only_selected="false" />
    <inkscape:path-effect
       effect="bspline"
       id="path-effect22636"
       is_visible="true"
       lpeversion="1"
       weight="33.333333"
       steps="2"
       helper_size="0"
       apply_no_weight="true"
       apply_with_weight="true"
       only_selected="false" />
    <inkscape:path-effect
       effect="bspline"
       id="path-effect22628"
       is_visible="true"
       lpeversion="1"
       weight="33.333333"
       steps="2"
       helper_size="0"
       apply_no_weight="true"
       apply_with_weight="true"
       only_selected="false" />
    <inkscape:path-effect
       effect="bspline"
       id="path-effect22604"
       is_visible="true"
       lpeversion="1"
       weight="33.333333"
       steps="2"
       helper_size="0"
       apply_no_weight="true"
       apply_with_weight="true"
       only_selected="false" />
    <inkscape:path-effect
       effect="bspline"
       id="path-effect22460"
       is_visible="true"
       lpeversion="1"
       weight="33.333333"
       steps="2"
       helper_size="0"
       apply_no_weight="true"
       apply_with_weight="true"
       only_selected="false" />
    <inkscape:path-effect
       effect="bspline"
       id="path-effect18373"
       is_visible="true"
       lpeversion="1"
       weight="33.333333"
       steps="2"
       helper_size="0"
       apply_no_weight="true"
       apply_with_weight="true"
       only_selected="false" />
    <inkscape:path-effect
       effect="bspline"
       id="path-effect16495"
       is_visible="true"
       lpeversion="1"
       weight="33.333333"
       steps="2"
       helper_size="0"
       apply_no_weight="true"
       apply_with_weight="true"
       only_selected="false" />
    <inkscape:path-effect
       effect="bspline"
       id="path-effect16471"
       is_visible="true"
       lpeversion="1"
       weight="33.333333"
       steps="2"
       helper_size="0"
       apply_no_weight="true"
       apply_with_weight="true"
       only_selected="false" />
    <inkscape:path-effect
       effect="bspline"
       id="path-effect16467"
       is_visible="true"
       lpeversion="1"
       weight="33.333333"
       steps="2"
       helper_size="0"
       apply_no_weight="true"
       apply_with_weight="true"
       only_selected="false" />
    <inkscape:path-effect
       effect="bspline"
       id="path-effect16371"
       is_visible="true"
       lpeversion="1"
       weight="33.333333"
       steps="2"
       helper_size="0"
       apply_no_weight="true"
       apply_with_weight="true"
       only_selected="false" />
    <inkscape:path-effect
       effect="bspline"
       id="path-effect16347"
       is_visible="true"
       lpeversion="1"
       weight="33.333333"
       steps="2"
       helper_size="0"
       apply_no_weight="true"
       apply_with_weight="true"
       only_selected="false" />
    <inkscape:path-effect
       effect="bspline"
       id="path-effect14867"
       is_visible="true"
       lpeversion="1"
       weight="33.333333"
       steps="2"
       helper_size="0"
       apply_no_weight="true"
       apply_with_weight="true"
       only_selected="false" />
    <inkscape:path-effect
       effect="bspline"
       id="path-effect14827"
       is_visible="true"
       lpeversion="1"
       weight="33.333333"
       steps="2"
       helper_size="0"
       apply_no_weight="true"
       apply_with_weight="true"
       only_selected="false" />
    <inkscape:path-effect
       effect="bspline"
       id="path-effect11346"
       is_visible="true"
       lpeversion="1"
       weight="33.333333"
       steps="2"
       helper_size="0"
       apply_no_weight="true"
       apply_with_weight="true"
       only_selected="false" />
    <inkscape:path-effect
       effect="bspline"
       id="path-effect11342"
       is_visible="true"
       lpeversion="1"
       weight="33.333333"
       steps="2"
       helper_size="0"
       apply_no_weight="true"
       apply_with_weight="true"
       only_selected="false" />
    <inkscape:path-effect
       effect="bspline"
       id="path-effect11338"
       is_visible="true"
       lpeversion="1"
       weight="33.333333"
       steps="2"
       helper_size="0"
       apply_no_weight="true"
       apply_with_weight="true"
       only_selected="false" />
    <inkscape:path-effect
       effect="bspline"
       id="path-effect11322"
       is_visible="true"
       lpeversion="1"
       weight="33.333333"
       steps="2"
       helper_size="0"
       apply_no_weight="true"
       apply_with_weight="true"
       only_selected="false" />
    <inkscape:path-effect
       effect="bspline"
       id="path-effect10582"
       is_visible="true"
       lpeversion="1"
       weight="33.333333"
       steps="2"
       helper_size="0"
       apply_no_weight="true"
       apply_with_weight="true"
       only_selected="false" />
    <inkscape:path-effect
       effect="bspline"
       id="path-effect10578"
       is_visible="true"
       lpeversion="1"
       weight="33.333333"
       steps="2"
       helper_size="0"
       apply_no_weight="true"
       apply_with_weight="true"
       only_selected="false" />
    <inkscape:path-effect
       effect="bspline"
       id="path-effect9118"
       is_visible="true"
       lpeversion="1"
       weight="33.333333"
       steps="2"
       helper_size="0"
       apply_no_weight="true"
       apply_with_weight="true"
       only_selected="false" />
    <inkscape:path-effect
       effect="bspline"
       id="path-effect8386"
       is_visible="true"
       lpeversion="1"
       weight="33.333333"
       steps="2"
       helper_size="0"
       apply_no_weight="true"
       apply_with_weight="true"
       only_selected="false" />
    <inkscape:path-effect
       effect="bspline"
       id="path-effect8382"
       is_visible="true"
       lpeversion="1"
       weight="33.333333"
       steps="2"
       helper_size="0"
       apply_no_weight="true"
       apply_with_weight="true"
       only_selected="false" />
    <inkscape:path-effect
       effect="bspline"
       id="path-effect7638"
       is_visible="true"
       lpeversion="1"
       weight="33.333333"
       steps="2"
       helper_size="0"
       apply_no_weight="true"
       apply_with_weight="true"
       only_selected="false" />
    <inkscape:path-effect
       effect="bspline"
       id="path-effect7634"
       is_visible="true"
       lpeversion="1"
       weight="33.333333"
       steps="2"
       helper_size="0"
       apply_no_weight="true"
       apply_with_weight="true"
       only_selected="false" />
    <inkscape:path-effect
       effect="bspline"
       id="path-effect7614"
       is_visible="true"
       lpeversion="1"
       weight="33.333333"
       steps="2"
       helper_size="0"
       apply_no_weight="true"
       apply_with_weight="true"
       only_selected="false" />
    <inkscape:path-effect
       effect="bspline"
       id="path-effect7606"
       is_visible="true"
       lpeversion="1"
       weight="33.333333"
       steps="2"
       helper_size="0"
       apply_no_weight="true"
       apply_with_weight="true"
       only_selected="false" />
    <inkscape:path-effect
       effect="bspline"
       id="path-effect7562"
       is_visible="true"
       lpeversion="1"
       weight="33.333333"
       steps="2"
       helper_size="0"
       apply_no_weight="true"
       apply_with_weight="true"
       only_selected="false" />
    <inkscape:path-effect
       effect="bspline"
       id="path-effect7458"
       is_visible="true"
       lpeversion="1"
       weight="33.333333"
       steps="2"
       helper_size="0"
       apply_no_weight="true"
       apply_with_weight="true"
       only_selected="false" />
    <inkscape:path-effect
       effect="bspline"
       id="path-effect7442"
       is_visible="true"
       lpeversion="1"
       weight="33.333333"
       steps="2"
       helper_size="0"
       apply_no_weight="true"
       apply_with_weight="true"
       only_selected="false" />
    <inkscape:path-effect
       effect="bspline"
       id="path-effect6672"
       is_visible="true"
       lpeversion="1"
       weight="33.333333"
       steps="2"
       helper_size="0"
       apply_no_weight="true"
       apply_with_weight="true"
       only_selected="false" />
    <inkscape:path-effect
       effect="bspline"
       id="path-effect6636"
       is_visible="true"
       lpeversion="1"
       weight="33.333333"
       steps="2"
       helper_size="0"
       apply_no_weight="true"
       apply_with_weight="true"
       only_selected="false" />
    <inkscape:path-effect
       effect="bspline"
       id="path-effect6620"
       is_visible="true"
       lpeversion="1"
       weight="33.333333"
       steps="2"
       helper_size="0"
       apply_no_weight="true"
       apply_with_weight="true"
       only_selected="false" />
    <inkscape:path-effect
       effect="bspline"
       id="path-effect6604"
       is_visible="true"
       lpeversion="1"
       weight="33.333333"
       steps="2"
       helper_size="0"
       apply_no_weight="true"
       apply_with_weight="true"
       only_selected="false" />
    <inkscape:path-effect
       effect="bspline"
       id="path-effect6488"
       is_visible="true"
       lpeversion="1"
       weight="33.333333"
       steps="2"
       helper_size="0"
       apply_no_weight="true"
       apply_with_weight="true"
       only_selected="false" />
    <inkscape:path-effect
       effect="bspline"
       id="path-effect6480"
       is_visible="true"
       lpeversion="1"
       weight="33.333333"
       steps="2"
       helper_size="0"
       apply_no_weight="true"
       apply_with_weight="true"
       only_selected="false" />
    <inkscape:path-effect
       effect="bspline"
       id="path-effect6472"
       is_visible="true"
       lpeversion="1"
       weight="33.333333"
       steps="2"
       helper_size="0"
       apply_no_weight="true"
       apply_with_weight="true"
       only_selected="false" />
    <inkscape:path-effect
       effect="bspline"
       id="path-effect6456"
       is_visible="true"
       lpeversion="1"
       weight="33.333333"
       steps="2"
       helper_size="0"
       apply_no_weight="true"
       apply_with_weight="true"
       only_selected="false" />
    <inkscape:path-effect
       effect="bspline"
       id="path-effect6396"
       is_visible="true"
       lpeversion="1"
       weight="33.333333"
       steps="2"
       helper_size="0"
       apply_no_weight="true"
       apply_with_weight="true"
       only_selected="false" />
    <inkscape:path-effect
       effect="bspline"
       id="path-effect6392"
       is_visible="true"
       lpeversion="1"
       weight="33.333333"
       steps="2"
       helper_size="0"
       apply_no_weight="true"
       apply_with_weight="true"
       only_selected="false" />
    <inkscape:path-effect
       effect="bspline"
       id="path-effect6384"
       is_visible="true"
       lpeversion="1"
       weight="33.333333"
       steps="2"
       helper_size="0"
       apply_no_weight="true"
       apply_with_weight="true"
       only_selected="false" />
    <inkscape:path-effect
       effect="bspline"
       id="path-effect6272"
       is_visible="true"
       lpeversion="1"
       weight="33.333333"
       steps="2"
       helper_size="0"
       apply_no_weight="true"
       apply_with_weight="true"
       only_selected="false" />
    <inkscape:path-effect
       effect="bspline"
       id="path-effect6268"
       is_visible="true"
       lpeversion="1"
       weight="33.333333"
       steps="2"
       helper_size="0"
       apply_no_weight="true"
       apply_with_weight="true"
       only_selected="false" />
    <inkscape:path-effect
       effect="bspline"
       id="path-effect6264"
       is_visible="true"
       lpeversion="1"
       weight="33.333333"
       steps="2"
       helper_size="0"
       apply_no_weight="true"
       apply_with_weight="true"
       only_selected="false" />
    <inkscape:path-effect
       effect="bspline"
       id="path-effect6212"
       is_visible="true"
       lpeversion="1"
       weight="33.333333"
       steps="2"
       helper_size="0"
       apply_no_weight="true"
       apply_with_weight="true"
       only_selected="false" />
    <inkscape:path-effect
       effect="bspline"
       id="path-effect6208"
       is_visible="true"
       lpeversion="1"
       weight="33.333333"
       steps="2"
       helper_size="0"
       apply_no_weight="true"
       apply_with_weight="true"
       only_selected="false" />
    <inkscape:path-effect
       effect="bspline"
       id="path-effect6204"
       is_visible="true"
       lpeversion="1"
       weight="33.333333"
       steps="2"
       helper_size="0"
       apply_no_weight="true"
       apply_with_weight="true"
       only_selected="false" />
    <inkscape:path-effect
       effect="bspline"
       id="path-effect6200"
       is_visible="true"
       lpeversion="1"
       weight="33.333333"
       steps="2"
       helper_size="0"
       apply_no_weight="true"
       apply_with_weight="true"
       only_selected="false" />
    <inkscape:path-effect
       effect="bspline"
       id="path-effect6196"
       is_visible="true"
       lpeversion="1"
       weight="33.333333"
       steps="2"
       helper_size="0"
       apply_no_weight="true"
       apply_with_weight="true"
       only_selected="false" />
    <inkscape:path-effect
       effect="bspline"
       id="path-effect6192"
       is_visible="true"
       lpeversion="1"
       weight="33.333333"
       steps="2"
       helper_size="0"
       apply_no_weight="true"
       apply_with_weight="true"
       only_selected="false" />
    <inkscape:path-effect
       effect="bspline"
       id="path-effect6188"
       is_visible="true"
       lpeversion="1"
       weight="33.333333"
       steps="2"
       helper_size="0"
       apply_no_weight="true"
       apply_with_weight="true"
       only_selected="false" />
    <inkscape:path-effect
       effect="bspline"
       id="path-effect6162"
       is_visible="true"
       lpeversion="1"
       weight="33.333333"
       steps="2"
       helper_size="0"
       apply_no_weight="true"
       apply_with_weight="true"
       only_selected="false" />
    <inkscape:path-effect
       effect="bspline"
       id="path-effect5422"
       is_visible="true"
       lpeversion="1"
       weight="33.333333"
       steps="2"
       helper_size="0"
       apply_no_weight="true"
       apply_with_weight="true"
       only_selected="false" />
    <inkscape:path-effect
       effect="bspline"
       id="path-effect5418"
       is_visible="true"
       lpeversion="1"
       weight="33.333333"
       steps="2"
       helper_size="0"
       apply_no_weight="true"
       apply_with_weight="true"
       only_selected="false" />
    <inkscape:path-effect
       effect="bspline"
       id="path-effect3938"
       is_visible="true"
       lpeversion="1"
       weight="33.333333"
       steps="2"
       helper_size="0"
       apply_no_weight="true"
       apply_with_weight="true"
       only_selected="false" />
    <inkscape:path-effect
       effect="bspline"
       id="path-effect3922"
       is_visible="true"
       lpeversion="1"
       weight="33.333333"
       steps="2"
       helper_size="0"
       apply_no_weight="true"
       apply_with_weight="true"
       only_selected="false" />
    <inkscape:path-effect
       effect="bspline"
       id="path-effect3190"
       is_visible="true"
       lpeversion="1"
       weight="33.333333"
       steps="2"
       helper_size="0"
       apply_no_weight="true"
       apply_with_weight="true"
       only_selected="false" />
    <inkscape:path-effect
       effect="bspline"
       id="path-effect3186"
       is_visible="true"
       lpeversion="1"
       weight="33.333333"
       steps="2"
       helper_size="0"
       apply_no_weight="true"
       apply_with_weight="true"
       only_selected="false" />
    <inkscape:path-effect
       effect="bspline"
       id="path-effect3182"
       is_visible="true"
       lpeversion="1"
       weight="33.333333"
       steps="2"
       helper_size="0"
       apply_no_weight="true"
       apply_with_weight="true"
       only_selected="false" />
    <inkscape:path-effect
       effect="bspline"
       id="path-effect3178"
       is_visible="true"
       lpeversion="1"
       weight="33.333333"
       steps="2"
       helper_size="0"
       apply_no_weight="true"
       apply_with_weight="true"
       only_selected="false" />
    <inkscape:path-effect
       effect="bspline"
       id="path-effect1667"
       is_visible="true"
       lpeversion="1"
       weight="33.333333"
       steps="2"
       helper_size="0"
       apply_no_weight="true"
       apply_with_weight="true"
       only_selected="false" />
    <inkscape:path-effect
       effect="bspline"
       id="path-effect1663"
       is_visible="true"
       lpeversion="1"
       weight="33.333333"
       steps="2"
       helper_size="0"
       apply_no_weight="true"
       apply_with_weight="true"
       only_selected="false" />
    <inkscape:path-effect
       effect="bspline"
       id="path-effect1639"
       is_visible="true"
       lpeversion="1"
       weight="33.333333"
       steps="2"
       helper_size="0"
       apply_no_weight="true"
       apply_with_weight="true"
       only_selected="false" />
    <inkscape:path-effect
       effect="bspline"
       id="path-effect1635"
       is_visible="true"
       lpeversion="1"
       weight="33.333333"
       steps="2"
       helper_size="0"
       apply_no_weight="true"
       apply_with_weight="true"
       only_selected="false" />
    <inkscape:path-effect
       effect="bspline"
       id="path-effect1631"
       is_visible="true"
       lpeversion="1"
       weight="33.333333"
       steps="2"
       helper_size="0"
       apply_no_weight="true"
       apply_with_weight="true"
       only_selected="false" />
    <inkscape:path-effect
       effect="bspline"
       id="path-effect1072"
       is_visible="true"
       lpeversion="1"
       weight="33.333333"
       steps="2"
       helper_size="0"
       apply_no_weight="true"
       apply_with_weight="true"
       only_selected="false" />
    <inkscape:path-effect
       effect="bspline"
       id="path-effect1068"
       is_visible="true"
       lpeversion="1"
       weight="33.333333"
       steps="2"
       helper_size="0"
       apply_no_weight="true"
       apply_with_weight="true"
       only_selected="false" />
    <inkscape:path-effect
       effect="bspline"
       id="path-effect1056"
       is_visible="true"
       lpeversion="1"
       weight="33.333333"
       steps="2"
       helper_size="0"
       apply_no_weight="true"
       apply_with_weight="true"
       only_selected="false" />
    <inkscape:path-effect
       effect="bspline"
       id="path-effect1052"
       is_visible="true"
       lpeversion="1"
       weight="33.333333"
       steps="2"
       helper_size="0"
       apply_no_weight="true"
       apply_with_weight="true"
       only_selected="false" />
    <inkscape:path-effect
       effect="bspline"
       id="path-effect618"
       is_visible="true"
       lpeversion="1"
       weight="33.333333"
       steps="2"
       helper_size="0"
       apply_no_weight="true"
       apply_with_weight="true"
       only_selected="false" />
    <inkscape:path-effect
       effect="bspline"
       id="path-effect610"
       is_visible="true"
       lpeversion="1"
       weight="33.333333"
       steps="2"
       helper_size="0"
       apply_no_weight="true"
       apply_with_weight="true"
       only_selected="false" />
    <inkscape:path-effect
       effect="bspline"
       id="path-effect606"
       is_visible="true"
       lpeversion="1"
       weight="33.333333"
       steps="2"
       helper_size="0"
       apply_no_weight="true"
       apply_with_weight="true"
       only_selected="false" />
    <inkscape:path-effect
       effect="bspline"
       id="path-effect542"
       is_visible="true"
       lpeversion="1"
       weight="33.333333"
       steps="2"
       helper_size="0"
       apply_no_weight="true"
       apply_with_weight="true"
       only_selected="false" />
    <inkscape:path-effect
       effect="bspline"
       id="path-effect538"
       is_visible="true"
       lpeversion="1"
       weight="33.333333"
       steps="2"
       helper_size="0"
       apply_no_weight="true"
       apply_with_weight="true"
       only_selected="false" />
    <inkscape:path-effect
       effect="bspline"
       id="path-effect534"
       is_visible="true"
       lpeversion="1"
       weight="33.333333"
       steps="2"
       helper_size="0"
       apply_no_weight="true"
       apply_with_weight="true"
       only_selected="false" />
    <inkscape:path-effect
       effect="bspline"
       id="path-effect518"
       is_visible="true"
       lpeversion="1"
       weight="33.333333"
       steps="2"
       helper_size="0"
       apply_no_weight="true"
       apply_with_weight="true"
       only_selected="false" />
    <inkscape:path-effect
       effect="bspline"
       id="path-effect514"
       is_visible="true"
       lpeversion="1"
       weight="33.333333"
       steps="2"
       helper_size="0"
       apply_no_weight="true"
       apply_with_weight="true"
       only_selected="false" />
    <inkscape:path-effect
       effect="bspline"
       id="path-effect502"
       is_visible="true"
       lpeversion="1"
       weight="33.333333"
       steps="2"
       helper_size="0"
       apply_no_weight="true"
       apply_with_weight="true"
       only_selected="false" />
    <inkscape:path-effect
       effect="bspline"
       id="path-effect498"
       is_visible="true"
       lpeversion="1"
       weight="33.333333"
       steps="2"
       helper_size="0"
       apply_no_weight="true"
       apply_with_weight="true"
       only_selected="false" />
    <inkscape:path-effect
       effect="bspline"
       id="path-effect494"
       is_visible="true"
       lpeversion="1"
       weight="33.333333"
       steps="2"
       helper_size="0"
       apply_no_weight="true"
       apply_with_weight="true"
       only_selected="false" />
    <inkscape:path-effect
       effect="bspline"
       id="path-effect490"
       is_visible="true"
       lpeversion="1"
       weight="33.333333"
       steps="2"
       helper_size="0"
       apply_no_weight="true"
       apply_with_weight="true"
       only_selected="false" />
    <inkscape:path-effect
       effect="bspline"
       id="path-effect486"
       is_visible="true"
       lpeversion="1"
       weight="33.333333"
       steps="2"
       helper_size="0"
       apply_no_weight="true"
       apply_with_weight="true"
       only_selected="false" />
    <inkscape:path-effect
       effect="bspline"
       id="path-effect482"
       is_visible="true"
       lpeversion="1"
       weight="33.333333"
       steps="2"
       helper_size="0"
       apply_no_weight="true"
       apply_with_weight="true"
       only_selected="false" />
    <inkscape:path-effect
       effect="bspline"
       id="path-effect478"
       is_visible="true"
       lpeversion="1"
       weight="33.333333"
       steps="2"
       helper_size="0"
       apply_no_weight="true"
       apply_with_weight="true"
       only_selected="false" />
    <inkscape:path-effect
       effect="bspline"
       id="path-effect474"
       is_visible="true"
       lpeversion="1"
       weight="33.333333"
       steps="2"
       helper_size="0"
       apply_no_weight="true"
       apply_with_weight="true"
       only_selected="false" />
    <inkscape:path-effect
       effect="bspline"
       id="path-effect470"
       is_visible="true"
       lpeversion="1"
       weight="33.333333"
       steps="2"
       helper_size="0"
       apply_no_weight="true"
       apply_with_weight="true"
       only_selected="false" />
    <inkscape:path-effect
       effect="bspline"
       id="path-effect466"
       is_visible="true"
       lpeversion="1"
       weight="33.333333"
       steps="2"
       helper_size="0"
       apply_no_weight="true"
       apply_with_weight="true"
       only_selected="false" />
    <inkscape:path-effect
       effect="bspline"
       id="path-effect462"
       is_visible="true"
       lpeversion="1"
       weight="33.333333"
       steps="2"
       helper_size="0"
       apply_no_weight="true"
       apply_with_weight="true"
       only_selected="false" />
    <inkscape:path-effect
       effect="bspline"
       id="path-effect458"
       is_visible="true"
       lpeversion="1"
       weight="33.333333"
       steps="2"
       helper_size="0"
       apply_no_weight="true"
       apply_with_weight="true"
       only_selected="false" />
    <inkscape:path-effect
       effect="bspline"
       id="path-effect454"
       is_visible="true"
       lpeversion="1"
       weight="33.333333"
       steps="2"
       helper_size="0"
       apply_no_weight="true"
       apply_with_weight="true"
       only_selected="false" />
    <inkscape:path-effect
       effect="bspline"
       id="path-effect450"
       is_visible="true"
       lpeversion="1"
       weight="33.333333"
       steps="2"
       helper_size="0"
       apply_no_weight="true"
       apply_with_weight="true"
       only_selected="false" />
    <inkscape:path-effect
       effect="bspline"
       id="path-effect288"
       is_visible="true"
       lpeversion="1"
       weight="33.333333"
       steps="2"
       helper_size="0"
       apply_no_weight="true"
       apply_with_weight="true"
       only_selected="false" />
    <inkscape:path-effect
       effect="spiro"
       id="path-effect284"
       is_visible="true"
       lpeversion="1" />
  </defs>
  <g
     inkscape:label="Ebene 1"
     inkscape:groupmode="layer"
     id="layer1"
     transform="translate(75.039387,-11.101883)">
    <path
       style="opacity:1;vector-effect:none;fill:none;fill-opacity:1;fill-rule:evenodd;stroke:#000000;stroke-width:0.529167;stroke-linecap:round;stroke-linejoin:miter;stroke-miterlimit:4;stroke-dasharray:none;stroke-dashoffset:0;stroke-opacity:1;paint-order:normal"
       d="m 151.94721,16.05272 c 2.98495,0 5.96726,0 10.88255,0.0263 4.91529,0.0263 11.76355,0.07887 21.40086,0.368085 9.6373,0.289212 22.06359,0.814965 30.81721,1.18299 8.75362,0.368026 13.83457,0.578326 16.62353,0.68342 2.78896,0.105093 3.28601,0.105093 3.94874,0.105093 0.66273,0 1.49116,0 2.04344,0 0.55228,0 0.8284,0 1.0217,0 0.19331,0 0.30377,0 0.35766,0.02754 0.0539,0.02754 0.0539,0.08012 0.0816,0.605946 0.0277,0.525823 0.0829,1.524751 0.16572,3.627735 0.0828,2.102984 0.19327,5.310074 0.24846,13.143739 0.0552,7.833666 0.0552,20.293997 -0.0829,29.231716 -0.13813,8.937719 -0.41426,14.352968 -0.63518,18.637848 -0.22091,4.284881 -0.38659,7.439394 -0.49702,9.884172 -0.11043,2.444778 -0.16566,4.179763 -0.3038,6.124945 -0.13815,1.945178 -0.35906,4.100768 -0.52482,5.441258 -0.16577,1.34049 -0.27622,1.86625 -0.35906,2.26057 -0.0828,0.39431 -0.13807,0.65718 -0.1929,0.91818"
       id="path22634"
       inkscape:path-effect="#path-effect22636"
       inkscape:original-d="m 151.94721,16.05272 c 2.98495,0.0025 5.96726,0.0025 8.94692,0 6.8509,0.05509 13.69916,0.107669 20.54477,0.157726 12.42892,0.528271 24.85521,1.054023 37.27882,1.577257 5.08363,0.212819 10.16458,0.423121 15.24288,0.630903 0.49972,0.0025 0.99677,0.0025 1.49117,0 0.83106,0.0025 1.65949,0.0025 2.48526,0 0.27879,0.0025 0.55491,0.0025 0.82841,0 0.11311,0.0025 0.22357,0.0025 0.33136,0 0.003,0.05509 0.003,0.107669 0,0.157725 0.0579,1.001449 0.11311,2.000378 0.16568,2.996789 0.11311,3.209608 0.22358,6.416697 0.33137,9.621268 0.003,12.462849 0.003,24.92318 0,37.380992 -0.27347,5.417768 -0.54962,10.833016 -0.82841,16.245747 -0.16304,3.157034 -0.32872,6.311548 -0.49705,9.463543 -0.0526,1.737501 -0.10782,3.472486 -0.16568,5.204947 -0.21825,2.158113 -0.43918,4.313693 -0.66273,6.466753 -0.10782,0.52827 -0.21828,1.05403 -0.33136,1.57726 -0.0526,0.2654 -0.10782,0.52827 -0.16568,0.78863" />
    <rect
       style="fill:#ffffff;fill-opacity:1;stroke:#ffffff;stroke-width:0.529;stroke-dasharray:1.05833, 2.11667;stroke-dashoffset:0;stroke-opacity:1"
       id="rect25297"
       width="35.317368"
       height="11.246979"
       x="179.59897"
       y="12.455768" />
    <path
       style="opacity:1;vector-effect:none;fill:none;fill-opacity:1;fill-rule:evenodd;stroke:#000000;stroke-width:0.529167;stroke-linecap:round;stroke-linejoin:miter;stroke-miterlimit:4;stroke-dasharray:none;stroke-dashoffset:0;stroke-opacity:1;paint-order:normal"
       d="m 231.55153,103.39719 c 0.30312,0.22322 0.60311,0.44412 0.78299,0.55343 0.17989,0.10931 0.23984,0.10931 0.26841,0.083 0.0286,-0.0263 0.0286,-0.0815 -0.0312,-0.5784 -0.0598,-0.4969 -0.1798,-1.43577 -0.29988,-2.67846 -0.12008,-1.242684 -0.24007,-2.789063 -0.27023,-4.390828 -0.0301,-1.601764 0.0299,-3.2586 0.0897,-4.225396 0.0598,-0.966796 0.11983,-1.242922 0.17993,-1.684545 0.0601,-0.441623 0.12009,-1.049125 0.24004,-1.96047 0.11995,-0.911344 0.29994,-2.126358 0.45003,-3.755432 0.15008,-1.629074 0.27008,-3.672506 0.36013,-7.151793 0.09,-3.479286 0.15005,-8.394566 0.35994,-12.509195 0.20988,-4.114629 0.56987,-7.428303 0.86987,-10.327747 0.30001,-2.899444 0.54,-5.384698 0.66011,-6.986157 0.12011,-1.601459 0.12011,-2.319421 0.12011,-3.14784 0,-0.828418 0,-1.767292 0,-2.319571 0,-0.552279 0,-0.717962 0.0301,-0.829856 0.0301,-0.111894 0.0901,-0.1671 0.0914,-0.194609 0.001,-0.02751 -0.0587,-0.02751 -0.0901,0.0014 -0.0314,0.02893 -0.0314,0.08417 -0.63006,0.138009 -0.59861,0.05384 -1.79857,0.109068 -3.68842,0.109163 -1.88985,9.5e-5 -4.46978,-0.05513 -6.50963,-0.165448 -2.03985,-0.110315 -3.5398,-0.275998 -5.9099,-0.303832 -2.3701,-0.02783 -5.61001,0.08262 -10.31983,0.137898 -4.70982,0.05528 -10.88964,0.05528 -17.12946,0.05528 -6.23982,0 -12.53964,0 -17.7596,0.165578 -5.21996,0.165578 -9.35984,0.496945 -11.55075,0.745333 -2.1909,0.248388 -2.43089,0.414069 -2.5798,0.497155 -0.1489,0.08309 -0.20889,0.08309 -0.27056,0.138729 -0.0617,0.05564 -0.12167,0.166095 -0.15145,0.305074 -0.0298,0.13898 -0.0298,0.304664 -0.0298,0.663645 0,0.358981 0,0.91126 0,1.739678 0,0.828419 0,1.932976 0,2.87185 0,0.938874 0,1.712065 0.27009,5.854252 0.2701,4.142186 0.81008,11.653179 1.20001,18.998437 0.38993,7.345259 0.62993,14.524884 0.68978,18.804866 0.0598,4.279982 -0.0602,5.660677 -0.12005,6.65491 -0.0599,0.994233 -0.0599,1.601742 0.59062,1.829532 0.65052,0.22779 1.94903,0.0788 5.71671,0.024 3.76768,-0.0548 10.00418,-0.0158 15.98617,0.12097 5.98199,0.13673 11.70939,0.37105 16.07918,0.54678 4.36979,0.17573 7.38199,0.29288 11.13665,0.50772 3.75466,0.21483 8.25174,0.52725 11.15788,0.74206 2.90614,0.21482 4.22132,0.33198 5.13345,0.41006 0.91213,0.0781 1.42122,0.11714 1.67425,0.1574 0.25302,0.0403 0.25302,0.0793 0.5091,0.11713 0.25608,0.0379 0.7652,0.0769 1.06235,0.11665 0.29716,0.0397 0.38198,0.0788 0.46343,0.11624"
       id="path604"
       inkscape:path-effect="#path-effect606"
       inkscape:original-d="m 231.55153,103.39719 c 0.30287,0.22356 0.60285,0.44447 0.89998,0.66274 0.0629,0.003 0.12285,0.003 0.17999,0 0.003,-0.0526 0.003,-0.10779 0,-0.16569 -0.11712,-0.93623 -0.23712,-1.8751 -0.35999,-2.81662 -0.11713,-1.543739 -0.23712,-3.090119 -0.35999,-4.639144 0.0629,-1.65419 0.12285,-3.311027 0.18,-4.97051 0.0629,-0.273494 0.12284,-0.549632 0.17999,-0.828418 0.0629,-0.604861 0.12285,-1.212368 0.18,-1.822521 0.18287,-1.212366 0.36286,-2.427381 0.53998,-3.645041 0.12287,-2.040784 0.24287,-4.084216 0.35999,-6.130295 0.0629,-4.912635 0.12285,-9.827916 0.17999,-14.745843 0.36286,-3.311027 0.72286,-6.6247 1.07997,-9.941019 0.24287,-2.482609 0.48286,-4.967864 0.71998,-7.455764 0.003,-0.715317 0.003,-1.433279 0,-2.153888 0.003,-0.936228 0.003,-1.875102 0,-2.816622 0.003,-0.163038 0.003,-0.328721 0,-0.497051 0.0629,-0.05258 0.12285,-0.107813 0.18,-0.165683 -0.0571,0.0026 -0.1171,0.0026 -0.18,0 0.003,0.05787 0.003,0.113103 0,0.165683 -1.19709,0.05787 -2.39705,0.113104 -3.5999,0.165684 -2.57704,-0.05258 -5.15697,-0.107814 -7.73977,-0.165684 -1.49709,-0.163038 -2.99704,-0.328721 -4.49987,-0.497051 -3.23703,0.113102 -6.47694,0.223558 -9.71972,0.331368 -6.17695,0.0026 -12.35677,0.0026 -18.53946,0 -6.29695,0.0026 -12.59677,0.0026 -18.89945,0 -4.13701,0.334013 -8.27689,0.66538 -12.41964,0.994102 -0.23713,0.168329 -0.47712,0.334013 -0.71999,0.497051 -0.0571,0.0026 -0.11709,0.0026 -0.17999,0 -0.0571,0.113101 -0.11709,0.223557 -0.17999,0.331367 0.003,0.168329 0.003,0.334013 0,0.497051 0.003,0.554924 0.003,1.107203 0,1.656836 0.003,1.107204 0.003,2.211761 0,3.313673 0.003,0.775836 0.003,1.549027 0,2.319571 0.54285,7.513638 1.08284,15.02463 1.61995,22.532975 0.24286,7.182271 0.48286,14.361896 0.71998,21.538875 -0.11713,1.383345 -0.23712,2.764041 -0.36,4.142089 0.003,0.61015 0.003,1.217659 0,1.822529 1.30138,-0.14636 2.59989,-0.29536 3.89551,-0.447 6.23938,0.0417 12.47588,0.0807 18.70951,0.11716 5.73027,0.23695 11.45767,0.47127 17.1822,0.70294 3.01505,0.1198 6.02725,0.23695 9.03655,0.35146 4.49995,0.31507 8.99703,0.62748 13.49121,0.93725 1.31806,0.1198 2.63324,0.23696 3.94555,0.35147 0.51197,0.0417 1.02107,0.0807 1.5273,0.11716 0.003,0.0417 0.003,0.0807 0,0.11715 0.51198,0.0417 1.02109,0.0808 1.5273,0.11716 0.0878,0.0417 0.17259,0.0808 0.25456,0.11715" />
    <rect
       style="fill:#ffffff;fill-opacity:1;stroke:#ffffff;stroke-width:0.529;stroke-dasharray:1.05833, 2.11667;stroke-dashoffset:0;stroke-opacity:1"
       id="rect25295"
       width="49.844715"
       height="11.246979"
       x="172.05247"
       y="94.699303" />
    <path
       style="opacity:1;vector-effect:none;fill:none;fill-opacity:1;fill-rule:evenodd;stroke:#000000;stroke-width:0.529167;stroke-linecap:round;stroke-linejoin:miter;stroke-miterlimit:4;stroke-dasharray:none;stroke-dashoffset:0;stroke-opacity:1;paint-order:normal"
       d="m 68.568044,99.707906 c 0.05505,-0.770745 0.11028,-1.543938 0.137981,-2.510324 0.0277,-0.966386 0.0277,-2.126171 0.05529,-4.086789 0.02759,-1.960617 0.08282,-4.722012 0.358905,-10.10679 0.276088,-5.384778 0.773138,-13.392821 1.159753,-20.461965 0.386615,-7.069144 0.662755,-13.19944 0.883624,-17.258746 0.220868,-4.059305 0.386551,-6.047509 0.552209,-7.814838 0.165659,-1.767328 0.331342,-3.313709 0.496896,-4.363357 0.165554,-1.049649 0.331238,-1.60193 0.414334,-1.905207 0.0831,-0.303278 0.0831,-0.358512 0.05548,-0.359829 -0.02762,-0.0013 -0.08282,0.05389 -0.136743,0.08151 -0.05392,0.02762 -0.10911,0.02762 -0.16436,0.02762 -0.05525,0 -0.11043,0 -0.16568,0 -0.05525,0 -0.11043,0 -0.248904,0.02738 -0.138473,0.02738 -0.359385,0.08261 -1.435939,0.110455 -1.076554,0.02785 -3.009531,0.02785 -5.135773,2.65e-4 -2.126241,-0.02758 -4.445814,-0.08281 -9.940993,-0.193271 C 49.958943,30.78356 41.288163,30.617876 32.203224,30.25895 23.118285,29.900024 13.619089,29.347745 6.1909983,28.767936 -1.2370928,28.188127 -6.5941968,27.580621 -9.8801431,27.111446 c -3.2859459,-0.469174 -4.5009609,-0.800542 -5.1363239,-0.966653 -0.635364,-0.166111 -0.690598,-0.166111 -0.69153,-0.0541 -9.32e-4,0.112012 0.0543,0.332924 0.109173,1.437284 0.05488,1.10436 0.110104,3.092563 0.220758,4.611466 0.110654,1.518903 0.276337,2.568233 0.358943,4.473424 0.08261,1.90519 0.08261,4.666584 0.08261,8.781061 0,4.114478 0,9.582037 0,19.108846 0,9.52681 0,23.112871 0.525988,29.904578 0.525988,6.791707 1.575318,6.791707 7.7883669,6.432647 6.21304899,-0.35906 17.5899921,-1.077021 25.4048261,-1.435925 7.814834,-0.358903 12.067381,-0.358903 16.292314,-0.358903 4.224933,0 8.422252,0 13.254692,0 4.83244,0 10.3,0 13.337534,0 3.037533,0 3.64504,0 3.947471,0.02894 0.30243,0.02894 0.30243,0.08417 0.331365,0.139393 0.02894,0.05523 0.08417,0.110457 0.136749,0.16304"
       id="path7604"
       inkscape:path-effect="#path-effect7606"
       inkscape:original-d="m 68.568044,99.707906 c 0.05787,-0.770544 0.113102,-1.543736 0.165682,-2.319571 0.0026,-1.157139 0.0026,-2.316924 0,-3.479358 0.05788,-2.758747 0.113104,-5.520142 0.165684,-8.284181 0.499695,-8.005397 0.996751,-16.01344 1.491151,-24.024129 0.27879,-6.127649 0.55493,-12.257945 0.82842,-18.390885 0.16833,-1.985558 0.33401,-3.973762 0.49705,-5.964612 0.16833,-1.543734 0.33401,-3.090115 0.49705,-4.639142 0.16833,-0.549633 0.33402,-1.101912 0.49705,-1.656836 0.003,-0.05258 0.003,-0.107814 0,-0.165684 -0.0526,0.05787 -0.10778,0.113104 -0.16568,0.165684 -0.0526,0.0026 -0.10779,0.0026 -0.16569,0 -0.0526,0.0026 -0.10778,0.0026 -0.16568,0 -0.0526,0.0026 -0.10778,0.0026 -0.16568,0 -0.21827,0.05787 -0.43918,0.113103 -0.66274,0.165683 -1.930327,0.0026 -3.863304,0.0026 -5.798924,0 -2.316925,-0.05258 -4.636497,-0.107813 -6.958714,-0.165683 -8.66813,-0.163038 -17.33891,-0.328722 -26.012332,-0.497051 -9.49655,-0.549633 -18.995746,-1.101912 -28.4975875,-1.656837 -5.354459,-0.60486 -10.711563,-1.212367 -16.0713145,-1.82252 -1.212367,-0.328721 -2.427381,-0.660089 -3.64504,-0.994102 -0.05258,0.0026 -0.107814,0.0026 -0.165684,0 0.05787,0.223558 0.113104,0.444469 0.165684,0.662735 0.05787,1.99085 0.113103,3.979053 0.165683,5.964611 0.16833,1.051976 0.334014,2.101306 0.497051,3.14799 0.0026,2.76404 0.0026,5.525434 0,8.284182 0.0026,5.470207 0.0026,10.937766 0,16.402682 0.0026,13.588703 0.0026,27.174764 0,40.758178 1.051976,0.003 2.101306,0.003 3.14799,0 11.3795905,-0.71532 22.756534,-1.433279 34.130832,-2.153888 4.255193,0.0026 8.50774,0.0026 12.757641,0 4.199965,0.0026 8.397284,0.0026 12.591957,0 5.470207,0.0026 10.937767,0.0026 16.402682,0 0.610152,0.0026 1.217659,0.0026 1.82252,0 0.0026,0.05787 0.0026,0.113102 0,0.165684 0.05787,0.05787 0.113101,0.113102 0.165684,0.165684" />
    <rect
       style="fill:#ffffff;fill-opacity:1;stroke:#ffffff;stroke-width:0.529;stroke-dasharray:1.05833, 2.11667;stroke-dashoffset:0;stroke-opacity:1"
       id="rect25293"
       width="46.862411"
       height="11.246979"
       x="3.2208388"
       y="92.876785" />
    <path
       style="opacity:1;vector-effect:none;fill:none;fill-opacity:1;fill-rule:evenodd;stroke:#000000;stroke-width:0.529167;stroke-linecap:round;stroke-linejoin:miter;stroke-miterlimit:4;stroke-dasharray:1.05833, 2.11667;stroke-dashoffset:0;stroke-opacity:1;paint-order:normal"
       d="m 77.966391,38.144649 c 1.094733,-0.469172 2.18819,-0.937796 3.516253,-1.367328 1.328064,-0.429531 2.890145,-0.820051 8.513794,-1.757233 5.623649,-0.937182 15.308552,-2.42116 23.783022,-3.280177 8.47447,-0.859018 15.73814,-1.09333 21.51788,-1.210445 5.77974,-0.117115 10.07547,-0.117115 12.37977,-0.07767 2.3043,0.03944 2.61672,0.117545 2.77137,0.196583 0.15465,0.07904 0.15465,0.157142 0.15465,0.274298 0,0.117156 0,0.273364 0,0.426927"
       id="path18371"
       inkscape:path-effect="#path-effect18373"
       inkscape:original-d="m 77.966391,38.144649 c 1.096102,-0.465978 2.189559,-0.934602 3.280367,-1.405872 1.564728,-0.387874 3.126809,-0.778394 4.686242,-1.17156 9.687544,-1.481331 19.37245,-2.965307 29.0547,-4.451929 7.26632,-0.231667 14.52999,-0.465979 21.79102,-0.702937 4.29836,0.0026 8.59409,0.0026 12.88716,0 0.31506,0.08075 0.62748,0.158854 0.93725,0.234312 0.003,0.08075 0.003,0.158854 0,0.234312 0.003,0.158854 0.003,0.315062 0,0.468625" />
    <path
       style="opacity:1;vector-effect:none;fill:none;fill-opacity:1;fill-rule:evenodd;stroke:#000000;stroke-width:0.529167;stroke-linecap:round;stroke-linejoin:miter;stroke-miterlimit:4;stroke-dasharray:1.05833, 2.11667;stroke-dashoffset:0;stroke-opacity:1;paint-order:normal"
       d="m 29.466702,72.204421 c -0.275081,-0.825244 -0.551221,-1.653662 -0.800072,-2.868785 -0.248851,-1.215123 -0.469763,-2.816733 -0.690712,-4.584048 -0.220949,-1.767315 -0.44186,-3.700289 -0.442142,-5.799222 -2.82e-4,-2.098933 0.220629,-4.363277 0.496613,-5.855024 0.275984,-1.491748 0.607351,-2.20971 2.347351,-4.032863 1.739999,-1.823154 4.887989,-4.750232 7.53967,-6.57297 2.651682,-1.822738 4.805571,-2.540701 7.373885,-3.203377 2.568313,-0.662676 5.550619,-1.270183 7.953452,-1.490759 2.402833,-0.220575 4.225354,-0.05489 6.04501,0.110532"
       id="path11320"
       inkscape:path-effect="#path-effect11322"
       inkscape:original-d="m 29.466702,72.204421 c -0.273495,-0.825773 -0.549635,-1.654191 -0.828418,-2.485255 -0.218266,-1.598962 -0.439177,-3.200572 -0.662737,-4.804826 -0.218265,-1.930331 -0.439176,-3.863305 -0.662733,-5.798928 0.223557,-2.261698 0.444468,-4.526042 0.662733,-6.793029 0.334016,-0.715317 0.665382,-1.433279 0.994103,-2.153888 3.150635,-2.924432 6.298624,-5.85151 9.443969,-8.781233 2.156531,-0.715317 4.31042,-1.43328 6.461662,-2.153888 2.98495,-0.604861 5.967256,-1.212367 8.946917,-1.82252 1.825165,0.16833 3.647686,0.334013 5.467559,0.497051" />
    <path
       style="opacity:1;vector-effect:none;fill:none;fill-opacity:1;fill-rule:evenodd;stroke:#000000;stroke-width:0.529167;stroke-linecap:round;stroke-linejoin:miter;stroke-miterlimit:4;stroke-dasharray:1.05833, 2.11667;stroke-dashoffset:0;stroke-opacity:1;paint-order:normal"
       d="m 172.92352,32.154056 c 0.22277,-0.05569 0.44369,-0.110924 0.63738,-0.138304 0.19368,-0.02738 0.35936,-0.02738 1.10494,-0.02738 0.74558,0 2.07105,0 3.17561,0 1.10455,0 1.9882,0 3.12042,0.02767 1.13222,0.02767 2.51292,0.0829 3.39667,0.138281 0.88376,0.05539 1.27036,0.110613 2.12648,0.331772 0.85612,0.221159 2.18159,0.607755 2.98235,0.828513 0.80076,0.220757 1.0769,0.275985 1.35311,0.359161 0.27621,0.08317 0.55235,0.193631 0.93894,0.359385 0.3866,0.165755 0.88364,0.386666 1.21474,0.580577 0.33109,0.193911 0.49677,0.359593 0.69007,0.552891 0.1933,0.193298 0.41421,0.414208 0.63438,0.828688 0.22017,0.414479 0.44108,1.021989 0.63439,1.546654 0.19332,0.524666 0.359,0.966491 0.46893,1.739472 0.10993,0.772981 0.16516,1.877537 0.22048,2.678409 0.0553,0.800872 0.11055,1.29792 0.138,1.98814 0.0274,0.69022 0.0274,1.573865 0.0274,3.175474 0,1.60161 0,3.92118 0,6.238104"
       id="path10580"
       inkscape:path-effect="#path-effect10582"
       inkscape:original-d="m 172.92352,32.154056 c 0.22355,-0.05258 0.44447,-0.10781 0.66273,-0.165684 0.16833,0.0026 0.33401,0.0026 0.49705,0 1.32812,0.0026 2.65359,0.0026 3.97641,0 0.88629,0.0026 1.76994,0.0026 2.65094,0 1.38334,0.05787 2.76404,0.113102 4.14209,0.165684 0.38924,0.05787 0.77584,0.113102 1.15979,0.165684 1.32811,0.389241 2.65358,0.775836 3.9764,1.159785 0.27879,0.05787 0.55493,0.113102 0.82842,0.165684 0.27879,0.113102 0.55493,0.223557 0.82842,0.331367 0.4997,0.223558 0.99675,0.444469 1.49115,0.662735 0.16833,0.168329 0.33401,0.334013 0.49705,0.497051 0.22356,0.223557 0.44447,0.444469 0.66274,0.662734 0.22355,0.610153 0.44447,1.21766 0.66273,1.82252 0.16833,0.444469 0.33402,0.886292 0.49705,1.32547 0.0579,1.107203 0.1131,2.211761 0.16569,3.313673 0.0579,0.499696 0.1131,0.996747 0.16568,1.491153 0.003,0.886292 0.003,1.769937 0,2.650938 0.003,2.322218 0.003,4.641788 0,6.958712" />
    <path
       style="opacity:1;vector-effect:none;fill:#ffffff;fill-opacity:1;fill-rule:evenodd;stroke:#000000;stroke-width:0.529167;stroke-linecap:round;stroke-linejoin:miter;stroke-miterlimit:4;stroke-dasharray:none;stroke-dashoffset:0;stroke-opacity:1;paint-order:normal"
       d="m 58.295656,84.133647 c 0.05523,-0.05524 0.110446,-0.110449 0.248287,-0.578959 0.137842,-0.468509 0.358754,-1.352159 0.524436,-2.014889 0.165682,-0.662731 0.276139,-1.10456 0.35895,-1.408455 0.08281,-0.303894 0.138039,-0.469576 0.220942,-0.828332 0.0829,-0.358756 0.19336,-0.911035 0.276312,-1.545959 0.08295,-0.634924 0.138179,-1.352884 0.221035,-2.567881 0.08286,-1.214996 0.193311,-2.927056 0.303668,-4.114616 0.110356,-1.18756 0.220812,-1.850299 0.276219,-2.209039 0.05541,-0.35874 0.05541,-0.41392 0.02912,-0.44287 -0.02629,-0.02895 -0.08152,-0.02895 -0.191976,-0.02895 -0.110455,0 -0.27614,0 -0.828418,0 -0.552278,0 -1.491152,0 -2.430026,0 -0.938874,0 -1.877748,0 -3.148038,0.02757 -1.270289,0.02757 -2.871895,0.0828 -7.01394,0.110454 -4.142045,0.02766 -10.824618,0.02766 -15.850356,0.02766 -5.025738,0 -8.394638,0 -12.84047,-0.0276 -4.445831,-0.0276 -9.968618,-0.08283 -13.5031705,-0.138019 -3.5345526,-0.05519 -5.08093213,-0.110423 -6.3235326,-0.165618 -1.2426006,-0.0552 -2.1814718,-0.110422 -2.7338246,-0.138118 -0.5523528,-0.0277 -0.7180368,-0.0277 -0.8284913,-0.0277 -0.1104545,0 -0.1656885,0 -0.2209135,0 -0.055225,0 -0.110458,0 -0.139393,0.02895 -0.028935,0.02895 -0.028935,0.08413 -0.056753,0.249519 -0.027818,0.16539 -0.083046,0.441531 -0.1658879,0.855741 -0.082842,0.414209 -0.1932974,0.966489 -0.3589197,2.126397 -0.1656222,1.159907 -0.3865335,2.927197 -0.5797892,4.805011 -0.1932558,1.877815 -0.3589391,3.866015 -0.1919925,4.831171 0.1669466,0.965156 0.6639958,0.909929 1.492688,0.937809 0.8286922,0.02788 1.9884779,0.138332 3.6452657,0.248722 1.65678776,0.110389 3.8106749,0.220846 8.6982881,0.303626 4.8876129,0.08278 12.5090609,0.138007 20.1304989,0.16561 7.621438,0.0276 15.242886,0.0276 19.992484,0.0276 4.749598,0 6.627346,0 7.897588,0 1.270241,0 1.932976,0 2.291962,0.02894 0.358986,0.02894 0.414206,0.08416 0.466786,0.136747"
       id="path7560"
       inkscape:path-effect="#path-effect7562"
       inkscape:original-d="m 58.295656,84.133647 c 0.05787,-0.0526 0.113105,-0.10779 0.165685,-0.16569 0.223557,-0.881 0.444468,-1.76465 0.662733,-2.65094 0.113102,-0.43917 0.223557,-0.881 0.331367,-1.32547 0.05787,-0.16304 0.113105,-0.32872 0.165685,-0.49705 0.113101,-0.54963 0.223557,-1.10191 0.331367,-1.65683 0.05787,-0.71532 0.113104,-1.43328 0.165684,-2.15389 0.113102,-1.70942 0.223557,-3.42148 0.331367,-5.13619 0.113102,-0.66009 0.223557,-1.32283 0.331367,-1.98821 0.0026,-0.0526 0.0026,-0.10778 0,-0.16568 -0.05258,0.003 -0.107812,0.003 -0.165682,0 -0.163039,0.003 -0.328724,0.003 -0.497052,0 -0.936228,0.003 -1.875102,0.003 -2.816622,0 -0.936228,0.003 -1.875102,0.003 -2.816621,0 -1.598965,0.0579 -3.200572,0.11308 -4.804828,0.16568 -6.679928,0.003 -13.362501,0.003 -20.04772,0 -3.366257,0.003 -6.735157,0.003 -10.106702,0 -5.520144,-0.0526 -11.0429315,-0.10778 -16.5683655,-0.16568 -1.543735,-0.0526 -3.090116,-0.10779 -4.639142,-0.16569 -0.936228,-0.0526 -1.875102,-0.10778 -2.816622,-0.16568 -0.163038,0.003 -0.328722,0.003 -0.497051,0 -0.05258,0.003 -0.107814,0.003 -0.165684,0 -0.05258,0.003 -0.107813,0.003 -0.165683,0 0.0026,0.0579 0.0026,0.11308 0,0.16568 -0.05258,0.27879 -0.107814,0.55493 -0.165684,0.82842 -0.10781,0.55493 -0.218266,1.10721 -0.331367,1.65684 -0.218266,1.76994 -0.439178,3.53723 -0.662735,5.30188 -0.163038,1.99085 -0.328722,3.97905 -0.497051,5.96461 0.499697,-0.0526 0.996748,-0.10781 1.491153,-0.16568 1.162431,0.1131 2.322217,0.22355 3.479357,0.33136 2.156533,0.1131 4.31042,0.22356 6.461662,0.33137 7.6240935,0.0579 15.2455415,0.1131 22.8643435,0.16568 7.624093,0.003 15.245541,0.003 22.864343,0 1.880394,0.003 3.758142,0.003 5.633245,0 0.66538,0.003 1.328115,0.003 1.988203,0 0.05787,0.0579 0.113102,0.11311 0.165684,0.16569" />
    <text
       xml:space="preserve"
       style="font-weight:bold;font-size:8.46667px;line-height:1.25;font-family:'DejaVu Sans';-inkscape-font-specification:'DejaVu Sans Bold';letter-spacing:0px;word-spacing:0px;stroke-width:0.264583"
       x="184.14687"
       y="19.320047"
       id="text495"><tspan
         sodipodi:role="line"
         id="tspan493"
         style="font-size:8.46667px;stroke-width:0.264583"
         x="184.14687"
         y="19.320047">qemu</tspan></text>
    <text
       xml:space="preserve"
       style="font-weight:bold;font-size:8.46667px;line-height:1.25;font-family:'DejaVu Sans';-inkscape-font-specification:'DejaVu Sans Bold';letter-spacing:0px;word-spacing:0px;stroke-width:0.264583"
       x="174.3636"
       y="103.5753"
       id="text499"><tspan
         sodipodi:role="line"
         id="tspan497"
         style="font-size:8.46667px;stroke-width:0.264583"
         x="174.3636"
         y="103.5753">VM guest</tspan></text>
    <text
       xml:space="preserve"
       style="font-weight:bold;font-size:5.29167px;line-height:1.25;font-family:'DejaVu Sans';-inkscape-font-specification:'DejaVu Sans Bold';letter-spacing:0px;word-spacing:0px;stroke-width:0.264583"
       x="98.326996"
       y="28.627296"
       id="text1813"><tspan
         sodipodi:role="line"
         style="font-size:5.29167px;stroke-width:0.264583"
         x="98.326996"
         y="28.627296"
         id="tspan1815">vhost-user</tspan></text>
    <path
       style="opacity:1;vector-effect:none;fill:#ffffff;fill-opacity:1;fill-rule:evenodd;stroke:#000000;stroke-width:0.529167;stroke-linecap:round;stroke-linejoin:miter;stroke-miterlimit:4;stroke-dasharray:none;stroke-dashoffset:0;stroke-opacity:1;paint-order:normal"
       d="m 223.76884,62.104961 c 0.11716,-0.117154 0.23431,-0.234312 0.33169,-0.428692 0.0974,-0.19438 0.17548,-0.467746 0.27314,-0.858179 0.0977,-0.390432 0.21482,-0.89811 0.37112,-2.069466 0.15631,-1.171356 0.35157,-3.006803 0.46878,-4.256395 0.11721,-1.249592 0.15626,-1.913479 0.19524,-2.401729 0.039,-0.48825 0.078,-0.800661 0.11855,-0.958011 0.0405,-0.15735 0.0796,-0.15735 0.0978,-0.175555 0.0182,-0.0182 0.0182,-0.05725 -0.0781,-0.0781 -0.0963,-0.02085 -0.29157,-0.02085 -0.62341,-0.04026 -0.33184,-0.01941 -0.80046,-0.05846 -1.34721,-0.09754 -0.54676,-0.03908 -1.17159,-0.07814 -1.62076,-0.09775 -0.44918,-0.01961 -0.72254,-0.01961 -1.01543,-0.01961 -0.29289,0 -0.60531,0 -1.32782,0.01948 -0.7225,0.01948 -1.85501,0.05853 -7.84942,-0.03902 -5.99441,-0.09756 -16.85087,-0.331869 -24.27067,-0.644173 -7.41979,-0.312304 -11.4031,-0.702824 -13.74616,-0.956553 -2.34305,-0.253729 -3.04598,-0.370885 -3.49506,-0.448934 -0.44907,-0.07805 -0.64433,-0.117101 -0.78097,-0.155673 -0.13664,-0.03857 -0.21475,-0.07763 -0.25537,-0.11614 -0.0406,-0.03852 -0.0406,-0.07757 0.0572,0.625523 0.0978,0.703088 0.29309,2.148012 0.42968,3.358567 0.1366,1.210556 0.2147,2.186856 0.33188,3.495117 0.11718,1.30826 0.27339,2.948443 0.37103,3.963802 0.0976,1.015358 0.13669,1.405873 0.15607,1.718174 0.0194,0.3123 0.0194,0.546612 0.13761,0.64274 0.11823,0.09613 0.35254,0.05708 0.5871,0.03773 0.23457,-0.01935 0.46888,-0.01935 1.07419,-0.01935 0.6053,0 1.5816,0 3.06558,0 1.48398,0 3.47563,0 10.79788,0 7.32225,0 19.9751,0 27.41455,0.0391 7.43946,0.0391 9.66543,0.117204 10.73854,0.175458 1.07311,0.05825 0.99496,0.09733 0.93586,0.136645 -0.0591,0.03932 -0.0982,0.07839 -0.15676,0.136968 -0.0586,0.05858 -0.13666,0.136663 -0.21477,0.214766"
       id="path8380"
       inkscape:path-effect="#path-effect8382"
       inkscape:original-d="m 223.76884,62.104961 c 0.1198,-0.114509 0.23696,-0.231666 0.35147,-0.351467 0.0807,-0.270719 0.15881,-0.544084 0.23431,-0.820092 0.1198,-0.505031 0.23696,-1.012708 0.35147,-1.523029 0.19791,-1.832797 0.39317,-3.668244 0.58578,-5.506333 0.0417,-0.661239 0.0808,-1.325123 0.11716,-1.991654 0.0417,-0.309769 0.0807,-0.622186 0.11715,-0.937247 0.0417,0.0026 0.0808,0.0026 0.11716,0 0.003,-0.03641 0.003,-0.07546 0,-0.117157 -0.19262,0.0026 -0.38788,0.0026 -0.58578,0 -0.46598,-0.0364 -0.9346,-0.07545 -1.40587,-0.117155 -0.62219,-0.03641 -1.24702,-0.07546 -1.8745,-0.117157 -0.27072,0.0026 -0.54408,0.0026 -0.82009,0 -0.30977,0.0026 -0.62219,0.0026 -0.93725,0 -1.12986,0.0417 -2.26237,0.08075 -3.39753,0.117157 -10.85381,-0.231667 -21.71027,-0.465979 -32.56937,-0.702937 -3.98066,-0.387874 -7.96397,-0.778394 -11.94992,-1.171559 -0.70029,-0.114512 -1.40322,-0.231667 -2.10881,-0.35147 -0.19261,-0.03641 -0.38787,-0.07546 -0.58578,-0.117155 -0.0755,-0.0364 -0.15361,-0.07545 -0.23431,-0.117155 0.003,-0.03641 0.003,-0.07546 0,-0.117157 0.19791,1.44757 0.39317,2.892494 0.58578,4.334774 0.0807,0.978945 0.15881,1.955245 0.23431,2.928901 0.15886,1.642829 0.31506,3.283013 0.46863,4.920551 0.0417,0.393168 0.0807,0.783688 0.11715,1.171562 0.003,0.236958 0.003,0.47127 0,0.702937 0.23696,-0.03641 0.47127,-0.07546 0.70294,-0.117157 0.23696,0.0026 0.47127,0.0026 0.70294,0 0.97894,0.0026 1.95524,0.0026 2.9289,0 1.9943,0.0026 3.98595,0.0026 5.97496,0 12.65549,0.0026 25.30834,0.0026 37.95855,0 2.22861,0.08075 4.45458,0.158854 6.67789,0.234312 -0.0754,0.0417 -0.15356,0.08075 -0.23431,0.117156 -0.0364,0.0417 -0.0755,0.08075 -0.11715,0.117156 -0.0755,0.08075 -0.15357,0.158854 -0.23432,0.234313" />
    <text
       xml:space="preserve"
       style="font-weight:bold;font-size:5.29167px;line-height:1.25;font-family:'DejaVu Sans';-inkscape-font-specification:'DejaVu Sans Bold';text-align:center;letter-spacing:0px;word-spacing:0px;text-anchor:middle;stroke-width:0.264583"
       x="197.6185"
       y="57.721241"
       id="text1837"><tspan
         sodipodi:role="line"
         style="font-size:5.29167px;text-align:center;text-anchor:middle;stroke-width:0.264583"
         x="197.6185"
         y="57.721241"
         id="tspan1844">FUSE client</tspan></text>
    <text
       xml:space="preserve"
       style="font-weight:bold;font-size:5.29167px;line-height:1.25;font-family:'DejaVu Sans';-inkscape-font-specification:'DejaVu Sans Bold';text-align:center;letter-spacing:0px;word-spacing:0px;text-anchor:middle;stroke-width:0.264583"
       x="26.789129"
       y="77.361435"
       id="text6166"><tspan
         sodipodi:role="line"
         style="font-size:5.29167px;text-align:center;text-anchor:middle;stroke-width:0.264583"
         x="26.789129"
         y="77.361435"
         id="tspan6164">FUSE server</tspan></text>
    <g
       id="g6180"
       transform="matrix(0.74999509,0,0,0.74999509,-182.58994,16.13744)"
       style="stroke-width:1.33334">
      <text
         xml:space="preserve"
         style="font-style:normal;font-variant:normal;font-weight:normal;font-stretch:normal;font-size:7.05556px;line-height:120%;font-family:Consolas;-inkscape-font-specification:Consolas;letter-spacing:0px;word-spacing:0px;writing-mode:lr-tb;fill:#db0000;fill-opacity:1;stroke:none;stroke-width:0.35278px;stroke-linecap:butt;stroke-linejoin:miter;stroke-opacity:1"
         x="152.99663"
         y="66.472069"
         id="text6174"><tspan
           sodipodi:role="line"
           style="font-style:normal;font-variant:normal;font-weight:normal;font-stretch:normal;font-family:Consolas;-inkscape-font-specification:Consolas;fill:#db0000;fill-opacity:1;stroke:none;stroke-width:0.35278px"
           x="152.99663"
           y="66.472069"
           id="tspan6168">/</tspan><tspan
           sodipodi:role="line"
           style="font-style:normal;font-variant:normal;font-weight:normal;font-stretch:normal;font-family:Consolas;-inkscape-font-specification:Consolas;fill:#db0000;fill-opacity:1;stroke:none;stroke-width:0.35278px"
           x="152.99663"
           y="74.938744"
           id="tspan6170">  foo</tspan><tspan
           sodipodi:role="line"
           style="font-style:normal;font-variant:normal;font-weight:normal;font-stretch:normal;font-family:Consolas;-inkscape-font-specification:Consolas;fill:#db0000;fill-opacity:1;stroke:none;stroke-width:0.35278px"
           x="152.99663"
           y="83.405418"
           id="tspan6172">    bar</tspan></text>
      <path
         style="fill:none;fill-opacity:1;stroke:#e6c3c3;stroke-width:0.666671;stroke-dasharray:none;stroke-opacity:1"
         d="m 154.91491,69.70085 v 4.181923 h 3.53623"
         id="path6176" />
      <path
         style="fill:none;fill-opacity:1;stroke:#e6c3c3;stroke-width:0.666671;stroke-dasharray:none;stroke-opacity:1"
         d="m 162.91385,77.770642 v 4.181923 h 3.53624"
         id="path6178" />
    </g>
    <path
       style="opacity:1;vector-effect:none;fill:none;fill-opacity:1;fill-rule:evenodd;stroke:#db0000;stroke-width:0.529167;stroke-linecap:round;stroke-linejoin:miter;stroke-miterlimit:4;stroke-dasharray:1.05833, 3.175;stroke-dashoffset:0;stroke-opacity:1;paint-order:normal"
       d="m -74.418478,80.856969 c 0.05491,-0.384373 0.110139,-0.770969 0.137911,-1.240195 0.02777,-0.469225 0.02777,-1.021503 0.02777,-1.849921 0,-0.828419 0,-1.932977 0,-3.00992 0,-1.076943 0,-2.126272 -0.08273,-3.727788 -0.08273,-1.601515 -0.248416,-3.755403 -0.331367,-5.219036 -0.08295,-1.463632 -0.08295,-2.236821 -0.110464,-3.009924 -0.02751,-0.773103 -0.08274,-1.546295 -0.110456,-1.96059 -0.02772,-0.414295 -0.02772,-0.469525 0.0012,-0.498462 0.02894,-0.02894 0.08417,-0.02894 0.498275,-0.05664 0.414108,-0.0277 1.1873,-0.08293 2.291905,-0.138118 1.104604,-0.05519 2.540529,-0.110417 4.00407,-0.165644 1.463541,-0.05523 2.954695,-0.110454 5.219089,-0.138021 2.264393,-0.02757 5.301926,-0.02757 8.229005,-0.02757 2.927079,0 5.743701,0 7.925154,-0.02766 2.181452,-0.02766 3.727833,-0.08289 4.611528,-0.110455 0.883695,-0.02757 1.104606,-0.02757 1.213739,0.0014 0.109133,0.02894 0.109133,0.08417 0.08145,0.636372 -0.02768,0.552207 -0.08291,1.601536 -0.165778,2.844127 -0.08287,1.242592 -0.193325,2.678515 -0.2761,4.749642 -0.08277,2.071128 -0.138004,4.777294 -0.165591,6.93121 -0.02759,2.153916 -0.02759,3.755523 -0.02759,4.666783 0,0.911259 0,1.132173 0,1.32547 0,0.193296 0,0.358981 -0.02629,0.440499 -0.02629,0.08152 -0.08152,0.08152 -0.16436,0.08152 -0.08284,0 -0.193297,0 -0.306398,0"
       id="path6390"
       inkscape:path-effect="#path-effect6392"
       inkscape:original-d="m -74.418478,80.856969 c 0.05787,-0.38395 0.113102,-0.770546 0.165684,-1.159785 0.0026,-0.549635 0.0026,-1.101913 0,-1.656837 0.0026,-1.101913 0.0026,-2.206471 0,-3.313673 0.0026,-1.046684 0.0026,-2.096013 0,-3.147989 -0.163038,-2.151242 -0.328721,-4.30513 -0.497051,-6.461664 0.0026,-0.770544 0.0026,-1.543733 0,-2.319571 -0.05258,-0.770543 -0.10781,-1.543735 -0.165684,-2.31957 0.0026,-0.05258 0.0026,-0.10781 0,-0.165685 0.05787,0.0026 0.113102,0.0026 0.165684,0 0.775836,-0.05258 1.549027,-0.10781 2.319571,-0.165682 1.43857,-0.05258 2.874495,-0.10781 4.307775,-0.165685 1.493798,-0.05258 2.984952,-0.107809 4.473459,-0.165684 3.040178,0.0026 6.077711,0.0026 9.112601,0 2.819268,0.0026 5.63589,0.0026 8.449866,0 1.549027,-0.05258 3.095408,-0.10781 4.63914,-0.165682 0.22356,0.0026 0.444471,0.0026 0.662737,0 0.0026,0.05787 0.0026,0.113101 0,0.165682 -0.05258,1.051978 -0.10781,2.101307 -0.165685,3.147991 -0.10781,1.438571 -0.218265,2.874494 -0.331367,4.307774 -0.05258,2.708812 -0.10781,5.414978 -0.165685,8.118498 0.0026,1.604257 0.0026,3.205864 0,4.804826 0.0026,0.223557 0.0026,0.444471 0,0.662736 0.0026,0.168328 0.0026,0.334013 0,0.497049 -0.05258,0.0026 -0.107809,0.0026 -0.165682,0 -0.107809,0.0026 -0.218265,0.0026 -0.331366,0" />
    <path
       style="opacity:1;vector-effect:none;fill:none;fill-opacity:1;fill-rule:evenodd;stroke:#db0000;stroke-width:0.529167;stroke-linecap:round;stroke-linejoin:miter;stroke-miterlimit:4;stroke-dasharray:1.05833, 3.175;stroke-dashoffset:0;stroke-opacity:1;paint-order:normal"
       d="m -73.921427,81.85107 c 4.752181,-0.110516 9.50178,-0.220971 13.146852,-0.276169 3.645072,-0.0552 6.185553,-0.0552 8.394669,-0.0552 2.209116,0 4.086864,0 5.495093,-0.02769 1.408229,-0.02769 2.347103,-0.08292 2.95469,-0.110457 0.607588,-0.02754 0.883729,-0.02754 1.157223,-0.02754"
       id="path6394"
       inkscape:path-effect="#path-effect6396"
       inkscape:original-d="m -73.921427,81.85107 c 4.752244,-0.10781 9.501843,-0.218266 14.248794,-0.331367 2.54313,0.0026 5.083611,0.0026 7.621447,0 1.880396,0.0026 3.758144,0.0026 5.633246,0 0.94152,-0.05258 1.880394,-0.10781 2.816622,-0.165685 0.278783,0.0026 0.554924,0.0026 0.828418,0" />
    <text
       xml:space="preserve"
       style="font-weight:bold;font-size:8.46667px;line-height:1.25;font-family:'DejaVu Sans';-inkscape-font-specification:'DejaVu Sans Bold';letter-spacing:0px;word-spacing:0px;stroke-width:0.264583"
       x="6.3240728"
       y="101.71404"
       id="text6624"><tspan
         sodipodi:role="line"
         id="tspan6622"
         style="font-size:8.46667px;stroke-width:0.264583"
         x="6.3240728"
         y="101.71404">virtiofsd</tspan></text>
    <text
       xml:space="preserve"
       style="font-weight:bold;font-size:5.29167px;line-height:1.25;font-family:'DejaVu Sans';-inkscape-font-specification:'DejaVu Sans Bold';text-align:center;letter-spacing:0px;word-spacing:0px;text-anchor:middle;stroke-width:0.264583;fill:#db0000;fill-opacity:1"
       x="-57.681683"
       y="89.14386"
       id="text6676"><tspan
         sodipodi:role="line"
         style="font-size:5.29167px;text-align:center;text-anchor:middle;stroke-width:0.264583;fill:#db0000;fill-opacity:1"
         x="-57.681683"
         y="89.14386"
         id="tspan6674">Shared</tspan><tspan
         sodipodi:role="line"
         style="font-size:5.29167px;text-align:center;text-anchor:middle;stroke-width:0.264583;fill:#db0000;fill-opacity:1"
         x="-57.681683"
         y="95.758446"
         id="tspan6678">directory</tspan></text>
    <path
       style="opacity:1;vector-effect:none;fill:#ffffff;fill-opacity:1;fill-rule:evenodd;stroke:#000000;stroke-width:0.529167;stroke-linecap:round;stroke-linejoin:miter;stroke-miterlimit:4;stroke-dasharray:none;stroke-dashoffset:0;stroke-opacity:1;paint-order:normal"
       d="m 78.509061,50.33418 c 0.05524,-0.05524 0.110451,-0.110453 0.138065,-0.191974 0.02761,-0.08152 0.02761,-0.191976 0.137917,-1.048212 0.110303,-0.856237 0.331216,-2.457844 0.579806,-5.108684 0.24859,-2.650841 0.52473,-6.351109 0.690462,-9.029601 0.165732,-2.678493 0.220958,-4.335329 0.248614,-5.743595 0.02766,-1.408265 0.02766,-2.568051 0.02766,-3.230785 0,-0.662735 0,-0.828418 -0.16461,-0.885148 -0.16461,-0.05673 -0.495981,-0.0015 -2.566835,0.109078 -2.070855,0.11058 -5.881575,0.276263 -9.940783,0.386757 -4.059208,0.110495 -8.366981,0.165722 -10.879834,0.193353 -2.512853,0.02763 -3.230815,0.02763 -3.617408,0.02763 -0.386593,0 -0.441828,0 -0.442937,0.194779 -0.0011,0.194779 0.05412,0.581375 0.136921,1.244086 0.0828,0.662711 0.193257,1.601585 0.552221,4.915247 0.358964,3.313663 0.96647,9.002135 1.159495,12.950659 0.193025,3.948524 -0.02789,6.157641 0.193673,7.095071 0.221558,0.937431 0.884294,0.606063 3.342474,0.08148 2.458181,-0.52458 6.710728,-1.242543 9.472316,-1.629012 2.761587,-0.38647 4.031827,-0.441698 5.136365,-0.496944 1.104538,-0.05525 2.043408,-0.110473 2.540555,-0.138014 0.497147,-0.02754 0.552347,-0.02754 0.662802,-0.02754 0.110455,0 0.276145,0 0.60751,0 0.331365,0 0.828415,0 1.435925,0 0.60751,0 1.32547,0 2.04078,0"
       id="path7440"
       inkscape:path-effect="#path-effect7442"
       inkscape:original-d="m 78.509061,50.33418 c 0.0579,-0.05258 0.1131,-0.107804 0.16568,-0.165684 0.003,-0.10781 0.003,-0.218266 0,-0.331367 0.22356,-1.598964 0.44447,-3.200572 0.66274,-4.804825 0.27878,-3.697624 0.55492,-7.397892 0.82842,-11.100806 0.0579,-1.65419 0.1131,-3.311027 0.16568,-4.970509 0.003,-1.15714 0.003,-2.316926 0,-3.479357 0.003,-0.163038 0.003,-0.328721 0,-0.497051 -0.32872,0.05787 -0.66009,0.113104 -0.9941,0.165684 -3.80808,0.168329 -7.6188,0.334013 -11.432174,0.497051 -4.305128,0.05787 -8.612901,0.113104 -12.923324,0.165684 -0.715317,0.0026 -1.433279,0.0026 -2.153885,0 -0.05258,0.0026 -0.107815,0.0026 -0.165685,0 0.05787,0.389241 0.113105,0.775836 0.165685,1.159785 0.113101,0.94152 0.223557,1.880394 0.331366,2.816622 0.610153,5.691118 1.217658,11.379591 1.822519,17.065415 -0.218265,2.211761 -0.439176,4.420878 -0.662733,6.627347 0.66538,-0.328721 1.328115,-0.660089 1.988204,-0.994102 4.255193,-0.715316 8.50774,-1.433279 12.757641,-2.153887 1.272886,-0.05258 2.543126,-0.10781 3.810726,-0.165684 0.94152,-0.05258 1.88039,-0.10781 2.81662,-0.165683 0.0579,0.0026 0.1131,0.0026 0.16568,0 0.16833,0.0026 0.33402,0.0026 0.49705,0 0.4997,0.0026 0.99675,0.0026 1.49116,0 0.72061,0.0026 1.43857,0.0026 2.15388,0" />
    <text
       xml:space="preserve"
       style="font-weight:bold;font-size:5.29167px;line-height:1.25;font-family:'DejaVu Sans';-inkscape-font-specification:'DejaVu Sans Bold';text-align:center;letter-spacing:0px;word-spacing:0px;text-anchor:middle;stroke-width:0.264583"
       x="67.019394"
       y="33.598808"
       id="text6464"><tspan
         sodipodi:role="line"
         style="font-size:5.29167px;text-align:center;text-anchor:middle;stroke-width:0.264583"
         x="67.019394"
         y="33.598808"
         id="tspan6458">virtio</tspan><tspan
         sodipodi:role="line"
         style="font-size:5.29167px;text-align:center;text-anchor:middle;stroke-width:0.264583"
         x="67.019394"
         y="40.213394"
         id="tspan6460">back-</tspan><tspan
         sodipodi:role="line"
         style="font-size:5.29167px;text-align:center;text-anchor:middle;stroke-width:0.264583"
         x="67.019394"
         y="46.827984"
         id="tspan6462">end</tspan></text>
    <text
       xml:space="preserve"
       style="font-weight:bold;font-size:5.29167px;line-height:1.25;font-family:'DejaVu Sans';-inkscape-font-specification:'DejaVu Sans Bold';letter-spacing:0px;word-spacing:0px;stroke-width:0.264583"
       x="193.74355"
       y="33.252644"
       id="text11326"><tspan
         sodipodi:role="line"
         style="font-size:5.29167px;stroke-width:0.264583"
         x="193.74355"
         y="33.252644"
         id="tspan11324">virtio-fs</tspan></text>
    <text
       xml:space="preserve"
       style="font-weight:bold;font-size:5.29167px;line-height:1.25;font-family:'DejaVu Sans';-inkscape-font-specification:'DejaVu Sans Bold';letter-spacing:0px;word-spacing:0px;stroke-width:0.264583"
       x="5.1391821"
       y="46.709183"
       id="text11330"><tspan
         sodipodi:role="line"
         style="font-size:5.29167px;stroke-width:0.264583"
         x="5.1391821"
         y="46.709183"
         id="tspan11328">virtio-fs</tspan></text>
    <path
       style="opacity:1;vector-effect:none;fill:none;fill-opacity:1;fill-rule:evenodd;stroke:#000000;stroke-width:0.529167;stroke-linecap:round;stroke-linejoin:miter;stroke-miterlimit:4;stroke-dasharray:none;stroke-dashoffset:0;stroke-opacity:1;paint-order:normal"
       d="m -60.980663,53.786704 c 0,-1.325123 0,-2.652892 0,-3.551088 0,-0.898195 0,-1.36682 0.234057,-2.382645 0.234057,-1.015826 0.702681,-2.577907 1.796496,-4.101874 1.093815,-1.523966 2.812103,-3.007943 4.101314,-3.945374 1.28921,-0.93743 2.148356,-1.327951 3.51565,-1.679326 1.367295,-0.351375 3.241791,-0.663791 4.569928,-0.780624 1.328137,-0.116834 2.109176,-0.03873 3.437092,0.313124 1.327916,0.351853 3.202412,0.976685 4.9986,2.070869 1.796188,1.094184 3.514476,2.656265 4.685403,4.101525 1.170927,1.44526 1.795759,2.773029 2.381294,4.296047 0.585534,1.523018 1.132262,3.241307 1.483532,4.490915 0.35127,1.249609 0.507478,2.030648 0.702717,3.045991 0.195239,1.015344 0.429551,2.265007 0.585657,3.202203 0.156106,0.937196 0.23421,1.562028 0.312293,2.225899 0.07808,0.663871 0.156186,1.366808 0.625443,2.577556 0.469256,1.210747 1.328401,2.929035 2.070836,4.139456 0.742436,1.210422 1.367267,1.913357 2.031438,2.498759 0.66417,0.585402 1.367106,1.054026 1.913759,1.44469 0.546654,0.390664 0.937174,0.703081 1.640252,1.093176 0.703079,0.390094 1.718431,0.858717 2.850745,1.131433 1.132313,0.272715 2.381978,0.35082 3.475357,0.389784 1.09338,0.03897 2.030627,0.03897 2.96523,0.03897"
       id="path16465"
       inkscape:path-effect="#path-effect16467"
       inkscape:original-d="m -60.980663,53.786704 c 0.0026,-1.325123 0.0026,-2.652892 0,-3.983305 0.0026,-0.465978 0.0026,-0.934603 0,-1.405874 0.47127,-1.559433 0.939894,-3.121514 1.405872,-4.686239 1.720935,-1.481331 3.439223,-2.965308 5.154866,-4.45193 0.861789,-0.387874 1.720934,-0.778395 2.577432,-1.17156 1.877142,-0.309771 3.751638,-0.622187 5.623491,-0.937249 0.783685,0.08075 1.564724,0.158854 2.343118,0.234312 1.877145,0.627479 3.751641,1.252311 5.623492,1.874497 1.720934,1.564726 3.439223,3.126806 5.154863,4.68624 0.627481,1.330415 1.252313,2.658184 1.874499,3.983307 0.549373,1.720932 1.0961,3.439221 1.640184,5.154864 0.158853,0.783688 0.315061,1.564727 0.468625,2.343121 0.236958,1.25231 0.471268,2.501974 0.702934,3.748992 0.08075,0.627478 0.158856,1.25231 0.234312,1.874496 0.08075,0.705583 0.158854,1.40852 0.234313,2.108812 0.86179,1.720932 1.720934,3.43922 2.577433,5.154863 0.627478,0.705583 1.25231,1.408518 1.874496,2.108809 0.705583,0.47127 1.408518,0.939895 2.108809,1.405871 0.393165,0.315064 0.783685,0.627481 1.171558,0.93725 1.018001,0.47127 2.033352,0.939895 3.046058,1.405871 1.25231,0.08075 2.501974,0.158856 3.748993,0.234313 0.939895,0.0026 1.877142,0.0026 2.811745,0" />
    <path
       style="opacity:1;vector-effect:none;fill:none;fill-opacity:1;fill-rule:evenodd;stroke:#000000;stroke-width:0.529167;stroke-linecap:round;stroke-linejoin:miter;stroke-miterlimit:4;stroke-dasharray:none;stroke-dashoffset:0;stroke-opacity:1;paint-order:normal"
       d="m -17.381478,69.687109 c 0.224086,0.112044 0.444997,0.222501 0.693388,0.388553 0.24839,0.166052 0.52453,0.386963 1.104558,0.717962 0.580029,0.330999 1.463673,0.772821 2.126408,1.104189 0.662735,0.331367 1.104558,0.552278 1.574004,0.773105 0.469445,0.220827 0.966496,0.441738 1.463548,0.66265 0.4970516,0.220912 0.9941029,0.441825 1.3254608,0.579714 0.3313579,0.137889 0.4970438,0.193118 0.6072323,0.220202 0.1101884,0.02708 0.1654204,0.02708 0.1654219,0.02708 1.5e-6,0 -0.055229,0 -0.2493203,0.08258 -0.1940919,0.08258 -0.5254585,0.248261 -1.0222452,0.441559 -0.4967865,0.193297 -1.1595215,0.414208 -2.0154365,0.662758 -0.855915,0.248551 -1.905244,0.52469 -3.396714,1.104551 -1.49147,0.579861 -3.424446,1.463508 -5.358611,2.347698"
       id="path16493"
       inkscape:path-effect="#path-effect16495"
       inkscape:original-d="m -17.381478,69.687109 c 0.223557,0.113102 0.444469,0.223557 0.662734,0.33137 0.278786,0.223557 0.554926,0.444468 0.828418,0.662733 0.886294,0.444469 1.769938,0.886291 2.65094,1.32547 0.444468,0.223557 0.886291,0.444468 1.32547,0.662734 0.499695,0.223557 0.996746,0.444468 1.491152,0.662733 0.4996975,0.22356 0.9967495,0.444471 1.4911525,0.662737 0.16833,0.05787 0.334015,0.113101 0.497051,0.165682 0.05787,0.0026 0.113102,0.0026 0.165685,0 -0.05258,0.0026 -0.10781,0.0026 -0.165685,0 -0.328721,0.16833 -0.660087,0.334015 -0.9941,0.497051 -0.6600905,0.223557 -1.3228245,0.444469 -1.9882065,0.662734 -1.046684,0.278786 -2.096013,0.554926 -3.147989,0.828418 -1.930328,0.886294 -3.863305,1.769938 -5.798928,2.65094" />
    <path
       style="opacity:1;vector-effect:none;fill:none;fill-opacity:1;fill-rule:evenodd;stroke:#000000;stroke-width:0.529167;stroke-linecap:round;stroke-linejoin:miter;stroke-miterlimit:4;stroke-dasharray:none;stroke-dashoffset:0;stroke-opacity:1;paint-order:normal"
       d="m 152.60995,16.525897 c -0.0554,0.84354 -0.11061,1.684743 -0.16577,5.785693 -0.0552,4.10095 -0.11039,11.461483 -0.138,16.535004 -0.0276,5.07352 -0.0276,7.860006 0.16574,15.010281 0.19334,7.150276 0.57993,18.664252 0.74556,26.655628 0.16562,7.991377 0.1104,12.460271 0.0828,14.905036 -0.0276,2.444766 -0.0276,2.865368 -0.0276,3.680283 0,0.814916 0,2.024148 0,2.733908 0,0.70977 0,0.92007 0,1.13037 0,0.2103 0,0.4206 -0.0279,0.60407 -0.0279,0.18347 -0.0831,0.34118 -0.11045,0.52575 -0.0274,0.18456 -0.0274,0.39486 -0.0274,0.60516 0,0.2103 0,0.42061 0,0.8675 0,0.44689 0,1.13036 0,1.57725 0,0.4469 0,0.6572 -0.0278,0.91981 -0.0278,0.26262 -0.083,0.57806 -0.0815,0.73479 0.002,0.15674 0.0567,0.15674 0.69172,0.10406 0.635,-0.0527 1.85001,-0.15784 3.83826,-0.28924 1.98825,-0.13141 4.74964,-0.28913 14.02799,-0.4468 9.27834,-0.15766 25.07352,-0.31539 35.48399,-0.39424 10.41047,-0.0789 15.4362,-0.0789 20.32386,-0.10515 4.88766,-0.0263 9.63725,-0.0789 11.84615,-0.079 2.20889,-1.6e-4 1.87754,0.0524 1.62875,0.1049 -0.24878,0.0525 -0.41446,0.10505 -0.52444,0.13161 -0.10998,0.0266 -0.16519,0.0266 -0.22043,0.0266 -0.0552,0 -0.11045,0 -0.16831,0"
       id="path22626"
       inkscape:path-effect="#path-effect22628"
       inkscape:original-d="m 152.60995,16.525897 c -0.0526,0.843723 -0.10781,1.684927 -0.16569,2.523611 -0.0526,7.363052 -0.10781,14.723585 -0.16568,22.081599 0.003,2.789007 0.003,5.575493 0,8.359461 0.38924,11.516497 0.77583,23.030473 1.15978,34.541931 -0.0526,4.471414 -0.10781,8.940308 -0.16568,13.406684 0.003,0.423122 0.003,0.843724 0,1.261806 0.003,1.211749 0.003,2.420981 0,3.627691 0.003,0.21282 0.003,0.42312 0,0.63091 0.003,0.21281 0.003,0.42311 0,0.6309 -0.0526,0.16024 -0.10781,0.31796 -0.16568,0.47317 0.003,0.21282 0.003,0.42312 0,0.63091 0.003,0.21281 0.003,0.42312 0,0.6309 0.003,0.686 0.003,1.36947 0,2.05044 0.003,0.21282 0.003,0.42312 0,0.63089 -0.0526,0.31798 -0.10781,0.63342 -0.16569,0.94637 0.0579,0.003 0.1131,0.003 0.16569,0 1.21766,-0.10264 2.43267,-0.20779 3.64504,-0.31546 2.76404,-0.15521 5.52543,-0.31293 8.28418,-0.47317 15.79782,-0.15521 31.593,-0.31294 47.38553,-0.47318 5.02838,0.003 10.05411,0.003 15.0772,0 4.75226,-0.0501 9.50185,-0.10263 14.24879,-0.15773 -0.32872,0.0551 -0.66008,0.10766 -0.99409,0.15773 -0.16304,0.0551 -0.32872,0.10767 -0.49705,0.15772 -0.0526,0.003 -0.10781,0.003 -0.16568,0 -0.0526,0.003 -0.10782,0.003 -0.16568,0" />
    <path
       style="opacity:1;vector-effect:none;fill:none;fill-opacity:1;fill-rule:evenodd;stroke:#000000;stroke-width:0.529167;stroke-linecap:round;stroke-linejoin:miter;stroke-miterlimit:4;stroke-dasharray:none;stroke-dashoffset:0;stroke-opacity:1;paint-order:normal"
       d="m 154.04923,38.104868 c 3.51753,0.31267 7.03222,0.625088 9.04346,0.820452 2.01124,0.195364 2.51892,0.27347 2.88974,0.312294 0.37083,0.03882 0.60514,0.03882 0.85898,0.03882 0.25384,0 0.5272,0 0.79792,0"
       id="path1633"
       inkscape:path-effect="#path-effect1635"
       inkscape:original-d="m 154.04923,38.104868 c 3.51732,0.31507 7.03201,0.62748 10.54404,0.93725 0.51032,0.0808 1.018,0.15886 1.52303,0.23432 0.23696,0.003 0.47127,0.003 0.70294,0 0.27601,0.003 0.54937,0.003 0.82009,0" />
    <path
       style="opacity:1;vector-effect:none;fill:#ffffff;fill-opacity:1;fill-rule:evenodd;stroke:#000000;stroke-width:0.529167;stroke-linecap:round;stroke-linejoin:miter;stroke-miterlimit:4;stroke-dasharray:none;stroke-dashoffset:0;stroke-opacity:1;paint-order:normal"
       d="m 174.58035,45.044568 c 0.16629,-0.110864 0.33198,-0.22132 0.41451,-0.302645 0.0825,-0.08132 0.0825,-0.136535 0.0825,-0.24699 0,-0.110455 0,-0.276135 0,-0.552275 0,-0.27614 0,-0.66274 0,-1.02172 0,-0.35898 0,-0.69035 0.0275,-1.104723 0.0275,-0.414372 0.0827,-0.911418 0.13803,-2.098698 0.0553,-1.18728 0.11055,-3.065028 0.16576,-4.694264 0.0552,-1.629236 0.11044,-3.009934 0.2484,-4.446023 0.13796,-1.436088 0.35887,-2.92724 0.55218,-4.280305 0.19331,-1.353065 0.35899,-2.568078 0.52463,-3.617491 0.16564,-1.049413 0.33133,-1.933058 0.41436,-2.346985 0.083,-0.413927 0.083,-0.358692 0.0283,-0.305053 -0.0547,0.05364 -0.16516,0.108868 -0.4131,0.164201 -0.24794,0.05533 -0.63453,0.11056 -1.13126,0.110849 -0.49673,2.89e-4 -1.10424,-0.05494 -1.43573,-0.08268 -0.33148,-0.02774 -0.38667,-0.02774 -0.71794,-0.05523 -0.33127,-0.02748 -0.93877,-0.08271 -3.0098,-0.303593 -2.07104,-0.220883 -5.60562,-0.607478 -9.41638,-0.938909 -3.81077,-0.331431 -7.89763,-0.60757 -10.52111,-0.718181 -2.62347,-0.110611 -3.78326,-0.05538 -4.39071,-0.02771 -0.60745,0.02767 -0.66263,0.02767 -0.6639,0.581339 -0.001,0.553666 0.054,1.658219 0.33016,5.027164 0.2762,3.368944 0.77325,9.002184 1.07704,12.315883 0.30379,3.313698 0.41424,4.307798 0.4693,5.246544 0.0551,0.938746 0.0551,1.822396 0.1933,2.152309 0.13824,0.329913 0.41437,0.109001 0.94029,0.02639 0.52592,-0.08261 1.2991,-0.02738 2.59691,0.02779 1.29781,0.05517 3.12033,0.110395 6.13035,0.386665 3.01001,0.27627 7.20733,0.77332 9.94112,1.104706 2.7338,0.331385 4.00404,0.497069 4.88781,0.690885 0.88377,0.193815 1.38082,0.414727 1.87468,0.634223"
       id="path8384"
       inkscape:path-effect="#path-effect8386"
       inkscape:original-d="m 174.58035,45.044568 c 0.16833,-0.10781 0.33401,-0.21827 0.49705,-0.33137 0.003,-0.0526 0.003,-0.10781 0,-0.16568 0.003,-0.16304 0.003,-0.32872 0,-0.49705 0.003,-0.38395 0.003,-0.77055 0,-1.15979 0.003,-0.32872 0.003,-0.66009 0,-0.9941 0.0579,-0.49441 0.11309,-0.99146 0.16569,-1.49115 0.0579,-1.87511 0.11308,-3.75286 0.16568,-5.63325 0.0579,-1.37805 0.11308,-2.75875 0.16568,-4.142088 0.22356,-1.488508 0.44447,-2.97966 0.66274,-4.473458 0.16833,-1.212369 0.33401,-2.427383 0.49705,-3.64504 0.16833,-0.881002 0.33401,-1.764647 0.49705,-2.65094 0.003,0.05787 0.003,0.113105 0,0.165685 -0.10781,0.05787 -0.21827,0.113102 -0.33137,0.165682 -0.38395,0.05787 -0.77054,0.113104 -1.15978,0.165684 -0.60486,-0.05258 -1.21237,-0.107814 -1.82252,-0.165684 -0.0526,0.0026 -0.10779,0.0026 -0.16569,0 -0.60486,-0.05258 -1.21236,-0.107812 -1.82252,-0.165682 -3.53194,-0.38395 -7.06652,-0.770546 -10.60375,-1.159785 -4.08422,-0.273495 -8.17108,-0.549635 -12.26059,-0.828419 -1.15714,0.05787 -2.31693,0.113102 -3.47936,0.165682 -0.0526,0.0026 -0.10778,0.0026 -0.16568,0 0.0579,1.107205 0.11308,2.211761 0.16568,3.313674 0.4997,5.635889 0.99675,11.269129 1.49116,16.899729 0.1131,0.99675 0.22355,1.99085 0.33136,2.98231 0.003,0.88629 0.003,1.76994 0,2.65094 0.27879,-0.21827 0.55493,-0.43918 0.82842,-0.66274 0.77584,0.0579 1.54903,0.1131 2.31957,0.16569 1.82517,0.0579 3.64769,0.1131 5.46756,0.16568 4.19997,0.4997 8.39729,0.99675 12.59196,1.49115 1.27289,0.16833 2.54313,0.33402 3.81072,0.49705 0.4997,0.22356 0.99675,0.44447 1.49116,0.66274" />
    <text
       xml:space="preserve"
       style="font-weight:bold;font-size:5.29167px;line-height:1.25;font-family:'DejaVu Sans';-inkscape-font-specification:'DejaVu Sans Bold';text-align:center;letter-spacing:0px;word-spacing:0px;text-anchor:middle;stroke-width:0.264583"
       x="161.17896"
       y="26.683155"
       id="text331"><tspan
         sodipodi:role="line"
         style="font-size:5.29167px;text-align:center;text-anchor:middle;stroke-width:0.264583"
         x="161.17896"
         y="26.683155"
         id="tspan1819">virtio</tspan><tspan
         sodipodi:role="line"
         style="font-size:5.29167px;text-align:center;text-anchor:middle;stroke-width:0.264583"
         x="161.17896"
         y="33.297741"
         id="tspan1823">front-</tspan><tspan
         sodipodi:role="line"
         style="font-size:5.29167px;text-align:center;text-anchor:middle;stroke-width:0.264583"
         x="161.17896"
         y="39.912327"
         id="tspan333">end</tspan></text>
    <g
       id="g32627"
       transform="matrix(0.74999509,0,0,0.74999509,71.404339,24.673178)"
       style="stroke-width:1.33334">
      <text
         xml:space="preserve"
         style="font-style:normal;font-variant:normal;font-weight:normal;font-stretch:normal;font-size:7.05556px;line-height:120%;font-family:Consolas;-inkscape-font-specification:Consolas;letter-spacing:0px;word-spacing:0px;writing-mode:lr-tb;fill:#db0000;fill-opacity:1;stroke:none;stroke-width:0.35278px;stroke-linecap:butt;stroke-linejoin:miter;stroke-opacity:1"
         x="152.99663"
         y="66.472069"
         id="text32621"><tspan
           sodipodi:role="line"
           style="font-style:normal;font-variant:normal;font-weight:normal;font-stretch:normal;font-family:Consolas;-inkscape-font-specification:Consolas;fill:#db0000;fill-opacity:1;stroke:none;stroke-width:0.35278px"
           x="152.99663"
           y="66.472069"
           id="tspan32615">/</tspan><tspan
           sodipodi:role="line"
           style="font-style:normal;font-variant:normal;font-weight:normal;font-stretch:normal;font-family:Consolas;-inkscape-font-specification:Consolas;fill:#db0000;fill-opacity:1;stroke:none;stroke-width:0.35278px"
           x="152.99663"
           y="74.938744"
           id="tspan32617">  foo</tspan><tspan
           sodipodi:role="line"
           style="font-style:normal;font-variant:normal;font-weight:normal;font-stretch:normal;font-family:Consolas;-inkscape-font-specification:Consolas;fill:#db0000;fill-opacity:1;stroke:none;stroke-width:0.35278px"
           x="152.99663"
           y="83.405418"
           id="tspan32619">    bar</tspan></text>
      <path
         style="fill:none;fill-opacity:1;stroke:#e6c3c3;stroke-width:0.666671;stroke-dasharray:none;stroke-opacity:1"
         d="m 154.91491,69.70085 v 4.181923 h 3.53623"
         id="path32623" />
      <path
         style="fill:none;fill-opacity:1;stroke:#e6c3c3;stroke-width:0.666671;stroke-dasharray:none;stroke-opacity:1"
         d="m 162.91385,77.770642 v 4.181923 h 3.53624"
         id="path32625" />
    </g>
    <path
       style="opacity:1;vector-effect:none;fill:none;fill-opacity:1;fill-rule:evenodd;stroke:#db0000;stroke-width:0.529167;stroke-linecap:round;stroke-linejoin:miter;stroke-miterlimit:4;stroke-dasharray:1.05833, 3.175;stroke-dashoffset:0;stroke-opacity:1;paint-order:normal"
       d="m 179.5758,89.392707 c 0.0549,-0.384377 0.11014,-0.770968 0.13792,-1.240194 0.0278,-0.469226 0.0278,-1.021504 0.0278,-1.849922 0,-0.828419 0,-1.932977 0,-3.00992 0,-1.076943 0,-2.126272 -0.0827,-3.727788 -0.0827,-1.601515 -0.24843,-3.755403 -0.33138,-5.219036 -0.083,-1.463632 -0.083,-2.236821 -0.11046,-3.009925 -0.0275,-0.773104 -0.0827,-1.546295 -0.11046,-1.960589 -0.0277,-0.414295 -0.0277,-0.469525 0.001,-0.498462 0.029,-0.02894 0.0841,-0.02894 0.49826,-0.05664 0.41411,-0.0277 1.1873,-0.08293 2.29191,-0.138118 1.1046,-0.05519 2.54052,-0.110417 4.00407,-0.165644 1.46354,-0.05523 2.95469,-0.110454 5.21908,-0.138021 2.2644,-0.02757 5.30193,-0.02757 8.22901,-0.02757 2.92708,0 5.7437,0 7.92515,-0.02766 2.18145,-0.02766 3.72783,-0.08289 4.61153,-0.110455 0.8837,-0.02757 1.10461,-0.02757 1.21374,0.0014 0.10913,0.02894 0.10913,0.08417 0.0815,0.636373 -0.0277,0.552207 -0.0829,1.601535 -0.16577,2.844126 -0.0829,1.242592 -0.19333,2.678515 -0.2761,4.749643 -0.0828,2.071127 -0.13801,4.777293 -0.16559,6.931209 -0.0276,2.153916 -0.0276,3.755523 -0.0276,4.666783 0,0.911259 0,1.132173 0,1.32547 0,0.193296 0,0.358981 -0.0263,0.440499 -0.0263,0.08152 -0.0815,0.08152 -0.16435,0.08152 -0.0828,0 -0.1933,0 -0.3064,0"
       id="path32629"
       inkscape:path-effect="#path-effect32635"
       inkscape:original-d="m 179.5758,89.392707 c 0.0579,-0.38395 0.1131,-0.770546 0.16569,-1.159785 0.003,-0.549635 0.003,-1.101913 0,-1.656837 0.003,-1.101913 0.003,-2.206471 0,-3.313673 0.003,-1.046684 0.003,-2.096013 0,-3.147989 -0.16304,-2.151242 -0.32873,-4.30513 -0.49706,-6.461664 0.003,-0.770544 0.003,-1.543733 0,-2.319571 -0.0526,-0.770543 -0.10781,-1.543735 -0.16568,-2.31957 0.003,-0.05258 0.003,-0.10781 0,-0.165685 0.0579,0.0026 0.1131,0.0026 0.16568,0 0.77584,-0.05258 1.54903,-0.10781 2.31958,-0.165682 1.43857,-0.05258 2.87449,-0.10781 4.30777,-0.165685 1.4938,-0.05258 2.98495,-0.107809 4.47346,-0.165684 3.04018,0.0026 6.07771,0.0026 9.1126,0 2.81927,0.0026 5.63589,0.0026 8.44987,0 1.54902,-0.05258 3.0954,-0.10781 4.63914,-0.165682 0.22356,0.0026 0.44447,0.0026 0.66273,0 0.003,0.05787 0.003,0.113101 0,0.165682 -0.0526,1.051978 -0.10781,2.101307 -0.16568,3.147991 -0.10781,1.438571 -0.21827,2.874494 -0.33137,4.307774 -0.0526,2.708812 -0.10781,5.414978 -0.16568,8.118498 0.003,1.604257 0.003,3.205864 0,4.804826 0.003,0.223557 0.003,0.444471 0,0.662736 0.003,0.168328 0.003,0.334013 0,0.497049 -0.0526,0.0026 -0.10781,0.0026 -0.16569,0 -0.1078,0.0026 -0.21826,0.0026 -0.33136,0" />
    <path
       style="opacity:1;vector-effect:none;fill:none;fill-opacity:1;fill-rule:evenodd;stroke:#db0000;stroke-width:0.529167;stroke-linecap:round;stroke-linejoin:miter;stroke-miterlimit:4;stroke-dasharray:1.05833, 3.175;stroke-dashoffset:0;stroke-opacity:1;paint-order:normal"
       d="m 180.07285,90.386808 c 4.75219,-0.110516 9.50179,-0.220971 13.14686,-0.276169 3.64507,-0.0552 6.18555,-0.0552 8.39466,-0.0552 2.20912,0 4.08687,0 5.4951,-0.02769 1.40823,-0.02769 2.3471,-0.08291 2.95468,-0.110457 0.60759,-0.02754 0.88374,-0.02754 1.15723,-0.02754"
       id="path32631"
       inkscape:path-effect="#path-effect32639"
       inkscape:original-d="m 180.07285,90.386808 c 4.75225,-0.10781 9.50185,-0.218266 14.2488,-0.331367 2.54313,0.0026 5.08361,0.0026 7.62144,0 1.8804,0.0026 3.75815,0.0026 5.63325,0 0.94152,-0.05258 1.88039,-0.10781 2.81662,-0.165685 0.27878,0.0026 0.55493,0.0026 0.82842,0" />
    <path
       style="opacity:1;vector-effect:none;fill:none;fill-opacity:1;fill-rule:evenodd;stroke:#000000;stroke-width:0.529167;stroke-linecap:round;stroke-linejoin:miter;stroke-miterlimit:4;stroke-dasharray:none;stroke-dashoffset:0;stroke-opacity:1;paint-order:normal"
       d="m 174.62011,57.72998 c -0.54673,0.602681 -1.09346,1.205364 -1.81602,2.109522 -0.72256,0.904158 -1.62076,2.109515 -2.55813,3.776103 -0.93737,1.666588 -1.91367,3.793697 -2.47981,5.620029 -0.56613,1.826333 -0.72234,3.35076 -0.80033,4.485364 -0.078,1.134604 -0.078,1.879092 -0.0388,2.747755 0.0392,0.868663 0.11726,1.861318 0.35262,2.588135 0.23535,0.726818 0.62587,1.187692 1.09474,1.434592 0.46887,0.246901 1.0156,0.282353 1.52321,0.299988 0.5076,0.01763 0.97623,0.01763 1.6986,-0.01791 0.72236,-0.03554 1.69866,-0.106444 2.30386,-0.159702 0.6052,-0.05326 0.83951,-0.08871 1.07158,-0.123822"
       id="path32645"
       inkscape:path-effect="#path-effect32647"
       inkscape:original-d="m 174.62011,57.72998 c -0.54408,0.605082 -1.09081,1.207764 -1.64018,1.808042 -0.89555,1.207764 -1.79374,2.413124 -2.69459,3.616084 -0.97365,2.12951 -1.94995,4.256619 -2.9289,6.381325 -0.15356,1.526829 -0.30977,3.051256 -0.46862,4.573282 0.003,0.746889 0.003,1.491377 0,2.233462 0.0807,0.995053 0.15885,1.987704 0.23431,2.977953 0.39317,0.463274 0.78369,0.924148 1.17156,1.382621 0.54937,0.03786 1.0961,0.07331 1.64018,0.106354 0.47127,0.0024 0.9399,0.0024 1.40588,0 0.97894,-0.0685 1.95524,-0.139404 2.9289,-0.212711 0.23696,-0.03305 0.47127,-0.0685 0.70293,-0.106354" />
    <path
       style="opacity:1;vector-effect:none;fill:none;fill-opacity:1;fill-rule:evenodd;stroke:#000000;stroke-width:0.529167;stroke-linecap:round;stroke-linejoin:miter;stroke-miterlimit:4;stroke-dasharray:none;stroke-dashoffset:0;stroke-opacity:1;paint-order:normal"
       d="m 171.4569,78.583756 c 1.05738,0.156649 2.11179,0.312858 2.83429,0.430099 0.7225,0.117241 1.11302,0.195345 1.46443,0.253801 0.35141,0.05846 0.66382,0.09751 0.83941,0.137699 0.17559,0.04019 0.21467,0.07927 0.23286,0.118309 0.0182,0.03904 0.0182,0.07809 -0.0211,0.174936 -0.0393,0.09684 -0.11742,0.253036 -0.19553,0.428932 -0.0781,0.175896 -0.15621,0.371141 -0.60514,0.956362 -0.44893,0.58522 -1.26903,1.561519 -2.06937,2.381391 -0.80035,0.819872 -1.58139,1.483756 -2.36266,2.147834"
       id="path32657"
       inkscape:path-effect="#path-effect32659"
       inkscape:original-d="m 171.4569,78.583756 c 1.05705,0.158854 2.11146,0.315064 3.16321,0.468625 0.39317,0.08075 0.78369,0.158853 1.17157,0.234313 0.31506,0.0417 0.62747,0.08075 0.93724,0.117154 0.0417,0.0417 0.0808,0.08075 0.11716,0.117158 0.003,0.0417 0.003,0.08075 0,0.117155 -0.0755,0.158853 -0.15356,0.315063 -0.23431,0.468624 -0.0755,0.197906 -0.15356,0.393166 -0.23431,0.58578 -0.81745,0.978945 -1.63754,1.955247 -2.46028,2.9289 -0.7784,0.666531 -1.55944,1.330415 -2.34312,1.991654" />
  </g>
</svg>
