\relax 
\providecommand\hyper@newdestlabel[2]{}
\providecommand\HyperFirstAtBeginDocument{\AtBeginDocument}
\HyperFirstAtBeginDocument{\ifx\hyper@anchor\@undefined
\global\let\oldcontentsline\contentsline
\gdef\contentsline#1#2#3#4{\oldcontentsline{#1}{#2}{#3}}
\global\let\oldnewlabel\newlabel
\gdef\newlabel#1#2{\newlabelxx{#1}#2}
\gdef\newlabelxx#1#2#3#4#5#6{\oldnewlabel{#1}{{#2}{#3}}}
\AtEndDocument{\ifx\hyper@anchor\@undefined
\let\contentsline\oldcontentsline
\let\newlabel\oldnewlabel
\fi}
\fi}
\global\let\hyper@last\relax 
\gdef\HyperFirstAtBeginDocument#1{#1}
\providecommand\HyField@AuxAddToFields[1]{}
\providecommand\HyField@AuxAddToCoFields[2]{}
\@writefile{toc}{\beamer@endinputifotherversion {3.26pt}}
\@writefile{nav}{\beamer@endinputifotherversion {3.26pt}}
\@writefile{nav}{\headcommand {\slideentry {0}{0}{1}{1/1}{}{0}}}
\@writefile{nav}{\headcommand {\beamer@framepages {1}{1}}}
\@writefile{nav}{\headcommand {\slideentry {0}{0}{2}{2/2}{}{0}}}
\@writefile{nav}{\headcommand {\beamer@framepages {2}{2}}}
\@writefile{nav}{\headcommand {\partentry {Bussiness bull\$hit}{1}}}
\@writefile{nav}{\headcommand {\beamer@partpages {1}{2}}}
\@writefile{nav}{\headcommand {\beamer@sectionpages {1}{2}}}
\@writefile{nav}{\headcommand {\beamer@subsectionpages {1}{2}}}
\@writefile{nav}{\headcommand {\slideentry {0}{0}{3}{3/3}{}{1}}}
\@writefile{nav}{\headcommand {\beamer@framepages {3}{3}}}
\@writefile{toc}{\beamer@sectionintoc {1}{Welcome and introductions}{4}{1}{1}}
\@writefile{nav}{\headcommand {\sectionentry {1}{Welcome and introductions}{4}{Welcome and introductions}{1}}}
\@writefile{nav}{\headcommand {\beamer@sectionpages {3}{3}}}
\@writefile{nav}{\headcommand {\beamer@subsectionpages {3}{3}}}
\@writefile{nav}{\headcommand {\slideentry {1}{0}{4}{4/4}{}{1}}}
\@writefile{nav}{\headcommand {\beamer@framepages {4}{4}}}
\@writefile{nav}{\headcommand {\slideentry {1}{0}{5}{5/5}{}{1}}}
\@writefile{nav}{\headcommand {\beamer@framepages {5}{5}}}
\@writefile{nav}{\headcommand {\slideentry {1}{0}{6}{6/10}{}{1}}}
\@writefile{nav}{\headcommand {\beamer@framepages {6}{10}}}
\@writefile{toc}{\beamer@sectionintoc {2}{Customer challenges}{11}{1}{2}}
\@writefile{nav}{\headcommand {\sectionentry {2}{Customer challenges}{11}{Customer challenges}{1}}}
\@writefile{nav}{\headcommand {\beamer@sectionpages {4}{10}}}
\@writefile{nav}{\headcommand {\beamer@subsectionpages {4}{10}}}
\@writefile{nav}{\headcommand {\slideentry {2}{0}{7}{11/11}{}{1}}}
\@writefile{nav}{\headcommand {\beamer@framepages {11}{11}}}
\@writefile{nav}{\headcommand {\slideentry {2}{0}{8}{12/12}{}{1}}}
\@writefile{nav}{\headcommand {\beamer@framepages {12}{12}}}
\@writefile{nav}{\headcommand {\slideentry {2}{0}{9}{13/13}{}{1}}}
\@writefile{nav}{\headcommand {\beamer@framepages {13}{13}}}
\@writefile{nav}{\headcommand {\slideentry {2}{0}{10}{14/14}{}{1}}}
\@writefile{nav}{\headcommand {\beamer@framepages {14}{14}}}
\@writefile{nav}{\headcommand {\slideentry {2}{0}{11}{15/15}{}{1}}}
\@writefile{nav}{\headcommand {\beamer@framepages {15}{15}}}
\@writefile{toc}{\beamer@sectionintoc {3}{Red Hat has solved these challenges for customers}{16}{1}{3}}
\@writefile{nav}{\headcommand {\sectionentry {3}{Red Hat has solved these challenges for customers}{16}{Red Hat has solved these challenges for customers}{1}}}
\@writefile{nav}{\headcommand {\beamer@sectionpages {11}{15}}}
\@writefile{nav}{\headcommand {\beamer@subsectionpages {11}{15}}}
\@writefile{nav}{\headcommand {\slideentry {3}{0}{12}{16/16}{}{1}}}
\@writefile{nav}{\headcommand {\beamer@framepages {16}{16}}}
\@writefile{toc}{\beamer@subsectionintoc {3}{1}{Case studies}{17}{1}{3}}
\@writefile{nav}{\headcommand {\beamer@subsectionentry {1}{3}{1}{17}{Case studies}}\headcommand {\beamer@subsectionpages {16}{16}}}
\@writefile{nav}{\headcommand {\slideentry {3}{1}{1}{17/17}{Case studies}{1}}}
\@writefile{nav}{\headcommand {\beamer@framepages {17}{17}}}
\@writefile{toc}{\beamer@subsectionintoc {3}{2}{Value}{18}{1}{3}}
\@writefile{nav}{\headcommand {\beamer@subsectionentry {1}{3}{2}{18}{Value}}\headcommand {\beamer@subsectionpages {17}{17}}}
\@writefile{nav}{\headcommand {\slideentry {3}{2}{1}{18/18}{Value}{1}}}
\@writefile{nav}{\headcommand {\beamer@framepages {18}{18}}}
\@writefile{nav}{\headcommand {\partentry {Other test slides}{2}}}
\@writefile{nav}{\headcommand {\beamer@partpages {3}{18}}}
\@writefile{nav}{\headcommand {\beamer@sectionpages {16}{18}}}
\@writefile{nav}{\headcommand {\beamer@subsectionpages {18}{18}}}
\@writefile{nav}{\headcommand {\slideentry {3}{0}{2}{19/19}{}{2}}}
\@writefile{nav}{\headcommand {\beamer@framepages {19}{19}}}
\@writefile{nav}{\headcommand {\slideentry {3}{0}{3}{20/20}{}{2}}}
\@writefile{nav}{\headcommand {\beamer@framepages {20}{20}}}
\@writefile{nav}{\headcommand {\slideentry {3}{0}{4}{21/21}{}{2}}}
\@writefile{nav}{\headcommand {\beamer@framepages {21}{21}}}
\@writefile{nav}{\headcommand {\slideentry {3}{0}{5}{22/22}{}{2}}}
\@writefile{nav}{\headcommand {\beamer@framepages {22}{22}}}
\bibcite{rfc1459}{\hyperlink {beamerbibrfc1459}{RFC1459}}
\bibcite{rfc2812}{\hyperlink {beamerbibrfc2812}{RFC2812}}
\bibcite{rfc2616}{\hyperlink {beamerbibrfc2616}{RFC2616}}
\bibcite{wiki}{\hyperlink {beamerbibwiki}{Wikipedia}}
\@writefile{nav}{\headcommand {\slideentry {3}{0}{6}{23/23}{}{2}}}
\@writefile{nav}{\headcommand {\beamer@framepages {23}{23}}}
\@writefile{nav}{\headcommand {\slideentry {3}{0}{7}{24/24}{}{2}}}
\@writefile{nav}{\headcommand {\beamer@framepages {24}{24}}}
\@writefile{nav}{\headcommand {\beamer@partpages {19}{24}}}
\@writefile{nav}{\headcommand {\beamer@subsectionpages {19}{24}}}
\@writefile{nav}{\headcommand {\beamer@sectionpages {19}{24}}}
\@writefile{nav}{\headcommand {\beamer@documentpages {24}}}
\@writefile{nav}{\headcommand {\def \inserttotalframenumber {20}}}
