\beamer@endinputifotherversion {3.26pt}
\beamer@sectionintoc {1}{Welcome and introductions}{4}{1}{1}
\beamer@sectionintoc {2}{Customer challenges}{11}{1}{2}
\beamer@sectionintoc {3}{Red Hat has solved these challenges for customers}{16}{1}{3}
\beamer@subsectionintoc {3}{1}{Case studies}{17}{1}{3}
\beamer@subsectionintoc {3}{2}{Value}{18}{1}{3}
